%!PS-Adobe-2.0 EPSF-2.0
%%Title: /scr.local/badger/multiloop/notes/pics/boxboxX.fig
%%Creator: fig2dev Version 3.2 Patchlevel 5
%%CreationDate: Tue Mar 27 14:24:56 2012
%%For: badger@nbia17.int.nbi.dk (Simon Badger)
%%BoundingBox: 0 0 513 361
%Magnification: 1.0000
%%EndComments
/$F2psDict 200 dict def
$F2psDict begin
$F2psDict /mtrx matrix put
/col-1 {0 setgray} bind def
/col0 {0.000 0.000 0.000 srgb} bind def
/col1 {0.000 0.000 1.000 srgb} bind def
/col2 {0.000 1.000 0.000 srgb} bind def
/col3 {0.000 1.000 1.000 srgb} bind def
/col4 {1.000 0.000 0.000 srgb} bind def
/col5 {1.000 0.000 1.000 srgb} bind def
/col6 {1.000 1.000 0.000 srgb} bind def
/col7 {1.000 1.000 1.000 srgb} bind def
/col8 {0.000 0.000 0.560 srgb} bind def
/col9 {0.000 0.000 0.690 srgb} bind def
/col10 {0.000 0.000 0.820 srgb} bind def
/col11 {0.530 0.810 1.000 srgb} bind def
/col12 {0.000 0.560 0.000 srgb} bind def
/col13 {0.000 0.690 0.000 srgb} bind def
/col14 {0.000 0.820 0.000 srgb} bind def
/col15 {0.000 0.560 0.560 srgb} bind def
/col16 {0.000 0.690 0.690 srgb} bind def
/col17 {0.000 0.820 0.820 srgb} bind def
/col18 {0.560 0.000 0.000 srgb} bind def
/col19 {0.690 0.000 0.000 srgb} bind def
/col20 {0.820 0.000 0.000 srgb} bind def
/col21 {0.560 0.000 0.560 srgb} bind def
/col22 {0.690 0.000 0.690 srgb} bind def
/col23 {0.820 0.000 0.820 srgb} bind def
/col24 {0.500 0.190 0.000 srgb} bind def
/col25 {0.630 0.250 0.000 srgb} bind def
/col26 {0.750 0.380 0.000 srgb} bind def
/col27 {1.000 0.500 0.500 srgb} bind def
/col28 {1.000 0.630 0.630 srgb} bind def
/col29 {1.000 0.750 0.750 srgb} bind def
/col30 {1.000 0.880 0.880 srgb} bind def
/col31 {1.000 0.840 0.000 srgb} bind def

end
save
newpath 0 361 moveto 0 0 lineto 513 0 lineto 513 361 lineto closepath clip newpath
-179.1 396.9 translate
1 -1 scale

/cp {closepath} bind def
/ef {eofill} bind def
/gr {grestore} bind def
/gs {gsave} bind def
/sa {save} bind def
/rs {restore} bind def
/l {lineto} bind def
/m {moveto} bind def
/rm {rmoveto} bind def
/n {newpath} bind def
/s {stroke} bind def
/sh {show} bind def
/slc {setlinecap} bind def
/slj {setlinejoin} bind def
/slw {setlinewidth} bind def
/srgb {setrgbcolor} bind def
/rot {rotate} bind def
/sc {scale} bind def
/sd {setdash} bind def
/ff {findfont} bind def
/sf {setfont} bind def
/scf {scalefont} bind def
/sw {stringwidth} bind def
/tr {translate} bind def
/tnt {dup dup currentrgbcolor
  4 -2 roll dup 1 exch sub 3 -1 roll mul add
  4 -2 roll dup 1 exch sub 3 -1 roll mul add
  4 -2 roll dup 1 exch sub 3 -1 roll mul add srgb}
  bind def
/shd {dup dup currentrgbcolor 4 -2 roll mul 4 -2 roll mul
  4 -2 roll mul srgb} bind def
/$F2psBegin {$F2psDict begin /$F2psEnteredState save def} def
/$F2psEnd {$F2psEnteredState restore end} def

$F2psBegin
10 setmiterlimit
0 slj 0 slc
 0.06000 0.06000 sc
%
% Fig objects follow
%
% 
% here starts figure with depth 50
% Polyline
0 slj
0 slc
60.000 slw
n 4800 2400 m
 3300 900 l gs col0 s gr 
% Polyline
n 4800 4800 m
 3300 6300 l gs col0 s gr 
% Polyline
15.000 slw
gs  clippath
3621 1607 m 3497 1483 l 3433 1547 l 3557 1671 l 3557 1671 l 3494 1544 l 3621 1607 l cp
eoclip
n 3900 1950 m
 3476 1526 l gs col0 s gr gr

% arrowhead
n 3621 1607 m 3494 1544 l 3557 1671 l 3621 1607 l  cp gs 0.00 setgray ef gr  col0 s
% Polyline
gs  clippath
3557 5528 m 3433 5652 l 3497 5716 l 3621 5592 l 3621 5592 l 3494 5656 l 3557 5528 l cp
eoclip
n 3900 5250 m
 3476 5674 l gs col0 s gr gr

% arrowhead
n 3557 5528 m 3494 5656 l 3621 5592 l 3557 5528 l  cp gs 0.00 setgray ef gr  col0 s
% Polyline
gs  clippath
4545 3460 m 4545 3285 l 4455 3285 l 4455 3460 l 4455 3460 l 4500 3325 l 4545 3460 l cp
eoclip
n 4500 3900 m
 4500 3300 l gs col0 s gr gr

% arrowhead
n 4545 3460 m 4500 3325 l 4455 3460 l 4545 3460 l  cp gs 0.00 setgray ef gr  col0 s
% Polyline
60.000 slw
n 8400 2400 m 4800 2400 l 4800 4800 l
 8400 4800 l gs col0 s gr 
% Polyline
n 8400 2400 m 9600 3600 l 8400 4800 l 7200 3600 l
 8400 2400 l  cp gs col0 s gr 
% Polyline
n 11100 3600 m
 9600 3600 l gs col0 s gr 
% Polyline
15.000 slw
gs  clippath
9278 3042 m 9402 3166 l 9466 3102 l 9342 2978 l 9342 2978 l 9406 3106 l 9278 3042 l cp
eoclip
n 9000 2700 m
 9424 3124 l gs col0 s gr gr

% arrowhead
n 9278 3042 m 9406 3106 l 9342 2978 l 9278 3042 l  cp gs 0.00 setgray ef gr  col0 s
% Polyline
gs  clippath
6310 5055 m 6135 5055 l 6135 5145 l 6310 5145 l 6310 5145 l 6175 5100 l 6310 5055 l cp
eoclip
n 6750 5100 m
 6150 5100 l gs col0 s gr gr

% arrowhead
n 6310 5055 m 6175 5100 l 6310 5145 l 6310 5055 l  cp gs 0.00 setgray ef gr  col0 s
% Polyline
gs  clippath
6740 2145 m 6915 2145 l 6915 2055 l 6740 2055 l 6740 2055 l 6875 2100 l 6740 2145 l cp
eoclip
n 6300 2100 m
 6900 2100 l gs col0 s gr gr

% arrowhead
n 6740 2145 m 6875 2100 l 6740 2055 l 6740 2145 l  cp gs 0.00 setgray ef gr  col0 s
% Polyline
gs  clippath
10490 3345 m 10665 3345 l 10665 3255 l 10490 3255 l 10490 3255 l 10625 3300 l 10490 3345 l cp
eoclip
n 10050 3300 m
 10650 3300 l gs col0 s gr gr

% arrowhead
n 10490 3345 m 10625 3300 l 10490 3255 l 10490 3345 l  cp gs 0.00 setgray ef gr  col0 s
% Polyline
gs  clippath
6310 3255 m 6135 3255 l 6135 3345 l 6310 3345 l 6310 3345 l 6175 3300 l 6310 3255 l cp
eoclip
n 6750 3300 m
 6150 3300 l gs col0 s gr gr

% arrowhead
n 6310 3255 m 6175 3300 l 6310 3345 l 6310 3255 l  cp gs 0.00 setgray ef gr  col0 s
% Polyline
gs  clippath
9081 4354 m 8957 4478 l 9021 4542 l 9145 4418 l 9145 4418 l 9018 4482 l 9081 4354 l cp
eoclip
n 9424 4076 m
 9000 4500 l gs col0 s gr gr

% arrowhead
n 9081 4354 m 9018 4482 l 9145 4418 l 9081 4354 l  cp gs 0.00 setgray ef gr  col0 s
% Polyline
gs  clippath
7504 4418 m 7628 4542 l 7692 4478 l 7568 4354 l 7568 4354 l 7632 4482 l 7504 4418 l cp
eoclip
n 7226 4076 m
 7650 4500 l gs col0 s gr gr

% arrowhead
n 7504 4418 m 7632 4482 l 7568 4354 l 7504 4418 l  cp gs 0.00 setgray ef gr  col0 s
% Polyline
gs  clippath
7457 2978 m 7333 3102 l 7397 3166 l 7521 3042 l 7521 3042 l 7394 3106 l 7457 2978 l cp
eoclip
n 7800 2700 m
 7376 3124 l gs col0 s gr gr

% arrowhead
n 7457 2978 m 7394 3106 l 7521 3042 l 7457 2978 l  cp gs 0.00 setgray ef gr  col0 s
% Polyline
60.000 slw
n 7200 3600 m
 5700 3600 l gs col0 s gr 
/Times-Roman ff 200.00 scf sf
3000 6600 m
gs 1 -1 sc (3) col0 sh gr
/Times-Roman ff 200.00 scf sf
3000 750 m
gs 1 -1 sc (4) col0 sh gr
/Times-Roman ff 200.00 scf sf
9450 2700 m
gs 1 -1 sc (l1) col0 sh gr
/Times-Roman ff 200.00 scf sf
9450 4650 m
gs 1 -1 sc (l2) col0 sh gr
/Times-Roman ff 200.00 scf sf
6450 1650 m
gs 1 -1 sc (l5) col0 sh gr
/Times-Roman ff 200.00 scf sf
6450 5550 m
gs 1 -1 sc (l3) col0 sh gr
/Times-Roman ff 200.00 scf sf
3750 3600 m
gs 1 -1 sc (l4) col0 sh gr
/Times-Roman ff 200.00 scf sf
7050 2850 m
gs 1 -1 sc (l6) col0 sh gr
/Times-Roman ff 200.00 scf sf
7050 4500 m
gs 1 -1 sc (l7) col0 sh gr
/Times-Roman ff 200.00 scf sf
5250 3600 m
gs 1 -1 sc (2) col0 sh gr
/Times-Roman ff 200.00 scf sf
11400 3600 m
gs 1 -1 sc (1) col0 sh gr
% here ends figure;
$F2psEnd
rs
showpage
%%Trailer
%EOF
