%!PS-Adobe-2.0 EPSF-2.0
%%Title: boxboxbox.fig
%%Creator: fig2dev Version 3.2 Patchlevel 5
%%CreationDate: Wed Mar 28 18:14:21 2012
%%For: badger@nbia17.int.nbi.dk (Simon Badger)
%%BoundingBox: 0 0 657 379
%Magnification: 1.0000
%%EndComments
/$F2psDict 200 dict def
$F2psDict begin
$F2psDict /mtrx matrix put
/col-1 {0 setgray} bind def
/col0 {0.000 0.000 0.000 srgb} bind def
/col1 {0.000 0.000 1.000 srgb} bind def
/col2 {0.000 1.000 0.000 srgb} bind def
/col3 {0.000 1.000 1.000 srgb} bind def
/col4 {1.000 0.000 0.000 srgb} bind def
/col5 {1.000 0.000 1.000 srgb} bind def
/col6 {1.000 1.000 0.000 srgb} bind def
/col7 {1.000 1.000 1.000 srgb} bind def
/col8 {0.000 0.000 0.560 srgb} bind def
/col9 {0.000 0.000 0.690 srgb} bind def
/col10 {0.000 0.000 0.820 srgb} bind def
/col11 {0.530 0.810 1.000 srgb} bind def
/col12 {0.000 0.560 0.000 srgb} bind def
/col13 {0.000 0.690 0.000 srgb} bind def
/col14 {0.000 0.820 0.000 srgb} bind def
/col15 {0.000 0.560 0.560 srgb} bind def
/col16 {0.000 0.690 0.690 srgb} bind def
/col17 {0.000 0.820 0.820 srgb} bind def
/col18 {0.560 0.000 0.000 srgb} bind def
/col19 {0.690 0.000 0.000 srgb} bind def
/col20 {0.820 0.000 0.000 srgb} bind def
/col21 {0.560 0.000 0.560 srgb} bind def
/col22 {0.690 0.000 0.690 srgb} bind def
/col23 {0.820 0.000 0.820 srgb} bind def
/col24 {0.500 0.190 0.000 srgb} bind def
/col25 {0.630 0.250 0.000 srgb} bind def
/col26 {0.750 0.380 0.000 srgb} bind def
/col27 {1.000 0.500 0.500 srgb} bind def
/col28 {1.000 0.630 0.630 srgb} bind def
/col29 {1.000 0.750 0.750 srgb} bind def
/col30 {1.000 0.880 0.880 srgb} bind def
/col31 {1.000 0.840 0.000 srgb} bind def

end
save
newpath 0 379 moveto 0 0 lineto 657 0 lineto 657 379 lineto closepath clip newpath
-35.1 405.9 translate
1 -1 scale

/cp {closepath} bind def
/ef {eofill} bind def
/gr {grestore} bind def
/gs {gsave} bind def
/sa {save} bind def
/rs {restore} bind def
/l {lineto} bind def
/m {moveto} bind def
/rm {rmoveto} bind def
/n {newpath} bind def
/s {stroke} bind def
/sh {show} bind def
/slc {setlinecap} bind def
/slj {setlinejoin} bind def
/slw {setlinewidth} bind def
/srgb {setrgbcolor} bind def
/rot {rotate} bind def
/sc {scale} bind def
/sd {setdash} bind def
/ff {findfont} bind def
/sf {setfont} bind def
/scf {scalefont} bind def
/sw {stringwidth} bind def
/tr {translate} bind def
/tnt {dup dup currentrgbcolor
  4 -2 roll dup 1 exch sub 3 -1 roll mul add
  4 -2 roll dup 1 exch sub 3 -1 roll mul add
  4 -2 roll dup 1 exch sub 3 -1 roll mul add srgb}
  bind def
/shd {dup dup currentrgbcolor 4 -2 roll mul 4 -2 roll mul
  4 -2 roll mul srgb} bind def
/$F2psBegin {$F2psDict begin /$F2psEnteredState save def} def
/$F2psEnd {$F2psEnteredState restore end} def

$F2psBegin
10 setmiterlimit
0 slj 0 slc
 0.06000 0.06000 sc
%
% Fig objects follow
%
% 
% here starts figure with depth 50
% Polyline
0 slj
0 slc
60.000 slw
n 9600 4800 m
 11100 6300 l gs col0 s gr 
% Polyline
n 9600 2400 m
 11100 900 l gs col0 s gr 
% Polyline
15.000 slw
gs  clippath
10842 1671 m 10966 1547 l 10902 1483 l 10778 1607 l 10778 1607 l 10906 1544 l 10842 1671 l cp
eoclip
n 10500 1950 m
 10924 1526 l gs col0 s gr gr

% arrowhead
n 10842 1671 m 10906 1544 l 10778 1607 l 10842 1671 l  cp gs 0.00 setgray ef gr  col0 s
% Polyline
gs  clippath
10778 5592 m 10902 5716 l 10966 5652 l 10842 5528 l 10842 5528 l 10906 5656 l 10778 5592 l cp
eoclip
n 10500 5250 m
 10924 5674 l gs col0 s gr gr

% arrowhead
n 10778 5592 m 10906 5656 l 10842 5528 l 10778 5592 l  cp gs 0.00 setgray ef gr  col0 s
% Polyline
gs  clippath
5860 5055 m 5685 5055 l 5685 5145 l 5860 5145 l 5860 5145 l 5725 5100 l 5860 5055 l cp
eoclip
n 6300 5100 m
 5700 5100 l gs col0 s gr gr

% arrowhead
n 5860 5055 m 5725 5100 l 5860 5145 l 5860 5055 l  cp gs 0.00 setgray ef gr  col0 s
% Polyline
gs  clippath
8260 5055 m 8085 5055 l 8085 5145 l 8260 5145 l 8260 5145 l 8125 5100 l 8260 5055 l cp
eoclip
n 8700 5100 m
 8100 5100 l gs col0 s gr gr

% arrowhead
n 8260 5055 m 8125 5100 l 8260 5145 l 8260 5055 l  cp gs 0.00 setgray ef gr  col0 s
% Polyline
gs  clippath
8540 2145 m 8715 2145 l 8715 2055 l 8540 2055 l 8540 2055 l 8675 2100 l 8540 2145 l cp
eoclip
n 8100 2100 m
 8700 2100 l gs col0 s gr gr

% arrowhead
n 8540 2145 m 8675 2100 l 8540 2055 l 8540 2145 l  cp gs 0.00 setgray ef gr  col0 s
% Polyline
gs  clippath
6140 2145 m 6315 2145 l 6315 2055 l 6140 2055 l 6140 2055 l 6275 2100 l 6140 2145 l cp
eoclip
n 5700 2100 m
 6300 2100 l gs col0 s gr gr

% arrowhead
n 6140 2145 m 6275 2100 l 6140 2055 l 6140 2145 l  cp gs 0.00 setgray ef gr  col0 s
% Polyline
gs  clippath
9855 3740 m 9855 3915 l 9945 3915 l 9945 3740 l 9945 3740 l 9900 3875 l 9855 3740 l cp
eoclip
n 9900 3300 m
 9900 3900 l gs col0 s gr gr

% arrowhead
n 9855 3740 m 9900 3875 l 9945 3740 l 9855 3740 l  cp gs 0.00 setgray ef gr  col0 s
% Polyline
gs  clippath
4545 3460 m 4545 3285 l 4455 3285 l 4455 3460 l 4455 3460 l 4500 3325 l 4545 3460 l cp
eoclip
n 4500 3900 m
 4500 3300 l gs col0 s gr gr

% arrowhead
n 4545 3460 m 4500 3325 l 4455 3460 l 4545 3460 l  cp gs 0.00 setgray ef gr  col0 s
% Polyline
gs  clippath
6855 3740 m 6855 3915 l 6945 3915 l 6945 3740 l 6945 3740 l 6900 3875 l 6855 3740 l cp
eoclip
n 6900 3300 m
 6900 3900 l gs col0 s gr gr

% arrowhead
n 6855 3740 m 6900 3875 l 6945 3740 l 6855 3740 l  cp gs 0.00 setgray ef gr  col0 s
% Polyline
60.000 slw
n 9600 2400 m 7200 2400 l 7200 4800 l 9600 4800 l
 cp gs col0 s gr 
% Polyline
n 7200 2400 m 4800 2400 l 4800 4800 l
 7200 4800 l gs col0 s gr 
% Polyline
n 4800 2400 m 2400 2400 l 2400 4800 l
 4800 4800 l gs col0 s gr 
% Polyline
n 2400 2400 m
 900 900 l gs col0 s gr 
% Polyline
n 2400 4800 m
 900 6300 l gs col0 s gr 
% Polyline
15.000 slw
gs  clippath
1221 1607 m 1097 1483 l 1033 1547 l 1157 1671 l 1157 1671 l 1094 1544 l 1221 1607 l cp
eoclip
n 1500 1950 m
 1076 1526 l gs col0 s gr gr

% arrowhead
n 1221 1607 m 1094 1544 l 1157 1671 l 1221 1607 l  cp gs 0.00 setgray ef gr  col0 s
% Polyline
gs  clippath
1157 5528 m 1033 5652 l 1097 5716 l 1221 5592 l 1221 5592 l 1094 5656 l 1157 5528 l cp
eoclip
n 1500 5250 m
 1076 5674 l gs col0 s gr gr

% arrowhead
n 1157 5528 m 1094 5656 l 1221 5592 l 1157 5528 l  cp gs 0.00 setgray ef gr  col0 s
% Polyline
gs  clippath
3310 5055 m 3135 5055 l 3135 5145 l 3310 5145 l 3310 5145 l 3175 5100 l 3310 5055 l cp
eoclip
n 3750 5100 m
 3150 5100 l gs col0 s gr gr

% arrowhead
n 3310 5055 m 3175 5100 l 3310 5145 l 3310 5055 l  cp gs 0.00 setgray ef gr  col0 s
% Polyline
gs  clippath
2145 3460 m 2145 3285 l 2055 3285 l 2055 3460 l 2055 3460 l 2100 3325 l 2145 3460 l cp
eoclip
n 2100 3900 m
 2100 3300 l gs col0 s gr gr

% arrowhead
n 2145 3460 m 2100 3325 l 2055 3460 l 2145 3460 l  cp gs 0.00 setgray ef gr  col0 s
% Polyline
gs  clippath
3740 2145 m 3915 2145 l 3915 2055 l 3740 2055 l 3740 2055 l 3875 2100 l 3740 2145 l cp
eoclip
n 3300 2100 m
 3900 2100 l gs col0 s gr gr

% arrowhead
n 3740 2145 m 3875 2100 l 3740 2055 l 3740 2145 l  cp gs 0.00 setgray ef gr  col0 s
/Times-Roman ff 200.00 scf sf
8250 5400 m
gs 1 -1 sc (l3) col0 sh gr
/Times-Roman ff 200.00 scf sf
8250 1800 m
gs 1 -1 sc (l1) col0 sh gr
/Times-Roman ff 200.00 scf sf
10200 3600 m
gs 1 -1 sc (l2) col0 sh gr
/Times-Roman ff 200.00 scf sf
11400 600 m
gs 1 -1 sc (1) col0 sh gr
/Times-Roman ff 200.00 scf sf
11400 6750 m
gs 1 -1 sc (2) col0 sh gr
/Times-Roman ff 200.00 scf sf
600 6600 m
gs 1 -1 sc (3) col0 sh gr
/Times-Roman ff 200.00 scf sf
600 750 m
gs 1 -1 sc (4) col0 sh gr
/Times-Roman ff 200.00 scf sf
3450 5400 m
gs 1 -1 sc (l5) col0 sh gr
/Times-Roman ff 200.00 scf sf
6000 5400 m
gs 1 -1 sc (l4) col0 sh gr
/Times-Roman ff 200.00 scf sf
1650 3600 m
gs 1 -1 sc (l6) col0 sh gr
/Times-Roman ff 200.00 scf sf
3450 1800 m
gs 1 -1 sc (l7) col0 sh gr
/Times-Roman ff 200.00 scf sf
5850 1800 m
gs 1 -1 sc (l8) col0 sh gr
/Times-Roman ff 200.00 scf sf
6450 3600 m
gs 1 -1 sc (l9) col0 sh gr
/Times-Roman ff 200.00 scf sf
3900 3600 m
gs 1 -1 sc (l10) col0 sh gr
% here ends figure;
$F2psEnd
rs
showpage
%%Trailer
%EOF
