#FIG 3.2  Produced by xfig version 3.2.5a
Landscape
Center
Inches
Letter  
100.00
Single
-2
1200 2
2 1 0 5 0 7 50 -1 -1 0.000 0 0 -1 0 0 2
	 4800 2400 3300 900
2 1 0 2 0 7 50 -1 -1 0.000 0 0 -1 1 0 2
	1 1 2.00 90.00 135.00
	 4350 1500 3926 1076
2 1 0 2 0 7 50 -1 -1 0.000 0 0 -1 1 0 2
	1 1 2.00 90.00 135.00
	 7500 5700 7500 6300
2 1 0 2 0 7 50 -1 -1 0.000 0 0 -1 1 0 2
	1 1 2.00 90.00 135.00
	 7500 3300 7500 3900
2 1 0 2 0 7 50 -1 -1 0.000 0 0 -1 1 0 2
	1 1 2.00 90.00 135.00
	 4500 3900 4500 3300
2 1 0 2 0 7 50 -1 -1 0.000 0 0 -1 1 0 2
	1 1 2.00 90.00 135.00
	 4500 6300 4500 5700
2 1 0 2 0 7 50 -1 -1 0.000 0 0 -1 1 0 2
	1 1 2.00 90.00 135.00
	 5700 2100 6300 2100
2 1 0 2 0 7 50 -1 -1 0.000 0 0 -1 1 0 2
	1 1 2.00 90.00 135.00
	 6300 7500 5700 7500
2 2 0 5 0 7 50 -1 -1 0.000 0 0 -1 0 0 5
	 4800 2400 4800 4800 7200 4800 7200 2400 4800 2400
2 1 0 5 0 7 50 -1 -1 0.000 0 0 -1 0 0 4
	 4800 4800 4800 7200 7200 7200 7200 4800
2 1 0 5 0 7 50 -1 -1 0.000 0 0 -1 0 0 4
	 7200 7200 9600 7200 9600 2400 7200 2400
2 1 0 5 0 7 50 -1 -1 0.000 0 0 -1 0 0 2
	 9600 2400 11100 900
2 1 0 5 0 7 50 -1 -1 0.000 0 0 -1 0 0 2
	 4800 7200 3300 8700
2 1 0 5 0 7 50 -1 -1 0.000 0 0 -1 0 0 2
	 9600 7200 11100 8700
2 1 0 2 0 7 50 -1 -1 0.000 0 0 -1 1 0 2
	1 1 2.00 90.00 135.00
	 10500 1950 10924 1526
2 1 0 2 0 7 50 -1 -1 0.000 0 0 -1 1 0 2
	1 1 2.00 90.00 135.00
	 9926 8126 10350 8550
2 1 0 2 0 7 50 -1 -1 0.000 0 0 -1 1 0 2
	1 1 2.00 90.00 135.00
	 4350 8100 3926 8524
2 1 0 2 0 7 50 -1 -1 0.000 0 0 -1 1 0 2
	1 1 2.00 90.00 135.00
	 8700 7500 8100 7500
2 1 0 2 0 7 50 -1 -1 0.000 0 0 -1 1 0 2
	1 1 2.00 90.00 135.00
	 8100 2100 8700 2100
2 1 0 2 0 7 50 -1 -1 0.000 0 0 -1 1 0 2
	1 1 2.00 90.00 135.00
	 9900 4500 9900 5100
2 1 0 2 0 7 50 -1 -1 0.000 0 0 -1 1 0 2
	1 1 2.00 90.00 135.00
	 6300 5100 5700 5100
4 0 0 50 -1 0 12 0.0000 4 135 105 11400 600 1\001
4 0 0 50 -1 0 12 0.0000 4 135 105 2850 600 4\001
4 0 0 50 -1 0 12 0.0000 4 135 105 2850 9150 3\001
4 0 0 50 -1 0 12 0.0000 4 135 105 11400 9000 2\001
4 0 0 50 -1 0 12 0.0000 4 135 165 6000 1800 l7\001
4 0 0 50 -1 0 12 0.0000 4 135 165 8400 1800 l1\001
4 0 0 50 -1 0 12 0.0000 4 135 165 8400 8100 l3\001
4 0 0 50 -1 0 12 0.0000 4 135 165 6000 8100 l4\001
4 0 0 50 -1 0 12 0.0000 4 135 165 4200 6150 l5\001
4 0 0 50 -1 0 12 0.0000 4 135 165 4200 3750 l6\001
4 0 0 50 -1 0 12 0.0000 4 135 165 6000 5400 l9\001
4 0 0 50 -1 0 12 0.0000 4 135 165 7800 3600 l8\001
4 0 0 50 -1 0 12 0.0000 4 135 270 7800 6000 l10\001
4 0 0 50 -1 0 12 0.0000 4 135 165 10200 4800 l2\001
