%!PS-Adobe-2.0 EPSF-2.0
%%Title: tripent.fig
%%Creator: fig2dev Version 3.2 Patchlevel 5
%%CreationDate: Tue Mar 27 14:29:46 2012
%%For: badger@nbia17.int.nbi.dk (Simon Badger)
%%BoundingBox: 0 0 369 361
%Magnification: 1.0000
%%EndComments
/$F2psDict 200 dict def
$F2psDict begin
$F2psDict /mtrx matrix put
/col-1 {0 setgray} bind def
/col0 {0.000 0.000 0.000 srgb} bind def
/col1 {0.000 0.000 1.000 srgb} bind def
/col2 {0.000 1.000 0.000 srgb} bind def
/col3 {0.000 1.000 1.000 srgb} bind def
/col4 {1.000 0.000 0.000 srgb} bind def
/col5 {1.000 0.000 1.000 srgb} bind def
/col6 {1.000 1.000 0.000 srgb} bind def
/col7 {1.000 1.000 1.000 srgb} bind def
/col8 {0.000 0.000 0.560 srgb} bind def
/col9 {0.000 0.000 0.690 srgb} bind def
/col10 {0.000 0.000 0.820 srgb} bind def
/col11 {0.530 0.810 1.000 srgb} bind def
/col12 {0.000 0.560 0.000 srgb} bind def
/col13 {0.000 0.690 0.000 srgb} bind def
/col14 {0.000 0.820 0.000 srgb} bind def
/col15 {0.000 0.560 0.560 srgb} bind def
/col16 {0.000 0.690 0.690 srgb} bind def
/col17 {0.000 0.820 0.820 srgb} bind def
/col18 {0.560 0.000 0.000 srgb} bind def
/col19 {0.690 0.000 0.000 srgb} bind def
/col20 {0.820 0.000 0.000 srgb} bind def
/col21 {0.560 0.000 0.560 srgb} bind def
/col22 {0.690 0.000 0.690 srgb} bind def
/col23 {0.820 0.000 0.820 srgb} bind def
/col24 {0.500 0.190 0.000 srgb} bind def
/col25 {0.630 0.250 0.000 srgb} bind def
/col26 {0.750 0.380 0.000 srgb} bind def
/col27 {1.000 0.500 0.500 srgb} bind def
/col28 {1.000 0.630 0.630 srgb} bind def
/col29 {1.000 0.750 0.750 srgb} bind def
/col30 {1.000 0.880 0.880 srgb} bind def
/col31 {1.000 0.840 0.000 srgb} bind def

end
save
newpath 0 361 moveto 0 0 lineto 369 0 lineto 369 361 lineto closepath clip newpath
-179.1 396.9 translate
1 -1 scale

/cp {closepath} bind def
/ef {eofill} bind def
/gr {grestore} bind def
/gs {gsave} bind def
/sa {save} bind def
/rs {restore} bind def
/l {lineto} bind def
/m {moveto} bind def
/rm {rmoveto} bind def
/n {newpath} bind def
/s {stroke} bind def
/sh {show} bind def
/slc {setlinecap} bind def
/slj {setlinejoin} bind def
/slw {setlinewidth} bind def
/srgb {setrgbcolor} bind def
/rot {rotate} bind def
/sc {scale} bind def
/sd {setdash} bind def
/ff {findfont} bind def
/sf {setfont} bind def
/scf {scalefont} bind def
/sw {stringwidth} bind def
/tr {translate} bind def
/tnt {dup dup currentrgbcolor
  4 -2 roll dup 1 exch sub 3 -1 roll mul add
  4 -2 roll dup 1 exch sub 3 -1 roll mul add
  4 -2 roll dup 1 exch sub 3 -1 roll mul add srgb}
  bind def
/shd {dup dup currentrgbcolor 4 -2 roll mul 4 -2 roll mul
  4 -2 roll mul srgb} bind def
/$F2psBegin {$F2psDict begin /$F2psEnteredState save def} def
/$F2psEnd {$F2psEnteredState restore end} def

$F2psBegin
10 setmiterlimit
0 slj 0 slc
 0.06000 0.06000 sc
%
% Fig objects follow
%
% 
% here starts figure with depth 50
% Polyline
0 slj
0 slc
60.000 slw
n 4800 2400 m
 3300 900 l gs col0 s gr 
% Polyline
n 4800 4800 m
 3300 6300 l gs col0 s gr 
% Polyline
15.000 slw
gs  clippath
3621 1607 m 3497 1483 l 3433 1547 l 3557 1671 l 3557 1671 l 3494 1544 l 3621 1607 l cp
eoclip
n 3900 1950 m
 3476 1526 l gs col0 s gr gr

% arrowhead
n 3621 1607 m 3494 1544 l 3557 1671 l 3621 1607 l  cp gs 0.00 setgray ef gr  col0 s
% Polyline
gs  clippath
3557 5528 m 3433 5652 l 3497 5716 l 3621 5592 l 3621 5592 l 3494 5656 l 3557 5528 l cp
eoclip
n 3900 5250 m
 3476 5674 l gs col0 s gr gr

% arrowhead
n 3557 5528 m 3494 5656 l 3621 5592 l 3557 5528 l  cp gs 0.00 setgray ef gr  col0 s
% Polyline
gs  clippath
4545 3460 m 4545 3285 l 4455 3285 l 4455 3460 l 4455 3460 l 4500 3325 l 4545 3460 l cp
eoclip
n 4500 3900 m
 4500 3300 l gs col0 s gr gr

% arrowhead
n 4545 3460 m 4500 3325 l 4455 3460 l 4545 3460 l  cp gs 0.00 setgray ef gr  col0 s
% Polyline
60.000 slw
n 4800 2400 m 7200 2400 l 7200 4800 l 4800 4800 l
 cp gs col0 s gr 
% Polyline
n 5550 2400 m
 7200 4050 l gs col0 s gr 
% Polyline
n 8700 900 m
 7200 2400 l gs col0 s gr 
% Polyline
n 8700 6300 m
 7200 4800 l gs col0 s gr 
% Polyline
15.000 slw
gs  clippath
8104 5468 m 8228 5592 l 8292 5528 l 8168 5404 l 8168 5404 l 8232 5532 l 8104 5468 l cp
eoclip
n 7826 5126 m
 8250 5550 l gs col0 s gr gr

% arrowhead
n 8104 5468 m 8232 5532 l 8168 5404 l 8104 5468 l  cp gs 0.00 setgray ef gr  col0 s
% Polyline
gs  clippath
8292 1671 m 8416 1547 l 8352 1483 l 8228 1607 l 8228 1607 l 8356 1544 l 8292 1671 l cp
eoclip
n 7950 1950 m
 8374 1526 l gs col0 s gr gr

% arrowhead
n 8292 1671 m 8356 1544 l 8228 1607 l 8292 1671 l  cp gs 0.00 setgray ef gr  col0 s
% Polyline
gs  clippath
6154 3518 m 6278 3642 l 6342 3578 l 6218 3454 l 6218 3454 l 6282 3582 l 6154 3518 l cp
eoclip
n 5876 3176 m
 6300 3600 l gs col0 s gr gr

% arrowhead
n 6154 3518 m 6282 3582 l 6218 3454 l 6154 3518 l  cp gs 0.00 setgray ef gr  col0 s
% Polyline
gs  clippath
5860 5055 m 5685 5055 l 5685 5145 l 5860 5145 l 5860 5145 l 5725 5100 l 5860 5055 l cp
eoclip
n 6300 5100 m
 5700 5100 l gs col0 s gr gr

% arrowhead
n 5860 5055 m 5725 5100 l 5860 5145 l 5860 5055 l  cp gs 0.00 setgray ef gr  col0 s
% Polyline
gs  clippath
7455 3290 m 7455 3465 l 7545 3465 l 7545 3290 l 7545 3290 l 7500 3425 l 7455 3290 l cp
eoclip
n 7500 2850 m
 7500 3450 l gs col0 s gr gr

% arrowhead
n 7455 3290 m 7500 3425 l 7545 3290 l 7455 3290 l  cp gs 0.00 setgray ef gr  col0 s
% Polyline
gs  clippath
7455 4490 m 7455 4665 l 7545 4665 l 7545 4490 l 7545 4490 l 7500 4625 l 7455 4490 l cp
eoclip
n 7500 4050 m
 7500 4650 l gs col0 s gr gr

% arrowhead
n 7455 4490 m 7500 4625 l 7545 4490 l 7455 4490 l  cp gs 0.00 setgray ef gr  col0 s
% Polyline
gs  clippath
6590 2145 m 6765 2145 l 6765 2055 l 6590 2055 l 6590 2055 l 6725 2100 l 6590 2145 l cp
eoclip
n 6150 2100 m
 6750 2100 l gs col0 s gr gr

% arrowhead
n 6590 2145 m 6725 2100 l 6590 2055 l 6590 2145 l  cp gs 0.00 setgray ef gr  col0 s
% Polyline
gs  clippath
5390 2145 m 5565 2145 l 5565 2055 l 5390 2055 l 5390 2055 l 5525 2100 l 5390 2145 l cp
eoclip
n 4950 2100 m
 5550 2100 l gs col0 s gr gr

% arrowhead
n 5390 2145 m 5525 2100 l 5390 2055 l 5390 2145 l  cp gs 0.00 setgray ef gr  col0 s
/Times-Roman ff 200.00 scf sf
3000 6600 m
gs 1 -1 sc (3) col0 sh gr
/Times-Roman ff 200.00 scf sf
3000 750 m
gs 1 -1 sc (4) col0 sh gr
/Times-Roman ff 200.00 scf sf
9000 6600 m
gs 1 -1 sc (2) col0 sh gr
/Times-Roman ff 200.00 scf sf
9000 750 m
gs 1 -1 sc (1) col0 sh gr
/Times-Roman ff 200.00 scf sf
7800 3150 m
gs 1 -1 sc (l2) col0 sh gr
/Times-Roman ff 200.00 scf sf
6300 1950 m
gs 1 -1 sc (l1) col0 sh gr
/Times-Roman ff 200.00 scf sf
5700 3600 m
gs 1 -1 sc (l7) col0 sh gr
/Times-Roman ff 200.00 scf sf
5100 1950 m
gs 1 -1 sc (l6) col0 sh gr
/Times-Roman ff 200.00 scf sf
4050 3600 m
gs 1 -1 sc (l5) col0 sh gr
/Times-Roman ff 200.00 scf sf
6000 5550 m
gs 1 -1 sc (l4) col0 sh gr
/Times-Roman ff 200.00 scf sf
7800 4350 m
gs 1 -1 sc (l3) col0 sh gr
% here ends figure;
$F2psEnd
rs
showpage
%%Trailer
%EOF
