%!PS-Adobe-2.0 EPSF-2.0
%%Title: /scr.local/badger/multiloop/notes/pics/tritriBT.fig
%%Creator: fig2dev Version 3.2 Patchlevel 5
%%CreationDate: Wed Mar 28 11:35:16 2012
%%For: badger@nbia17.int.nbi.dk (Simon Badger)
%%BoundingBox: 0 0 477 361
%Magnification: 1.0000
%%EndComments
/$F2psDict 200 dict def
$F2psDict begin
$F2psDict /mtrx matrix put
/col-1 {0 setgray} bind def
/col0 {0.000 0.000 0.000 srgb} bind def
/col1 {0.000 0.000 1.000 srgb} bind def
/col2 {0.000 1.000 0.000 srgb} bind def
/col3 {0.000 1.000 1.000 srgb} bind def
/col4 {1.000 0.000 0.000 srgb} bind def
/col5 {1.000 0.000 1.000 srgb} bind def
/col6 {1.000 1.000 0.000 srgb} bind def
/col7 {1.000 1.000 1.000 srgb} bind def
/col8 {0.000 0.000 0.560 srgb} bind def
/col9 {0.000 0.000 0.690 srgb} bind def
/col10 {0.000 0.000 0.820 srgb} bind def
/col11 {0.530 0.810 1.000 srgb} bind def
/col12 {0.000 0.560 0.000 srgb} bind def
/col13 {0.000 0.690 0.000 srgb} bind def
/col14 {0.000 0.820 0.000 srgb} bind def
/col15 {0.000 0.560 0.560 srgb} bind def
/col16 {0.000 0.690 0.690 srgb} bind def
/col17 {0.000 0.820 0.820 srgb} bind def
/col18 {0.560 0.000 0.000 srgb} bind def
/col19 {0.690 0.000 0.000 srgb} bind def
/col20 {0.820 0.000 0.000 srgb} bind def
/col21 {0.560 0.000 0.560 srgb} bind def
/col22 {0.690 0.000 0.690 srgb} bind def
/col23 {0.820 0.000 0.820 srgb} bind def
/col24 {0.500 0.190 0.000 srgb} bind def
/col25 {0.630 0.250 0.000 srgb} bind def
/col26 {0.750 0.380 0.000 srgb} bind def
/col27 {1.000 0.500 0.500 srgb} bind def
/col28 {1.000 0.630 0.630 srgb} bind def
/col29 {1.000 0.750 0.750 srgb} bind def
/col30 {1.000 0.880 0.880 srgb} bind def
/col31 {1.000 0.840 0.000 srgb} bind def

end
save
newpath 0 361 moveto 0 0 lineto 477 0 lineto 477 361 lineto closepath clip newpath
-323.1 396.9 translate
1 -1 scale

/cp {closepath} bind def
/ef {eofill} bind def
/gr {grestore} bind def
/gs {gsave} bind def
/sa {save} bind def
/rs {restore} bind def
/l {lineto} bind def
/m {moveto} bind def
/rm {rmoveto} bind def
/n {newpath} bind def
/s {stroke} bind def
/sh {show} bind def
/slc {setlinecap} bind def
/slj {setlinejoin} bind def
/slw {setlinewidth} bind def
/srgb {setrgbcolor} bind def
/rot {rotate} bind def
/sc {scale} bind def
/sd {setdash} bind def
/ff {findfont} bind def
/sf {setfont} bind def
/scf {scalefont} bind def
/sw {stringwidth} bind def
/tr {translate} bind def
/tnt {dup dup currentrgbcolor
  4 -2 roll dup 1 exch sub 3 -1 roll mul add
  4 -2 roll dup 1 exch sub 3 -1 roll mul add
  4 -2 roll dup 1 exch sub 3 -1 roll mul add srgb}
  bind def
/shd {dup dup currentrgbcolor 4 -2 roll mul 4 -2 roll mul
  4 -2 roll mul srgb} bind def
/$F2psBegin {$F2psDict begin /$F2psEnteredState save def} def
/$F2psEnd {$F2psEnteredState restore end} def

$F2psBegin
10 setmiterlimit
0 slj 0 slc
 0.06000 0.06000 sc
%
% Fig objects follow
%
% 
% here starts figure with depth 50
% Polyline
0 slj
0 slc
60.000 slw
n 7200 2400 m
 7200 4800 l gs col0 s gr 
% Polyline
n 7200 2400 m 9300 3600 l
 7200 4800 l gs col0 s gr 
% Polyline
15.000 slw
gs  clippath
8199 4477 m 8048 4564 l 8093 4642 l 8244 4555 l 8244 4555 l 8105 4584 l 8199 4477 l cp
eoclip
n 8604 4296 m
 8084 4596 l gs col0 s gr gr

% arrowhead
n 8199 4477 m 8105 4584 l 8244 4555 l 8199 4477 l  cp gs 0.00 setgray ef gr  col0 s
% Polyline
gs  clippath
8539 2959 m 8690 3046 l 8735 2968 l 8584 2881 l 8584 2881 l 8679 2988 l 8539 2959 l cp
eoclip
n 8180 2700 m
 8700 3000 l gs col0 s gr gr

% arrowhead
n 8539 2959 m 8679 2988 l 8584 2881 l 8539 2959 l  cp gs 0.00 setgray ef gr  col0 s
% Polyline
60.000 slw
n 11400 2400 m 9300 3600 l
 11400 4800 l gs col0 s gr 
% Polyline
n 11400 2400 m
 11400 4800 l gs col0 s gr 
% Polyline
n 7200 2400 m
 5700 900 l gs col0 s gr 
% Polyline
n 12900 900 m
 11400 2400 l gs col0 s gr 
% Polyline
n 7200 4800 m
 5700 6300 l gs col0 s gr 
% Polyline
n 12900 6300 m
 11400 4800 l gs col0 s gr 
% Polyline
15.000 slw
gs  clippath
11655 3740 m 11655 3915 l 11745 3915 l 11745 3740 l 11745 3740 l 11700 3875 l 11655 3740 l cp
eoclip
n 11700 3300 m
 11700 3900 l gs col0 s gr gr

% arrowhead
n 11655 3740 m 11700 3875 l 11745 3740 l 11655 3740 l  cp gs 0.00 setgray ef gr  col0 s
% Polyline
gs  clippath
6945 3460 m 6945 3285 l 6855 3285 l 6855 3460 l 6855 3460 l 6900 3325 l 6945 3460 l cp
eoclip
n 6900 3900 m
 6900 3300 l gs col0 s gr gr

% arrowhead
n 6945 3460 m 6900 3325 l 6855 3460 l 6945 3460 l  cp gs 0.00 setgray ef gr  col0 s
% Polyline
gs  clippath
5957 5528 m 5833 5652 l 5897 5716 l 6021 5592 l 6021 5592 l 5894 5656 l 5957 5528 l cp
eoclip
n 6300 5250 m
 5876 5674 l gs col0 s gr gr

% arrowhead
n 5957 5528 m 5894 5656 l 6021 5592 l 5957 5528 l  cp gs 0.00 setgray ef gr  col0 s
% Polyline
gs  clippath
6171 1757 m 6047 1633 l 5983 1697 l 6107 1821 l 6107 1821 l 6044 1694 l 6171 1757 l cp
eoclip
n 6450 2100 m
 6026 1676 l gs col0 s gr gr

% arrowhead
n 6171 1757 m 6044 1694 l 6107 1821 l 6171 1757 l  cp gs 0.00 setgray ef gr  col0 s
% Polyline
gs  clippath
12428 5442 m 12552 5566 l 12616 5502 l 12492 5378 l 12492 5378 l 12556 5506 l 12428 5442 l cp
eoclip
n 12150 5100 m
 12574 5524 l gs col0 s gr gr

% arrowhead
n 12428 5442 m 12556 5506 l 12492 5378 l 12428 5442 l  cp gs 0.00 setgray ef gr  col0 s
% Polyline
gs  clippath
10140 4390 m 9989 4303 l 9944 4381 l 10095 4468 l 10095 4468 l 10001 4362 l 10140 4390 l cp
eoclip
n 10500 4650 m
 9980 4350 l gs col0 s gr gr

% arrowhead
n 10140 4390 m 10001 4362 l 10095 4468 l 10140 4390 l  cp gs 0.00 setgray ef gr  col0 s
% Polyline
gs  clippath
12492 1821 m 12616 1697 l 12552 1633 l 12428 1757 l 12428 1757 l 12556 1694 l 12492 1821 l cp
eoclip
n 12150 2100 m
 12574 1676 l gs col0 s gr gr

% arrowhead
n 12492 1821 m 12556 1694 l 12428 1757 l 12492 1821 l  cp gs 0.00 setgray ef gr  col0 s
% Polyline
gs  clippath
10304 2668 m 10455 2581 l 10410 2503 l 10259 2590 l 10259 2590 l 10399 2562 l 10304 2668 l cp
eoclip
n 9900 2850 m
 10420 2550 l gs col0 s gr gr

% arrowhead
n 10304 2668 m 10399 2562 l 10259 2590 l 10304 2668 l  cp gs 0.00 setgray ef gr  col0 s
/Times-Roman ff 200.00 scf sf
6450 3600 m
gs 1 -1 sc (l5) col0 sh gr
/Times-Roman ff 200.00 scf sf
12000 3600 m
gs 1 -1 sc (l2) col0 sh gr
/Times-Roman ff 200.00 scf sf
13050 750 m
gs 1 -1 sc (1) col0 sh gr
/Times-Roman ff 200.00 scf sf
13200 6600 m
gs 1 -1 sc (2) col0 sh gr
/Times-Roman ff 200.00 scf sf
5400 6600 m
gs 1 -1 sc (3) col0 sh gr
/Times-Roman ff 200.00 scf sf
5400 750 m
gs 1 -1 sc (4) col0 sh gr
/Times-Roman ff 200.00 scf sf
8400 4950 m
gs 1 -1 sc (l4) col0 sh gr
/Times-Roman ff 200.00 scf sf
8400 2550 m
gs 1 -1 sc (l6) col0 sh gr
/Times-Roman ff 200.00 scf sf
9900 2550 m
gs 1 -1 sc (l1) col0 sh gr
/Times-Roman ff 200.00 scf sf
9900 4950 m
gs 1 -1 sc (l3) col0 sh gr
% here ends figure;
$F2psEnd
rs
showpage
%%Trailer
%EOF
