%!PS-Adobe-3.0 EPSF-3.0
%%BoundingBox: 134 364 490 660
%%Creator: hjf with JaxoDraw-2.1-0
%%Title: 
%%CreationDate: 16/9/2013
%%BeginProlog
/imStr 0 def /imageSrc {currentfile /ASCII85Decode filter /RunLengthDecode filter  imStr readstring pop } def
/BD {bind def} bind def
/D {def} BD
/C {curveto} BD
/L {lineto} BD
/M {moveto} BD
/R {grestore} BD
/G {gsave} BD
/N {newpath} BD
/P {closepath} BD
/EC {eoclip} BD
/WC {clip} BD
/EF {eofill} BD
/WF {fill} BD
/SG {setgray} BD
/SC {setrgbcolor} BD
/ISOF {
     dup findfont dup length 1 add dict begin {
             1 index /FID eq {pop pop} {D} ifelse
     } forall /Encoding ISOLatin1Encoding D
     currentdict end definefont
} BD
/NZ {dup 1 lt {pop 1} if} BD
/S {
     moveto 1 index stringwidth pop NZ sub
     1 index length 1 sub NZ div 0
     3 2 roll ashow newpath} BD
/FL [
    /AvantGarde-Book ISOF
    /AvantGarde-BookOblique ISOF
    /AvantGarde-Demi ISOF
    /AvantGarde-DemiOblique ISOF
    /Bookman-Demi ISOF
    /Bookman-DemiItalic ISOF
    /Bookman-Light ISOF
    /Bookman-LightItalic ISOF
    /Courier ISOF
    /Courier-Bold ISOF
    /Courier-BoldOblique ISOF
    /Courier-Oblique ISOF
    /Helvetica ISOF
    /Helvetica-Bold ISOF
    /Helvetica-BoldOblique ISOF
    /Helvetica-Narrow ISOF
    /Helvetica-Narrow-Bold ISOF
    /Helvetica-Narrow-BoldOblique ISOF
    /Helvetica-Narrow-Oblique ISOF
    /Helvetica-Oblique ISOF
    /NewCenturySchlbk-Bold ISOF
    /NewCenturySchlbk-BoldItalic ISOF
    /NewCenturySchlbk-Italic ISOF
    /NewCenturySchlbk-Roman ISOF
    /Palatino-Bold ISOF
    /Palatino-BoldItalic ISOF
    /Palatino-Italic ISOF
    /Palatino-Roman ISOF
    /Symbol findfont
    /Times-Bold ISOF
    /Times-BoldItalic ISOF
    /Times-Italic ISOF
    /Times-Roman ISOF
    /ZapfDingbats findfont
    /ZapfChancery-MediumItalic ISOF
] D
/F {
     FL exch get exch scalefont
     [1 0 0 -1 0 0] makefont setfont} BD
%%EndProlog
%%BeginSetup
<< /PageSize [612.0 792.0] /DeferredMediaSelection true /ImagingBBox null /ManualFeed false /NumCopies 1 >> pop 
%%EndSetup
%%Page: 1 1
/pgSave save def
792.0 0 exch translate 1 -1 scale[72 300 div 0 0 72 300 div 0 0]concat
G
[4.1666665 0.0 0.0 4.1666665 300.0 300.0] concat
N
0.0 0.0 M
468.0 0.0 L
468.0 648.0 L
0.0 648.0 L
0.0 0.0 L
P
WC
N
63.333 62.943 M
63.333 62.943 L
67.148 60.536 72.835 60.461 78.587 66.213 C
77.703 67.097 L
78.587 66.213 L
83.931 71.556 82.366 77.848 79.004 81.21 C
79.004 81.21 L
76.577 83.637 72.607 84.981 69.813 82.187 C
70.697 81.303 L
69.813 82.187 L
67.22 79.595 68.19 75.937 70.488 73.639 C
70.488 73.639 L
74.1 70.027 81.302 68.928 88.187 75.813 C
87.303 76.697 L
88.187 75.813 L
95.072 82.698 93.973 89.9 90.361 93.512 C
90.361 93.512 L
88.063 95.81 84.405 96.78 81.813 94.187 C
82.697 93.303 L
81.813 94.187 L
79.22 91.595 80.19 87.937 82.488 85.639 C
82.488 85.639 L
86.1 82.027 93.302 80.928 100.187 87.813 C
99.303 88.697 L
100.187 87.813 L
107.072 94.698 105.973 101.9 102.361 105.512 C
102.361 105.512 L
100.063 107.81 96.405 108.78 93.813 106.187 C
94.697 105.303 L
93.813 106.187 L
91.019 103.393 92.363 99.423 94.79 96.996 C
94.79 96.996 L
98.152 93.634 104.444 92.069 109.787 97.413 C
111.834 99.46 L
109.787 97.413 L
115.539 103.165 115.464 108.852 113.057 112.667 C
112.39 113.724 L
110.276 112.39 L
110.943 111.333 L
112.639 108.644 113.067 104.228 108.019 99.181 C
108.903 98.297 L
108.019 99.181 L
103.821 94.982 99.121 96.2 96.557 98.764 C
96.557 98.764 L
94.51 100.811 94.268 103.107 95.581 104.419 C
97.226 106.065 L
95.581 104.419 L
96.803 105.642 98.824 105.514 100.593 103.744 C
100.593 103.744 L
103.092 101.245 104.47 95.631 98.419 89.581 C
98.419 89.581 L
98.419 89.581 L
92.369 83.53 86.755 84.908 84.256 87.407 C
84.256 87.407 L
82.486 89.176 82.358 91.197 83.581 92.419 C
83.581 92.419 L
83.581 92.419 L
84.803 93.642 86.824 93.514 88.593 91.744 C
88.593 91.744 L
91.092 89.245 92.47 83.631 86.419 77.581 C
85.906 77.068 L
86.419 77.581 L
80.369 71.53 74.755 72.908 72.256 75.407 C
72.256 75.407 L
70.486 77.176 70.358 79.197 71.581 80.419 C
71.832 80.671 L
71.581 80.419 L
72.893 81.732 75.189 81.49 77.236 79.443 C
77.236 79.443 L
79.8 76.879 81.018 72.179 76.819 67.981 C
76.819 67.981 L
76.819 67.981 L
71.772 62.933 67.356 63.361 64.667 65.057 C
63.61 65.724 L
62.276 63.61 L
P
G
WC
WF
R N
N
113.057 303.333 M
113.057 303.333 L
115.464 307.148 115.539 312.835 109.787 318.587 C
110.867 317.507 L
109.787 318.587 L
104.444 323.931 98.152 322.366 94.79 319.004 C
94.79 319.004 L
92.363 316.577 91.019 312.607 93.813 309.813 C
93.648 309.977 L
93.813 309.813 L
96.405 307.22 100.063 308.19 102.361 310.488 C
102.361 310.488 L
105.973 314.1 107.072 321.302 100.187 328.187 C
99.937 328.438 L
100.187 328.187 L
93.302 335.072 86.1 333.973 82.488 330.361 C
82.488 330.361 L
80.19 328.063 79.22 324.405 81.813 321.813 C
81.69 321.935 L
81.813 321.813 L
84.405 319.22 88.063 320.19 90.361 322.488 C
90.361 322.488 L
93.973 326.1 95.072 333.302 88.187 340.187 C
88.514 339.861 L
88.187 340.187 L
81.302 347.072 74.1 345.973 70.488 342.361 C
70.488 342.361 L
68.19 340.063 67.22 336.405 69.813 333.813 C
69.69 333.935 L
69.813 333.813 L
72.607 331.019 76.577 332.363 79.004 334.79 C
79.004 334.79 L
82.366 338.152 83.931 344.444 78.587 349.787 C
77.703 348.903 L
78.587 349.787 L
72.835 355.54 67.148 355.464 63.333 353.057 C
62.276 352.39 L
63.61 350.276 L
64.667 350.943 L
67.356 352.639 71.772 353.067 76.819 348.019 C
74.536 350.303 L
76.819 348.019 L
81.018 343.821 79.8 339.121 77.236 336.557 C
77.236 336.557 L
75.189 334.51 72.893 334.268 71.581 335.581 C
70.697 334.697 L
71.581 335.581 L
70.358 336.803 70.486 338.824 72.256 340.593 C
72.256 340.593 L
74.755 343.092 80.369 344.47 86.419 338.419 C
87.303 339.303 L
86.419 338.419 L
92.47 332.369 91.092 326.755 88.593 324.256 C
88.593 324.256 L
86.824 322.486 84.803 322.358 83.581 323.581 C
82.697 322.697 L
83.581 323.581 L
82.358 324.803 82.486 326.824 84.256 328.593 C
84.256 328.593 L
86.755 331.092 92.369 332.47 98.419 326.419 C
99.303 327.303 L
98.419 326.419 L
104.47 320.369 103.092 314.755 100.593 312.256 C
100.593 312.256 L
98.824 310.486 96.803 310.358 95.581 311.581 C
94.697 310.697 L
95.581 311.581 L
94.268 312.893 94.51 315.189 96.557 317.236 C
96.557 317.236 L
99.121 319.8 103.821 321.018 108.019 316.819 C
108.903 317.703 L
108.019 316.819 L
113.067 311.772 112.639 307.356 110.943 304.667 C
110.276 303.61 L
112.39 302.276 L
P
G
WC
WF
R N
N
366.943 112.667 M
366.943 112.667 L
364.536 108.852 364.46 103.165 370.213 97.413 C
371.097 98.297 L
370.213 97.413 L
375.556 92.069 381.848 93.634 385.21 96.996 C
385.21 96.996 L
387.637 99.423 388.981 103.393 386.187 106.187 C
386.249 106.125 L
386.187 106.187 L
383.595 108.78 379.937 107.81 377.639 105.512 C
377.639 105.512 L
374.027 101.9 372.928 94.698 379.813 87.813 C
378.833 88.792 L
379.813 87.813 L
386.698 80.928 393.9 82.027 397.512 85.639 C
397.512 85.639 L
399.81 87.937 400.78 91.595 398.187 94.187 C
398.249 94.125 L
398.187 94.187 L
395.595 96.78 391.937 95.81 389.639 93.512 C
389.639 93.512 L
386.027 89.9 384.928 82.698 391.813 75.813 C
392.697 76.697 L
391.813 75.813 L
398.698 68.928 405.9 70.027 409.512 73.639 C
409.512 73.639 L
411.81 75.937 412.78 79.595 410.187 82.187 C
410.352 82.023 L
410.187 82.187 L
407.393 84.981 403.423 83.637 400.996 81.21 C
400.996 81.21 L
397.634 77.848 396.069 71.556 401.413 66.213 C
399.738 67.887 L
401.413 66.213 L
407.165 60.461 412.852 60.536 416.667 62.943 C
417.724 63.61 L
416.39 65.724 L
415.333 65.057 L
412.644 63.361 408.228 62.933 403.181 67.981 C
402.297 67.097 L
403.181 67.981 L
398.982 72.179 400.2 76.879 402.764 79.443 C
402.764 79.443 L
404.811 81.49 407.107 81.732 408.419 80.419 C
409.303 81.303 L
408.419 80.419 L
409.642 79.197 409.514 77.176 407.744 75.407 C
407.744 75.407 L
405.245 72.908 399.632 71.53 393.581 77.581 C
393.917 77.244 L
393.581 77.581 L
387.53 83.631 388.908 89.245 391.407 91.744 C
391.407 91.744 L
393.176 93.514 395.197 93.642 396.419 92.419 C
397.303 93.303 L
396.419 92.419 L
397.642 91.197 397.514 89.176 395.744 87.407 C
395.744 87.407 L
393.245 84.908 387.631 83.53 381.581 89.581 C
380.697 88.697 L
381.581 89.581 L
375.53 95.631 376.908 101.245 379.407 103.744 C
379.407 103.744 L
381.176 105.514 383.197 105.642 384.419 104.419 C
385.303 105.303 L
384.419 104.419 L
385.732 103.107 385.49 100.811 383.443 98.764 C
383.443 98.764 L
380.879 96.2 376.179 94.982 371.981 99.181 C
370.781 100.381 L
371.981 99.181 L
366.933 104.228 367.361 108.644 369.057 111.333 C
369.724 112.39 L
367.61 113.724 L
P
G
WC
WF
R N
N
416.667 353.057 M
416.667 353.057 L
412.852 355.464 407.165 355.54 401.413 349.787 C
402.297 348.903 L
401.413 349.787 L
396.069 344.444 397.634 338.152 400.996 334.79 C
400.996 334.79 L
403.423 332.363 407.393 331.019 410.187 333.813 C
410.218 333.844 L
410.187 333.813 L
412.78 336.405 411.81 340.063 409.512 342.361 C
409.512 342.361 L
405.9 345.973 398.698 347.072 391.813 340.187 C
391.813 340.187 L
391.813 340.187 L
384.928 333.302 386.027 326.1 389.639 322.488 C
389.639 322.488 L
391.937 320.19 395.595 319.22 398.187 321.813 C
398.218 321.844 L
398.187 321.813 L
400.78 324.405 399.81 328.063 397.512 330.361 C
397.512 330.361 L
393.9 333.973 386.698 335.072 379.813 328.187 C
380.697 327.303 L
379.813 328.187 L
372.928 321.302 374.027 314.1 377.639 310.488 C
377.639 310.488 L
379.937 308.19 383.595 307.22 386.187 309.813 C
386.218 309.844 L
386.187 309.813 L
388.981 312.607 387.637 316.577 385.21 319.004 C
385.21 319.004 L
381.848 322.366 375.556 323.931 370.213 318.587 C
371.097 317.703 L
370.213 318.587 L
364.46 312.835 364.536 307.148 366.943 303.333 C
367.61 302.276 L
369.724 303.61 L
369.057 304.667 L
367.361 307.356 366.933 311.772 371.981 316.819 C
372.106 316.944 L
371.981 316.819 L
376.179 321.018 380.879 319.8 383.443 317.236 C
383.443 317.236 L
385.49 315.189 385.732 312.893 384.419 311.581 C
385.303 310.697 L
384.419 311.581 L
383.197 310.358 381.176 310.486 379.407 312.256 C
379.407 312.256 L
376.908 314.755 375.53 320.369 381.581 326.419 C
381.581 326.419 L
387.631 332.47 393.245 331.092 395.744 328.593 C
395.744 328.593 L
397.514 326.824 397.642 324.803 396.419 323.581 C
397.303 322.697 L
396.419 323.581 L
395.197 322.358 393.176 322.486 391.407 324.256 C
391.407 324.256 L
388.908 326.755 387.53 332.369 393.581 338.419 C
392.697 339.303 L
393.581 338.419 L
399.632 344.47 405.245 343.092 407.744 340.593 C
407.744 340.593 L
409.514 338.824 409.642 336.803 408.419 335.581 C
409.303 334.697 L
408.419 335.581 L
407.107 334.268 404.811 334.51 402.764 336.557 C
402.764 336.557 L
400.2 339.121 398.982 343.821 403.181 348.019 C
403.261 348.1 L
403.181 348.019 L
408.228 353.067 412.644 352.639 415.333 350.943 C
416.39 350.276 L
417.724 352.39 L
P
G
WC
WF
R N
N
239.2 207.04 M
239.2 207.04 L
242.695 204.128 248.441 203.393 255.206 208.467 C
254.456 209.467 L
255.206 208.467 L
261.372 213.091 260.756 219.604 257.885 223.432 C
257.885 223.432 L
255.834 226.166 252.115 228.024 248.972 225.667 C
249.722 224.667 L
248.972 225.667 L
246.063 223.485 246.473 219.763 248.412 217.178 C
248.412 217.178 L
251.496 213.065 258.58 210.998 266.583 217.0 C
266.583 217.0 L
274.586 223.002 274.585 230.382 271.5 234.495 C
271.5 234.495 L
269.561 237.08 266.104 238.515 263.194 236.333 C
263.944 235.333 L
263.194 236.333 L
260.285 234.151 260.695 230.43 262.634 227.845 C
262.634 227.845 L
265.719 223.732 272.802 221.664 280.806 227.667 C
280.056 228.667 L
280.806 227.667 L
288.809 233.669 288.807 241.049 285.722 245.161 C
285.722 245.161 L
283.784 247.747 280.326 249.182 277.417 247.0 C
277.908 247.368 L
277.417 247.0 L
274.507 244.818 274.917 241.097 276.856 238.512 C
276.856 238.512 L
279.941 234.399 287.025 232.331 295.028 238.333 C
294.278 239.333 L
295.028 238.333 L
303.031 244.336 303.029 251.715 299.945 255.828 C
299.945 255.828 L
298.006 258.413 294.548 259.849 291.639 257.667 C
291.639 257.667 L
291.639 257.667 L
288.73 255.485 289.139 251.763 291.078 249.178 C
291.078 249.178 L
294.163 245.065 301.247 242.998 309.25 249.0 C
308.5 250.0 L
309.25 249.0 L
317.253 255.002 317.252 262.382 314.167 266.495 C
314.167 266.495 L
312.228 269.08 308.77 270.515 305.861 268.333 C
305.861 268.333 L
305.861 268.333 L
302.952 266.151 303.362 262.43 305.301 259.845 C
305.301 259.845 L
308.385 255.732 315.469 253.664 323.472 259.667 C
322.722 260.667 L
323.472 259.667 L
331.475 265.669 331.474 273.048 328.389 277.161 C
328.389 277.161 L
326.45 279.747 322.993 281.182 320.083 279.0 C
320.833 278.0 L
320.083 279.0 L
317.174 276.818 317.584 273.097 319.523 270.512 C
319.523 270.512 L
322.607 266.399 329.691 264.331 337.694 270.333 C
336.944 271.333 L
337.694 270.333 L
345.697 276.336 345.696 283.715 342.611 287.828 C
342.611 287.828 L
340.673 290.413 337.215 291.849 334.306 289.667 C
334.306 289.667 L
334.306 289.667 L
331.396 287.485 331.806 283.763 333.745 281.178 C
333.745 281.178 L
336.83 277.065 343.914 274.998 351.917 281.0 C
351.167 282.0 L
351.917 281.0 L
359.92 287.002 359.918 294.382 356.834 298.495 C
356.834 298.495 L
354.895 301.08 351.437 302.515 348.528 300.333 C
348.492 300.307 L
348.528 300.333 L
345.385 297.976 346.127 293.886 348.177 291.152 C
348.177 291.152 L
351.049 287.323 357.128 284.909 363.294 289.533 C
362.544 290.533 L
363.294 289.533 L
370.059 294.607 370.962 300.329 369.146 304.499 C
368.647 305.645 L
366.355 304.647 L
366.854 303.501 L
368.116 300.604 367.83 296.06 361.794 291.533 C
361.794 291.533 L
356.897 287.86 352.349 289.756 350.177 292.652 C
350.177 292.652 L
348.459 294.943 348.551 297.226 350.028 298.333 C
349.278 299.333 L
350.028 298.333 L
351.401 299.363 353.357 298.964 354.834 296.995 C
354.834 296.995 L
356.948 294.176 357.515 288.324 350.417 283.0 C
350.417 283.0 L
343.319 277.676 337.859 279.86 335.745 282.678 C
335.745 282.678 L
334.268 284.647 334.433 286.637 335.806 287.667 C
335.056 288.667 L
335.806 287.667 L
337.178 288.696 339.135 288.297 340.611 286.328 C
340.611 286.328 L
342.725 283.509 343.293 277.657 336.194 272.333 C
336.194 272.333 L
329.096 267.01 323.637 269.193 321.523 272.012 C
321.523 272.012 L
320.046 273.981 320.211 275.97 321.583 277.0 C
321.583 277.0 L
322.956 278.03 324.912 277.63 326.389 275.661 C
326.389 275.661 L
328.503 272.843 329.07 266.99 321.972 261.667 C
322.139 261.792 L
321.972 261.667 L
314.874 256.343 309.415 258.526 307.301 261.345 C
307.301 261.345 L
305.824 263.314 305.988 265.304 307.361 266.333 C
306.611 267.333 L
307.361 266.333 L
308.734 267.363 310.69 266.964 312.167 264.995 C
312.167 264.995 L
314.281 262.176 314.848 256.324 307.75 251.0 C
307.75 251.0 L
300.652 245.676 295.192 247.86 293.078 250.678 C
293.078 250.678 L
291.602 252.647 291.766 254.637 293.139 255.667 C
292.389 256.667 L
293.139 255.667 L
294.512 256.696 296.468 256.297 297.945 254.328 C
297.945 254.328 L
300.059 251.509 300.626 245.657 293.528 240.333 C
293.528 240.333 L
286.43 235.01 280.97 237.193 278.856 240.012 C
278.856 240.012 L
277.379 241.981 277.544 243.97 278.917 245.0 C
278.167 246.0 L
278.917 245.0 L
280.289 246.03 282.246 245.63 283.722 243.661 C
283.722 243.661 L
285.837 240.843 286.404 234.99 279.306 229.667 C
279.306 229.667 L
279.306 229.667 L
272.207 224.343 266.748 226.526 264.634 229.345 C
264.634 229.345 L
263.157 231.314 263.322 233.304 264.694 234.333 C
265.185 234.702 L
264.694 234.333 L
266.067 235.363 268.024 234.964 269.5 232.995 C
269.5 232.995 L
271.614 230.176 272.181 224.324 265.083 219.0 C
265.833 218.0 L
265.083 219.0 L
257.985 213.676 252.526 215.86 250.412 218.678 C
250.412 218.678 L
248.935 220.647 249.099 222.637 250.472 223.667 C
250.309 223.544 L
250.472 223.667 L
251.949 224.774 254.166 224.224 255.885 221.932 C
255.885 221.932 L
258.056 219.037 258.603 214.14 253.706 210.467 C
253.706 210.467 L
253.706 210.467 L
247.67 205.94 243.228 206.938 240.8 208.96 C
239.84 209.76 L
238.24 207.84 L
P
G
WC
WF
R N
N
369.146 111.501 M
369.146 111.501 L
370.962 115.671 370.059 121.393 363.294 126.467 C
362.544 125.467 L
363.294 126.467 L
357.128 131.091 351.049 128.677 348.177 124.848 C
348.177 124.848 L
346.127 122.114 345.385 118.024 348.528 115.667 C
349.278 116.667 L
348.528 115.667 L
351.437 113.485 354.895 114.92 356.834 117.505 C
356.834 117.505 L
359.918 121.618 359.92 128.998 351.917 135.0 C
351.167 134.0 L
351.917 135.0 L
343.914 141.002 336.83 138.935 333.745 134.822 C
333.745 134.822 L
331.806 132.237 331.396 128.515 334.306 126.333 C
332.395 127.766 L
334.306 126.333 L
337.215 124.151 340.673 125.587 342.611 128.172 C
342.611 128.172 L
345.696 132.285 345.697 139.664 337.694 145.667 C
337.694 145.667 L
337.694 145.667 L
329.691 151.669 322.607 149.601 319.523 145.488 C
319.523 145.488 L
317.584 142.903 317.174 139.182 320.083 137.0 C
320.833 138.0 L
320.083 137.0 L
322.993 134.818 326.45 136.253 328.389 138.839 C
328.389 138.839 L
331.474 142.952 331.475 150.331 323.472 156.333 C
322.722 155.333 L
323.472 156.333 L
315.469 162.336 308.385 160.268 305.301 156.155 C
305.301 156.155 L
303.362 153.57 302.952 149.849 305.861 147.667 C
306.611 148.667 L
305.861 147.667 L
308.77 145.485 312.228 146.92 314.167 149.505 C
314.167 149.505 L
317.252 153.618 317.253 160.998 309.25 167.0 C
308.5 166.0 L
309.25 167.0 L
301.247 173.002 294.163 170.935 291.078 166.822 C
291.078 166.822 L
289.139 164.237 288.73 160.515 291.639 158.333 C
292.389 159.333 L
291.639 158.333 L
294.548 156.151 298.006 157.587 299.945 160.172 C
299.945 160.172 L
303.029 164.285 303.031 171.664 295.028 177.667 C
294.278 176.667 L
295.028 177.667 L
287.025 183.669 279.941 181.601 276.856 177.488 C
276.856 177.488 L
274.917 174.903 274.507 171.182 277.417 169.0 C
277.542 168.906 L
277.417 169.0 L
280.326 166.818 283.784 168.253 285.722 170.839 C
285.722 170.839 L
288.807 174.952 288.809 182.331 280.806 188.333 C
280.056 187.333 L
280.806 188.333 L
272.803 194.336 265.719 192.268 262.634 188.155 C
262.634 188.155 L
260.695 185.57 260.285 181.849 263.194 179.667 C
263.944 180.667 L
263.194 179.667 L
266.104 177.485 269.561 178.92 271.5 181.505 C
271.5 181.505 L
274.585 185.618 274.586 192.998 266.583 199.0 C
265.833 198.0 L
266.583 199.0 L
258.58 205.002 251.496 202.935 248.412 198.822 C
248.412 198.822 L
246.473 196.237 246.063 192.515 248.972 190.333 C
249.722 191.333 L
248.972 190.333 L
252.115 187.976 255.834 189.834 257.885 192.568 C
257.885 192.568 L
260.756 196.396 261.372 202.909 255.206 207.533 C
251.983 209.95 L
255.206 207.533 L
248.441 212.607 242.695 211.872 239.2 208.96 C
238.24 208.16 L
239.84 206.24 L
240.8 207.04 L
243.228 209.062 247.67 210.06 253.706 205.533 C
254.456 206.533 L
253.706 205.533 L
258.603 201.86 258.056 196.963 255.885 194.068 C
255.885 194.068 L
254.166 191.776 251.949 191.226 250.472 192.333 C
250.472 192.333 L
250.472 192.333 L
249.099 193.363 248.935 195.353 250.412 197.322 C
250.412 197.322 L
252.526 200.14 257.985 202.324 265.083 197.0 C
265.083 197.0 L
272.181 191.676 271.614 185.824 269.5 183.005 C
269.5 183.005 L
268.024 181.036 266.067 180.637 264.694 181.667 C
264.694 181.667 L
263.322 182.696 263.157 184.686 264.634 186.655 C
264.634 186.655 L
266.748 189.474 272.207 191.657 279.306 186.333 C
279.306 186.333 L
286.404 181.01 285.837 175.157 283.722 172.339 C
283.722 172.339 L
282.246 170.37 280.289 169.97 278.917 171.0 C
278.167 170.0 L
278.917 171.0 L
277.544 172.03 277.379 174.02 278.856 175.988 C
278.856 175.988 L
280.97 178.807 286.43 180.99 293.528 175.667 C
293.528 175.667 L
300.626 170.343 300.059 164.491 297.945 161.672 C
297.945 161.672 L
296.468 159.703 294.512 159.304 293.139 160.333 C
293.013 160.428 L
293.139 160.333 L
291.766 161.363 291.602 163.353 293.078 165.322 C
293.078 165.322 L
295.192 168.14 300.652 170.324 307.75 165.0 C
307.75 165.0 L
314.848 159.676 314.281 153.824 312.167 151.005 C
312.167 151.005 L
310.69 149.036 308.734 148.637 307.361 149.667 C
307.361 149.667 L
305.988 150.696 305.824 152.686 307.301 154.655 C
307.301 154.655 L
309.415 157.474 314.874 159.657 321.972 154.333 C
321.972 154.333 L
329.07 149.01 328.503 143.157 326.389 140.339 C
326.389 140.339 L
324.912 138.37 322.956 137.97 321.583 139.0 C
321.666 138.938 L
321.583 139.0 L
320.211 140.03 320.046 142.019 321.523 143.988 C
321.523 143.988 L
323.637 146.807 329.096 148.99 336.194 143.667 C
336.944 144.667 L
336.194 143.667 L
343.293 138.343 342.725 132.491 340.611 129.672 C
340.611 129.672 L
339.135 127.703 337.178 127.304 335.806 128.333 C
335.056 127.333 L
335.806 128.333 L
334.433 129.363 334.268 131.353 335.745 133.322 C
335.745 133.322 L
337.859 136.14 343.318 138.324 350.417 133.0 C
350.417 133.0 L
357.515 127.676 356.948 121.824 354.834 119.005 C
354.834 119.005 L
353.357 117.036 351.401 116.637 350.028 117.667 C
350.285 117.474 L
350.028 117.667 L
348.551 118.774 348.459 121.057 350.177 123.348 C
350.177 123.348 L
352.349 126.244 356.897 128.14 361.794 124.467 C
361.794 124.467 L
361.794 124.467 L
367.83 119.94 368.116 115.396 366.854 112.499 C
366.355 111.353 L
368.647 110.355 L
P
G
WC
WF
R N
N
368.31 110.789 M
368.31 110.789 L
372.773 111.932 376.75 116.413 376.75 125.44 C
375.5 125.44 L
376.75 125.44 L
376.75 133.416 371.129 136.956 366.292 136.956 C
366.292 136.956 L
362.899 136.956 359.25 135.09 359.25 131.2 C
360.5 131.2 L
359.25 131.2 L
359.25 127.614 362.391 125.702 365.59 125.702 C
365.59 125.702 L
370.786 125.702 376.75 130.322 376.75 140.8 C
375.5 140.8 L
376.75 140.8 L
376.75 151.278 370.786 155.898 365.59 155.898 C
365.59 155.898 L
362.391 155.898 359.25 153.986 359.25 150.4 C
360.5 150.4 L
359.25 150.4 L
359.25 146.814 362.391 144.902 365.59 144.902 C
365.59 144.902 L
370.786 144.902 376.75 149.522 376.75 160.0 C
375.5 160.0 L
376.75 160.0 L
376.75 170.478 370.786 175.098 365.59 175.098 C
365.59 175.098 L
362.391 175.098 359.25 173.186 359.25 169.6 C
360.5 169.6 L
359.25 169.6 L
359.25 166.014 362.391 164.102 365.59 164.102 C
365.59 164.102 L
370.786 164.102 376.75 168.722 376.75 179.2 C
375.5 179.2 L
376.75 179.2 L
376.75 189.678 370.786 194.298 365.59 194.298 C
365.59 194.298 L
362.391 194.298 359.25 192.386 359.25 188.8 C
360.5 188.8 L
359.25 188.8 L
359.25 185.214 362.391 183.302 365.59 183.302 C
365.59 183.302 L
370.786 183.302 376.75 187.922 376.75 198.4 C
375.5 198.4 L
376.75 198.4 L
376.75 208.878 370.786 213.498 365.59 213.498 C
365.59 213.498 L
362.391 213.498 359.25 211.586 359.25 208.0 C
360.5 208.0 L
359.25 208.0 L
359.25 204.414 362.391 202.502 365.59 202.502 C
365.59 202.502 L
370.786 202.502 376.75 207.122 376.75 217.6 C
375.5 217.6 L
376.75 217.6 L
376.75 228.078 370.786 232.698 365.59 232.698 C
365.59 232.698 L
362.391 232.698 359.25 230.786 359.25 227.2 C
360.5 227.2 L
359.25 227.2 L
359.25 223.614 362.391 221.702 365.59 221.702 C
365.59 221.702 L
370.786 221.702 376.75 226.322 376.75 236.8 C
375.5 236.8 L
376.75 236.8 L
376.75 247.278 370.786 251.898 365.59 251.898 C
365.59 251.898 L
362.391 251.898 359.25 249.986 359.25 246.4 C
360.5 246.4 L
359.25 246.4 L
359.25 242.814 362.391 240.902 365.59 240.902 C
365.59 240.902 L
370.786 240.902 376.75 245.522 376.75 256.0 C
375.5 256.0 L
376.75 256.0 L
376.75 266.478 370.786 271.098 365.59 271.098 C
365.59 271.098 L
362.391 271.098 359.25 269.186 359.25 265.6 C
360.5 265.6 L
359.25 265.6 L
359.25 262.014 362.391 260.102 365.59 260.102 C
365.59 260.102 L
370.786 260.102 376.75 264.722 376.75 275.2 C
375.5 275.2 L
376.75 275.2 L
376.75 285.678 370.786 290.298 365.59 290.298 C
365.59 290.298 L
362.391 290.298 359.25 288.386 359.25 284.8 C
360.5 284.8 L
359.25 284.8 L
359.25 280.91 362.899 279.044 366.292 279.044 C
366.292 279.044 L
371.129 279.044 376.75 282.584 376.75 290.56 C
375.5 290.56 L
376.75 290.56 L
376.75 299.587 372.773 304.068 368.31 305.211 C
367.099 305.521 L
366.479 303.099 L
367.69 302.789 L
370.726 302.012 374.25 298.813 374.25 290.56 C
374.25 290.56 L
374.25 284.112 369.9 281.544 366.292 281.544 C
366.292 281.544 L
363.481 281.544 361.75 282.973 361.75 284.8 C
361.75 284.8 L
361.75 286.495 363.2 287.798 365.59 287.798 C
365.59 287.798 L
369.094 287.798 374.25 284.63 374.25 275.2 C
374.25 275.2 L
374.25 265.77 369.094 262.602 365.59 262.602 C
365.59 262.602 L
363.2 262.602 361.75 263.905 361.75 265.6 C
361.75 265.6 L
361.75 267.295 363.2 268.598 365.59 268.598 C
365.59 268.598 L
369.094 268.598 374.25 265.43 374.25 256.0 C
374.25 256.0 L
374.25 246.57 369.094 243.402 365.59 243.402 C
365.59 243.402 L
363.2 243.402 361.75 244.705 361.75 246.4 C
361.75 246.4 L
361.75 248.095 363.2 249.398 365.59 249.398 C
365.59 249.398 L
369.094 249.398 374.25 246.23 374.25 236.8 C
374.25 236.8 L
374.25 227.37 369.094 224.202 365.59 224.202 C
365.59 224.202 L
363.2 224.202 361.75 225.505 361.75 227.2 C
361.75 227.2 L
361.75 228.895 363.2 230.198 365.59 230.198 C
365.59 230.198 L
369.094 230.198 374.25 227.03 374.25 217.6 C
374.25 217.6 L
374.25 208.17 369.094 205.002 365.59 205.002 C
365.59 205.002 L
363.2 205.002 361.75 206.305 361.75 208.0 C
361.75 208.0 L
361.75 209.695 363.2 210.998 365.59 210.998 C
365.59 210.998 L
369.094 210.998 374.25 207.83 374.25 198.4 C
374.25 198.4 L
374.25 188.97 369.094 185.802 365.59 185.802 C
365.59 185.802 L
363.2 185.802 361.75 187.105 361.75 188.8 C
361.75 188.8 L
361.75 190.495 363.2 191.798 365.59 191.798 C
365.59 191.798 L
369.094 191.798 374.25 188.63 374.25 179.2 C
374.25 179.2 L
374.25 169.77 369.094 166.602 365.59 166.602 C
365.59 166.602 L
363.2 166.602 361.75 167.905 361.75 169.6 C
361.75 169.6 L
361.75 171.295 363.2 172.598 365.59 172.598 C
365.59 172.598 L
369.094 172.598 374.25 169.43 374.25 160.0 C
374.25 160.0 L
374.25 150.57 369.094 147.402 365.59 147.402 C
365.59 147.402 L
363.2 147.402 361.75 148.705 361.75 150.4 C
361.75 150.4 L
361.75 152.095 363.2 153.398 365.59 153.398 C
365.59 153.398 L
369.094 153.398 374.25 150.23 374.25 140.8 C
374.25 140.8 L
374.25 131.37 369.094 128.202 365.59 128.202 C
365.59 128.202 L
363.2 128.202 361.75 129.505 361.75 131.2 C
361.75 131.2 L
361.75 133.027 363.481 134.456 366.292 134.456 C
366.292 134.456 L
369.9 134.456 374.25 131.888 374.25 125.44 C
374.25 125.44 L
374.25 117.187 370.726 113.988 367.69 113.211 C
366.479 112.901 L
367.099 110.479 L
P
G
WC
WF
R N
N
128.75 123.0 M
128.75 123.0 L
136.75 129.0 L
137.302 129.414 137.414 130.198 137.0 130.75 C
136.586 131.302 135.802 131.414 135.25 131.0 C
135.25 131.0 L
127.25 125.0 L
126.698 124.586 126.586 123.802 127.0 123.25 C
127.414 122.698 128.198 122.586 128.75 123.0 C
P
144.75 135.0 M
144.75 135.0 L
152.75 141.0 L
153.302 141.414 153.414 142.198 153.0 142.75 C
152.586 143.302 151.802 143.414 151.25 143.0 C
151.25 143.0 L
143.25 137.0 L
142.698 136.586 142.586 135.802 143.0 135.25 C
143.414 134.698 144.198 134.586 144.75 135.0 C
P
160.75 147.0 M
160.75 147.0 L
168.75 153.0 L
169.302 153.414 169.414 154.198 169.0 154.75 C
168.586 155.302 167.802 155.414 167.25 155.0 C
167.25 155.0 L
159.25 149.0 L
158.698 148.586 158.586 147.802 159.0 147.25 C
159.414 146.698 160.198 146.586 160.75 147.0 C
P
176.75 159.0 M
176.75 159.0 L
184.75 165.0 L
185.302 165.414 185.414 166.198 185.0 166.75 C
184.586 167.302 183.802 167.414 183.25 167.0 C
183.25 167.0 L
175.25 161.0 L
174.698 160.586 174.586 159.802 175.0 159.25 C
175.414 158.698 176.198 158.586 176.75 159.0 C
P
192.75 171.0 M
192.75 171.0 L
200.75 177.0 L
201.302 177.414 201.414 178.198 201.0 178.75 C
200.586 179.302 199.802 179.414 199.25 179.0 C
199.25 179.0 L
191.25 173.0 L
190.698 172.586 190.586 171.802 191.0 171.25 C
191.414 170.698 192.198 170.586 192.75 171.0 C
P
208.75 183.0 M
208.75 183.0 L
216.75 189.0 L
217.302 189.414 217.414 190.198 217.0 190.75 C
216.586 191.302 215.802 191.414 215.25 191.0 C
215.25 191.0 L
207.25 185.0 L
206.698 184.586 206.586 183.802 207.0 183.25 C
207.414 182.698 208.198 182.586 208.75 183.0 C
P
224.75 195.0 M
224.75 195.0 L
232.75 201.0 L
233.302 201.414 233.414 202.198 233.0 202.75 C
232.586 203.302 231.802 203.414 231.25 203.0 C
231.25 203.0 L
223.25 197.0 L
222.698 196.586 222.586 195.802 223.0 195.25 C
223.414 194.698 224.198 194.586 224.75 195.0 C
P
112.75 111.0 M
112.75 111.0 L
120.75 117.0 L
121.302 117.414 121.414 118.198 121.0 118.75 C
120.586 119.302 119.802 119.414 119.25 119.0 C
119.25 119.0 L
111.25 113.0 L
110.698 112.586 110.586 111.802 111.0 111.25 C
111.414 110.698 112.198 110.586 112.75 111.0 C
P
G
WC
WF
R N
N
127.25 291.0 M
127.25 291.0 L
135.25 285.0 L
135.802 284.586 136.586 284.698 137.0 285.25 C
137.414 285.802 137.302 286.586 136.75 287.0 C
136.75 287.0 L
128.75 293.0 L
128.198 293.414 127.414 293.302 127.0 292.75 C
126.586 292.198 126.698 291.414 127.25 291.0 C
P
143.25 279.0 M
143.25 279.0 L
151.25 273.0 L
151.802 272.586 152.586 272.698 153.0 273.25 C
153.414 273.802 153.302 274.586 152.75 275.0 C
152.75 275.0 L
144.75 281.0 L
144.198 281.414 143.414 281.302 143.0 280.75 C
142.586 280.198 142.698 279.414 143.25 279.0 C
P
159.25 267.0 M
159.25 267.0 L
167.25 261.0 L
167.802 260.586 168.586 260.698 169.0 261.25 C
169.414 261.802 169.302 262.586 168.75 263.0 C
168.75 263.0 L
160.75 269.0 L
160.198 269.414 159.414 269.302 159.0 268.75 C
158.586 268.198 158.698 267.414 159.25 267.0 C
P
175.25 255.0 M
175.25 255.0 L
183.25 249.0 L
183.802 248.586 184.586 248.698 185.0 249.25 C
185.414 249.802 185.302 250.586 184.75 251.0 C
184.75 251.0 L
176.75 257.0 L
176.198 257.414 175.414 257.302 175.0 256.75 C
174.586 256.198 174.698 255.414 175.25 255.0 C
P
191.25 243.0 M
191.25 243.0 L
199.25 237.0 L
199.802 236.586 200.586 236.698 201.0 237.25 C
201.414 237.802 201.302 238.586 200.75 239.0 C
200.75 239.0 L
192.75 245.0 L
192.198 245.414 191.414 245.302 191.0 244.75 C
190.586 244.198 190.698 243.414 191.25 243.0 C
P
207.25 231.0 M
207.25 231.0 L
215.25 225.0 L
215.802 224.586 216.586 224.698 217.0 225.25 C
217.414 225.802 217.302 226.586 216.75 227.0 C
216.75 227.0 L
208.75 233.0 L
208.198 233.414 207.414 233.302 207.0 232.75 C
206.586 232.198 206.698 231.414 207.25 231.0 C
P
223.25 219.0 M
223.25 219.0 L
231.25 213.0 L
231.802 212.586 232.586 212.698 233.0 213.25 C
233.414 213.802 233.302 214.586 232.75 215.0 C
232.75 215.0 L
224.75 221.0 L
224.198 221.414 223.414 221.302 223.0 220.75 C
222.586 220.198 222.698 219.414 223.25 219.0 C
P
111.25 303.0 M
111.25 303.0 L
119.25 297.0 L
119.802 296.586 120.586 296.698 121.0 297.25 C
121.414 297.802 121.302 298.586 120.75 299.0 C
120.75 299.0 L
112.75 305.0 L
112.198 305.414 111.414 305.302 111.0 304.75 C
110.586 304.198 110.698 303.414 111.25 303.0 C
P
G
WC
WF
R N
N
113.25 132.0 M
113.25 132.0 L
113.25 142.0 L
113.25 142.69 112.69 143.25 112.0 143.25 C
111.31 143.25 110.75 142.69 110.75 142.0 C
110.75 142.0 L
110.75 132.0 L
110.75 131.31 111.31 130.75 112.0 130.75 C
112.69 130.75 113.25 131.31 113.25 132.0 C
P
113.25 152.0 M
113.25 152.0 L
113.25 162.0 L
113.25 162.69 112.69 163.25 112.0 163.25 C
111.31 163.25 110.75 162.69 110.75 162.0 C
110.75 162.0 L
110.75 152.0 L
110.75 151.31 111.31 150.75 112.0 150.75 C
112.69 150.75 113.25 151.31 113.25 152.0 C
P
113.25 172.0 M
113.25 172.0 L
113.25 182.0 L
113.25 182.69 112.69 183.25 112.0 183.25 C
111.31 183.25 110.75 182.69 110.75 182.0 C
110.75 182.0 L
110.75 172.0 L
110.75 171.31 111.31 170.75 112.0 170.75 C
112.69 170.75 113.25 171.31 113.25 172.0 C
P
113.25 192.0 M
113.25 192.0 L
113.25 202.0 L
113.25 202.69 112.69 203.25 112.0 203.25 C
111.31 203.25 110.75 202.69 110.75 202.0 C
110.75 202.0 L
110.75 192.0 L
110.75 191.31 111.31 190.75 112.0 190.75 C
112.69 190.75 113.25 191.31 113.25 192.0 C
P
113.25 212.0 M
113.25 212.0 L
113.25 222.0 L
113.25 222.69 112.69 223.25 112.0 223.25 C
111.31 223.25 110.75 222.69 110.75 222.0 C
110.75 222.0 L
110.75 212.0 L
110.75 211.31 111.31 210.75 112.0 210.75 C
112.69 210.75 113.25 211.31 113.25 212.0 C
P
113.25 232.0 M
113.25 232.0 L
113.25 242.0 L
113.25 242.69 112.69 243.25 112.0 243.25 C
111.31 243.25 110.75 242.69 110.75 242.0 C
110.75 242.0 L
110.75 232.0 L
110.75 231.31 111.31 230.75 112.0 230.75 C
112.69 230.75 113.25 231.31 113.25 232.0 C
P
113.25 252.0 M
113.25 252.0 L
113.25 262.0 L
113.25 262.69 112.69 263.25 112.0 263.25 C
111.31 263.25 110.75 262.69 110.75 262.0 C
110.75 262.0 L
110.75 252.0 L
110.75 251.31 111.31 250.75 112.0 250.75 C
112.69 250.75 113.25 251.31 113.25 252.0 C
P
113.25 272.0 M
113.25 272.0 L
113.25 282.0 L
113.25 282.69 112.69 283.25 112.0 283.25 C
111.31 283.25 110.75 282.69 110.75 282.0 C
110.75 282.0 L
110.75 272.0 L
110.75 271.31 111.31 270.75 112.0 270.75 C
112.69 270.75 113.25 271.31 113.25 272.0 C
P
113.25 292.0 M
113.25 292.0 L
113.25 302.0 L
113.25 302.69 112.69 303.25 112.0 303.25 C
111.31 303.25 110.75 302.69 110.75 302.0 C
110.75 302.0 L
110.75 292.0 L
110.75 291.31 111.31 290.75 112.0 290.75 C
112.69 290.75 113.25 291.31 113.25 292.0 C
P
113.25 112.0 M
113.25 112.0 L
113.25 122.0 L
113.25 122.69 112.69 123.25 112.0 123.25 C
111.31 123.25 110.75 122.69 110.75 122.0 C
110.75 122.0 L
110.75 112.0 L
110.75 111.31 111.31 110.75 112.0 110.75 C
112.69 110.75 113.25 111.31 113.25 112.0 C
P
G
WC
WF
R N
0.88235295 SG
N
280.0 208.0 M
280.0 225.673 262.091 240.0 240.0 240.0 C
217.909 240.0 200.0 225.673 200.0 208.0 C
200.0 190.327 217.909 176.0 240.0 176.0 C
262.091 176.0 280.0 190.327 280.0 208.0 C
P
G
WC
WF
R N
0.0 SG
N
280.05 208.0 M
280.05 208.0 L
280.05 225.711 262.108 240.05 240.0 240.05 C
240.0 240.0 L
240.0 240.05 L
217.892 240.05 199.95 225.711 199.95 208.0 C
200.0 208.0 L
199.95 208.0 L
199.95 190.289 217.892 175.95 240.0 175.95 C
240.0 176.0 L
240.0 175.95 L
262.108 175.95 280.05 190.289 280.05 208.0 C
280.0 208.0 L
280.05 208.0 L
279.95 208.0 M
279.95 208.0 L
279.95 190.364 262.075 176.05 240.0 176.05 C
240.0 176.05 L
217.925 176.05 200.05 190.364 200.05 208.0 C
200.05 208.0 L
200.05 225.636 217.925 239.95 240.0 239.95 C
240.0 239.95 L
262.075 239.95 279.95 225.636 279.95 208.0 C
P
G
WC
WF
R N
N
214.353 213.543 M
214.353 213.543 L
214.814 210.342 214.874 207.095 214.531 203.882 C
214.458 203.196 214.955 202.58 215.642 202.507 C
216.328 202.434 216.944 202.931 217.017 203.617 C
217.017 203.617 L
217.382 207.037 217.318 210.492 216.827 213.899 C
216.729 214.583 216.095 215.057 215.411 214.958 C
214.728 214.86 214.254 214.226 214.353 213.543 C
P
212.318 194.479 M
212.318 194.479 L
211.207 191.495 209.716 188.618 207.844 185.919 C
207.45 185.352 207.591 184.573 208.158 184.179 C
208.725 183.786 209.504 183.927 209.898 184.494 C
209.898 184.494 L
211.89 187.366 213.478 190.429 214.661 193.607 C
214.902 194.254 214.573 194.974 213.926 195.215 C
213.279 195.455 212.559 195.126 212.318 194.479 C
P
207.0 231.25 M
207.0 231.25 L
208.975 228.617 210.572 225.796 211.792 222.859 C
212.056 222.221 212.788 221.919 213.425 222.184 C
214.063 222.448 214.365 223.18 214.1 223.817 C
214.1 223.817 L
212.802 226.945 211.101 229.948 209.0 232.75 C
208.586 233.302 207.802 233.414 207.25 233.0 C
206.698 232.586 206.586 231.802 207.0 231.25 C
P
G
WC
WF
R N
pgSave restore
showpage
%%EOF
