%!PS-Adobe-3.0 EPSF-3.0
%%BoundingBox: 133 365 491 660
%%Creator: hjf with JaxoDraw-2.1-0
%%Title: 
%%CreationDate: 13/9/2013
%%BeginProlog
/imStr 0 def /imageSrc {currentfile /ASCII85Decode filter /RunLengthDecode filter  imStr readstring pop } def
/BD {bind def} bind def
/D {def} BD
/C {curveto} BD
/L {lineto} BD
/M {moveto} BD
/R {grestore} BD
/G {gsave} BD
/N {newpath} BD
/P {closepath} BD
/EC {eoclip} BD
/WC {clip} BD
/EF {eofill} BD
/WF {fill} BD
/SG {setgray} BD
/SC {setrgbcolor} BD
/ISOF {
     dup findfont dup length 1 add dict begin {
             1 index /FID eq {pop pop} {D} ifelse
     } forall /Encoding ISOLatin1Encoding D
     currentdict end definefont
} BD
/NZ {dup 1 lt {pop 1} if} BD
/S {
     moveto 1 index stringwidth pop NZ sub
     1 index length 1 sub NZ div 0
     3 2 roll ashow newpath} BD
/FL [
    /AvantGarde-Book ISOF
    /AvantGarde-BookOblique ISOF
    /AvantGarde-Demi ISOF
    /AvantGarde-DemiOblique ISOF
    /Bookman-Demi ISOF
    /Bookman-DemiItalic ISOF
    /Bookman-Light ISOF
    /Bookman-LightItalic ISOF
    /Courier ISOF
    /Courier-Bold ISOF
    /Courier-BoldOblique ISOF
    /Courier-Oblique ISOF
    /Helvetica ISOF
    /Helvetica-Bold ISOF
    /Helvetica-BoldOblique ISOF
    /Helvetica-Narrow ISOF
    /Helvetica-Narrow-Bold ISOF
    /Helvetica-Narrow-BoldOblique ISOF
    /Helvetica-Narrow-Oblique ISOF
    /Helvetica-Oblique ISOF
    /NewCenturySchlbk-Bold ISOF
    /NewCenturySchlbk-BoldItalic ISOF
    /NewCenturySchlbk-Italic ISOF
    /NewCenturySchlbk-Roman ISOF
    /Palatino-Bold ISOF
    /Palatino-BoldItalic ISOF
    /Palatino-Italic ISOF
    /Palatino-Roman ISOF
    /Symbol findfont
    /Times-Bold ISOF
    /Times-BoldItalic ISOF
    /Times-Italic ISOF
    /Times-Roman ISOF
    /ZapfDingbats findfont
    /ZapfChancery-MediumItalic ISOF
] D
/F {
     FL exch get exch scalefont
     [1 0 0 -1 0 0] makefont setfont} BD
%%EndProlog
%%BeginSetup
<< /PageSize [612.0 792.0] /DeferredMediaSelection true /ImagingBBox null /ManualFeed false /NumCopies 1 >> pop 
%%EndSetup
%%Page: 1 1
/pgSave save def
792.0 0 exch translate 1 -1 scale[72 300 div 0 0 72 300 div 0 0]concat
G
[4.1666665 0.0 0.0 4.1666665 300.0 300.0] concat
N
0.0 0.0 M
468.0 0.0 L
468.0 648.0 L
0.0 648.0 L
0.0 0.0 L
P
WC
N
63.834 63.528 M
63.834 63.528 L
69.578 61.511 73.282 60.625 74.191 63.212 C
74.191 63.212 L
74.772 64.868 73.994 67.832 72.472 72.166 C
72.472 72.166 L
72.472 72.166 L
70.232 78.544 70.137 80.753 71.544 81.247 C
71.544 81.247 L
72.791 81.685 75.358 81.1 79.834 79.528 C
79.834 79.528 L
79.834 79.528 L
85.578 77.511 89.282 76.626 90.191 79.212 C
90.191 79.212 L
90.772 80.868 89.994 83.832 88.472 88.166 C
88.0 88.0 L
88.472 88.166 L
86.232 94.544 86.137 96.753 87.544 97.247 C
87.544 97.247 L
88.791 97.685 91.358 97.1 95.834 95.528 C
96.0 96.0 L
95.834 95.528 L
101.578 93.511 105.282 92.625 106.191 95.212 C
106.191 95.212 L
106.772 96.868 105.994 99.832 104.472 104.166 C
104.0 104.0 L
104.472 104.166 L
102.232 110.544 102.137 112.753 103.544 113.247 C
103.544 113.247 L
104.791 113.685 107.358 113.1 111.834 111.528 C
112.306 111.363 L
112.637 112.306 L
112.166 112.472 L
107.832 113.994 104.868 114.772 103.212 114.191 C
103.212 114.191 L
100.625 113.282 101.511 109.578 103.528 103.834 C
103.528 103.834 L
105.1 99.358 105.685 96.791 105.247 95.544 C
105.247 95.544 L
104.753 94.137 102.544 94.232 96.166 96.472 C
96.166 96.472 L
91.832 97.994 88.868 98.772 87.212 98.191 C
87.212 98.191 L
84.625 97.282 85.511 93.578 87.528 87.834 C
87.528 87.834 L
89.1 83.358 89.685 80.791 89.247 79.544 C
89.247 79.544 L
88.753 78.137 86.544 78.232 80.166 80.472 C
80.0 80.0 L
80.166 80.472 L
75.832 81.994 72.868 82.772 71.212 82.191 C
71.212 82.191 L
68.625 81.282 69.511 77.578 71.528 71.834 C
72.0 72.0 L
71.528 71.834 L
73.1 67.358 73.685 64.791 73.247 63.544 C
73.247 63.544 L
72.753 62.137 70.544 62.232 64.166 64.472 C
63.694 64.637 L
63.363 63.694 L
P
G
WC
WF
R N
N
112.472 303.834 M
112.472 303.834 L
114.489 309.578 115.375 313.282 112.788 314.191 C
112.788 314.191 L
111.132 314.772 108.169 313.994 103.834 312.472 C
104.0 312.0 L
103.834 312.472 L
97.456 310.232 95.247 310.137 94.753 311.544 C
94.753 311.544 L
94.315 312.791 94.9 315.358 96.472 319.834 C
96.472 319.834 L
96.472 319.834 L
98.489 325.578 99.374 329.282 96.788 330.191 C
96.788 330.191 L
95.132 330.772 92.169 329.994 87.834 328.472 C
88.0 328.0 L
87.834 328.472 L
81.456 326.232 79.247 326.137 78.753 327.544 C
78.753 327.544 L
78.315 328.791 78.9 331.358 80.472 335.834 C
80.0 336.0 L
80.472 335.834 L
82.489 341.578 83.375 345.282 80.788 346.191 C
80.788 346.191 L
79.132 346.772 76.169 345.994 71.834 344.472 C
72.0 344.0 L
71.834 344.472 L
65.456 342.232 63.247 342.136 62.753 343.544 C
62.753 343.544 L
62.315 344.791 62.9 347.358 64.472 351.834 C
64.637 352.306 L
63.694 352.637 L
63.528 352.166 L
62.006 347.832 61.228 344.868 61.809 343.212 C
61.809 343.212 L
62.718 340.625 66.422 341.511 72.166 343.528 C
72.051 343.488 L
72.166 343.528 L
76.642 345.1 79.209 345.686 80.456 345.247 C
80.456 345.247 L
81.863 344.753 81.768 342.544 79.528 336.166 C
79.528 336.166 L
78.006 331.832 77.228 328.868 77.809 327.212 C
77.809 327.212 L
78.718 324.625 82.422 325.511 88.166 327.528 C
88.166 327.528 L
92.642 329.1 95.209 329.685 96.456 329.247 C
96.456 329.247 L
97.863 328.753 97.768 326.544 95.528 320.166 C
96.0 320.0 L
95.528 320.166 L
94.006 315.832 93.228 312.868 93.809 311.212 C
93.809 311.212 L
94.718 308.625 98.422 309.511 104.166 311.528 C
104.166 311.528 L
108.642 313.1 111.209 313.685 112.456 313.247 C
112.456 313.247 L
113.863 312.753 113.768 310.544 111.528 304.166 C
111.363 303.694 L
112.306 303.363 L
P
G
WC
WF
R N
N
112.5 132.0 M
112.5 132.0 L
112.5 142.0 L
112.5 142.276 112.276 142.5 112.0 142.5 C
111.724 142.5 111.5 142.276 111.5 142.0 C
111.5 142.0 L
111.5 132.0 L
111.5 131.724 111.724 131.5 112.0 131.5 C
112.276 131.5 112.5 131.724 112.5 132.0 C
P
112.5 152.0 M
112.5 152.0 L
112.5 162.0 L
112.5 162.276 112.276 162.5 112.0 162.5 C
111.724 162.5 111.5 162.276 111.5 162.0 C
111.5 162.0 L
111.5 152.0 L
111.5 151.724 111.724 151.5 112.0 151.5 C
112.276 151.5 112.5 151.724 112.5 152.0 C
P
112.5 172.0 M
112.5 172.0 L
112.5 182.0 L
112.5 182.276 112.276 182.5 112.0 182.5 C
111.724 182.5 111.5 182.276 111.5 182.0 C
111.5 182.0 L
111.5 172.0 L
111.5 171.724 111.724 171.5 112.0 171.5 C
112.276 171.5 112.5 171.724 112.5 172.0 C
P
112.5 192.0 M
112.5 192.0 L
112.5 202.0 L
112.5 202.276 112.276 202.5 112.0 202.5 C
111.724 202.5 111.5 202.276 111.5 202.0 C
111.5 202.0 L
111.5 192.0 L
111.5 191.724 111.724 191.5 112.0 191.5 C
112.276 191.5 112.5 191.724 112.5 192.0 C
P
112.5 212.0 M
112.5 212.0 L
112.5 222.0 L
112.5 222.276 112.276 222.5 112.0 222.5 C
111.724 222.5 111.5 222.276 111.5 222.0 C
111.5 222.0 L
111.5 212.0 L
111.5 211.724 111.724 211.5 112.0 211.5 C
112.276 211.5 112.5 211.724 112.5 212.0 C
P
112.5 232.0 M
112.5 232.0 L
112.5 242.0 L
112.5 242.276 112.276 242.5 112.0 242.5 C
111.724 242.5 111.5 242.276 111.5 242.0 C
111.5 242.0 L
111.5 232.0 L
111.5 231.724 111.724 231.5 112.0 231.5 C
112.276 231.5 112.5 231.724 112.5 232.0 C
P
112.5 252.0 M
112.5 252.0 L
112.5 262.0 L
112.5 262.276 112.276 262.5 112.0 262.5 C
111.724 262.5 111.5 262.276 111.5 262.0 C
111.5 262.0 L
111.5 252.0 L
111.5 251.724 111.724 251.5 112.0 251.5 C
112.276 251.5 112.5 251.724 112.5 252.0 C
P
112.5 272.0 M
112.5 272.0 L
112.5 282.0 L
112.5 282.276 112.276 282.5 112.0 282.5 C
111.724 282.5 111.5 282.276 111.5 282.0 C
111.5 282.0 L
111.5 272.0 L
111.5 271.724 111.724 271.5 112.0 271.5 C
112.276 271.5 112.5 271.724 112.5 272.0 C
P
112.5 292.0 M
112.5 292.0 L
112.5 302.0 L
112.5 302.276 112.276 302.5 112.0 302.5 C
111.724 302.5 111.5 302.276 111.5 302.0 C
111.5 302.0 L
111.5 292.0 L
111.5 291.724 111.724 291.5 112.0 291.5 C
112.276 291.5 112.5 291.724 112.5 292.0 C
P
112.5 112.0 M
112.5 112.0 L
112.5 122.0 L
112.5 122.276 112.276 122.5 112.0 122.5 C
111.724 122.5 111.5 122.276 111.5 122.0 C
111.5 122.0 L
111.5 112.0 L
111.5 111.724 111.724 111.5 112.0 111.5 C
112.276 111.5 112.5 111.724 112.5 112.0 C
P
G
WC
WF
R N
N
223.7 196.4 M
223.7 196.4 L
215.7 190.4 L
215.479 190.234 215.434 189.921 215.6 189.7 C
215.766 189.479 216.079 189.434 216.3 189.6 C
216.3 189.6 L
224.3 195.6 L
224.521 195.766 224.566 196.079 224.4 196.3 C
224.234 196.521 223.921 196.566 223.7 196.4 C
P
207.7 184.4 M
207.7 184.4 L
199.7 178.4 L
199.479 178.234 199.434 177.921 199.6 177.7 C
199.766 177.479 200.079 177.434 200.3 177.6 C
200.3 177.6 L
208.3 183.6 L
208.521 183.766 208.566 184.079 208.4 184.3 C
208.234 184.521 207.921 184.566 207.7 184.4 C
P
191.7 172.4 M
191.7 172.4 L
183.7 166.4 L
183.479 166.234 183.434 165.921 183.6 165.7 C
183.766 165.479 184.079 165.434 184.3 165.6 C
184.3 165.6 L
192.3 171.6 L
192.521 171.766 192.566 172.079 192.4 172.3 C
192.234 172.521 191.921 172.566 191.7 172.4 C
P
175.7 160.4 M
175.7 160.4 L
167.7 154.4 L
167.479 154.234 167.434 153.921 167.6 153.7 C
167.766 153.479 168.079 153.434 168.3 153.6 C
168.3 153.6 L
176.3 159.6 L
176.521 159.766 176.566 160.079 176.4 160.3 C
176.234 160.521 175.921 160.566 175.7 160.4 C
P
159.7 148.4 M
159.7 148.4 L
151.7 142.4 L
151.479 142.234 151.434 141.921 151.6 141.7 C
151.766 141.479 152.079 141.434 152.3 141.6 C
152.3 141.6 L
160.3 147.6 L
160.521 147.766 160.566 148.079 160.4 148.3 C
160.234 148.521 159.921 148.566 159.7 148.4 C
P
143.7 136.4 M
143.7 136.4 L
135.7 130.4 L
135.479 130.234 135.434 129.921 135.6 129.7 C
135.766 129.479 136.079 129.434 136.3 129.6 C
136.3 129.6 L
144.3 135.6 L
144.521 135.766 144.566 136.079 144.4 136.3 C
144.234 136.521 143.921 136.566 143.7 136.4 C
P
127.7 124.4 M
127.7 124.4 L
119.7 118.4 L
119.479 118.234 119.434 117.921 119.6 117.7 C
119.766 117.479 120.079 117.434 120.3 117.6 C
120.3 117.6 L
128.3 123.6 L
128.521 123.766 128.566 124.079 128.4 124.3 C
128.234 124.521 127.921 124.566 127.7 124.4 C
P
239.7 208.4 M
239.7 208.4 L
231.7 202.4 L
231.479 202.234 231.434 201.921 231.6 201.7 C
231.766 201.479 232.079 201.434 232.3 201.6 C
232.3 201.6 L
240.3 207.6 L
240.521 207.766 240.566 208.079 240.4 208.3 C
240.234 208.521 239.921 208.566 239.7 208.4 C
P
G
WC
WF
R N
N
127.7 291.6 M
127.7 291.6 L
135.7 285.6 L
135.921 285.434 136.234 285.479 136.4 285.7 C
136.566 285.921 136.521 286.234 136.3 286.4 C
136.3 286.4 L
128.3 292.4 L
128.079 292.566 127.766 292.521 127.6 292.3 C
127.434 292.079 127.479 291.766 127.7 291.6 C
P
143.7 279.6 M
143.7 279.6 L
151.7 273.6 L
151.921 273.434 152.234 273.479 152.4 273.7 C
152.566 273.921 152.521 274.234 152.3 274.4 C
152.3 274.4 L
144.3 280.4 L
144.079 280.566 143.766 280.521 143.6 280.3 C
143.434 280.079 143.479 279.766 143.7 279.6 C
P
159.7 267.6 M
159.7 267.6 L
167.7 261.6 L
167.921 261.434 168.234 261.479 168.4 261.7 C
168.566 261.921 168.521 262.234 168.3 262.4 C
168.3 262.4 L
160.3 268.4 L
160.079 268.566 159.766 268.521 159.6 268.3 C
159.434 268.079 159.479 267.766 159.7 267.6 C
P
175.7 255.6 M
175.7 255.6 L
183.7 249.6 L
183.921 249.434 184.234 249.479 184.4 249.7 C
184.566 249.921 184.521 250.234 184.3 250.4 C
184.3 250.4 L
176.3 256.4 L
176.079 256.566 175.766 256.521 175.6 256.3 C
175.434 256.079 175.479 255.766 175.7 255.6 C
P
191.7 243.6 M
191.7 243.6 L
199.7 237.6 L
199.921 237.434 200.234 237.479 200.4 237.7 C
200.566 237.921 200.521 238.234 200.3 238.4 C
200.3 238.4 L
192.3 244.4 L
192.079 244.566 191.766 244.521 191.6 244.3 C
191.434 244.079 191.479 243.766 191.7 243.6 C
P
207.7 231.6 M
207.7 231.6 L
215.7 225.6 L
215.921 225.434 216.234 225.479 216.4 225.7 C
216.566 225.921 216.521 226.234 216.3 226.4 C
216.3 226.4 L
208.3 232.4 L
208.079 232.566 207.766 232.521 207.6 232.3 C
207.434 232.079 207.479 231.766 207.7 231.6 C
P
223.7 219.6 M
223.7 219.6 L
231.7 213.6 L
231.921 213.434 232.234 213.479 232.4 213.7 C
232.566 213.921 232.521 214.234 232.3 214.4 C
232.3 214.4 L
224.3 220.4 L
224.079 220.566 223.766 220.521 223.6 220.3 C
223.434 220.079 223.479 219.766 223.7 219.6 C
P
111.7 303.6 M
111.7 303.6 L
119.7 297.6 L
119.921 297.434 120.234 297.479 120.4 297.7 C
120.566 297.921 120.521 298.234 120.3 298.4 C
120.3 298.4 L
112.3 304.4 L
112.079 304.566 111.766 304.521 111.6 304.3 C
111.434 304.079 111.479 303.766 111.7 303.6 C
P
G
WC
WF
R N
N
367.834 303.528 M
367.834 303.528 L
373.578 301.511 377.282 300.626 378.191 303.212 C
378.191 303.212 L
378.772 304.868 377.994 307.831 376.472 312.166 C
376.0 312.0 L
376.472 312.166 L
374.232 318.544 374.136 320.753 375.544 321.247 C
375.544 321.247 L
376.791 321.685 379.358 321.1 383.834 319.528 C
384.0 320.0 L
383.834 319.528 L
389.578 317.511 393.282 316.626 394.191 319.212 C
394.191 319.212 L
394.772 320.868 393.994 323.831 392.472 328.166 C
392.0 328.0 L
392.472 328.166 L
390.232 334.544 390.136 336.753 391.544 337.247 C
391.544 337.247 L
392.791 337.685 395.358 337.1 399.834 335.528 C
399.708 335.573 L
399.834 335.528 L
405.578 333.511 409.282 332.626 410.191 335.212 C
410.191 335.212 L
410.772 336.868 409.994 339.831 408.472 344.166 C
408.0 344.0 L
408.472 344.166 L
406.232 350.544 406.136 352.753 407.544 353.247 C
407.544 353.247 L
408.791 353.685 411.358 353.1 415.834 351.528 C
416.306 351.363 L
416.637 352.306 L
416.166 352.472 L
411.832 353.994 408.868 354.772 407.212 354.191 C
407.212 354.191 L
404.625 353.282 405.511 349.578 407.528 343.834 C
407.573 343.708 L
407.528 343.834 L
409.1 339.358 409.685 336.791 409.247 335.544 C
409.247 335.544 L
408.753 334.137 406.544 334.232 400.166 336.472 C
400.0 336.0 L
400.166 336.472 L
395.832 337.994 392.868 338.772 391.212 338.191 C
391.212 338.191 L
388.625 337.282 389.511 333.578 391.528 327.834 C
391.528 327.834 L
393.1 323.358 393.685 320.791 393.247 319.544 C
393.247 319.544 L
392.753 318.137 390.544 318.232 384.166 320.472 C
384.166 320.472 L
379.832 321.994 376.868 322.772 375.212 322.191 C
375.212 322.191 L
372.625 321.282 373.511 317.578 375.528 311.834 C
375.528 311.834 L
377.1 307.358 377.685 304.791 377.247 303.544 C
377.247 303.544 L
376.753 302.137 374.544 302.232 368.166 304.472 C
367.694 304.637 L
367.363 303.694 L
P
G
WC
WF
R N
N
367.528 112.166 M
367.528 112.166 L
365.511 106.422 364.626 102.718 367.212 101.809 C
367.212 101.809 L
368.868 101.228 371.832 102.006 376.166 103.528 C
376.0 104.0 L
376.166 103.528 L
382.544 105.768 384.753 105.864 385.247 104.456 C
385.247 104.456 L
385.685 103.209 385.1 100.642 383.528 96.166 C
383.003 94.67 L
383.528 96.166 L
381.511 90.422 380.626 86.718 383.212 85.809 C
383.212 85.809 L
384.868 85.228 387.832 86.006 392.166 87.528 C
392.0 88.0 L
392.166 87.528 L
398.544 89.768 400.753 89.864 401.247 88.456 C
401.247 88.456 L
401.685 87.209 401.1 84.642 399.528 80.166 C
399.573 80.292 L
399.528 80.166 L
397.511 74.422 396.626 70.718 399.212 69.809 C
399.212 69.809 L
400.868 69.228 403.832 70.006 408.166 71.528 C
408.0 72.0 L
408.166 71.528 L
414.544 73.768 416.753 73.864 417.247 72.456 C
417.247 72.456 L
417.685 71.209 417.1 68.642 415.528 64.166 C
415.363 63.694 L
416.306 63.363 L
416.472 63.834 L
417.994 68.168 418.772 71.132 418.191 72.788 C
418.191 72.788 L
417.282 75.375 413.578 74.489 407.834 72.472 C
407.834 72.472 L
403.358 70.9 400.791 70.315 399.544 70.753 C
399.544 70.753 L
398.137 71.247 398.232 73.456 400.472 79.834 C
400.0 80.0 L
400.472 79.834 L
401.994 84.168 402.772 87.132 402.191 88.788 C
402.191 88.788 L
401.282 91.375 397.578 90.489 391.834 88.472 C
391.834 88.472 L
387.358 86.9 384.791 86.315 383.544 86.753 C
383.544 86.753 L
382.137 87.247 382.232 89.456 384.472 95.834 C
384.0 96.0 L
384.472 95.834 L
385.994 100.168 386.772 103.132 386.191 104.788 C
386.191 104.788 L
385.282 107.375 381.578 106.489 375.834 104.472 C
375.834 104.472 L
371.358 102.9 368.791 102.315 367.544 102.753 C
367.544 102.753 L
366.137 103.247 366.232 105.456 368.472 111.834 C
368.637 112.306 L
367.694 112.637 L
P
G
WC
WF
R N
N
239.749 207.568 M
239.749 207.568 L
244.7 204.694 248.084 203.081 249.29 205.159 C
249.29 205.159 L
250.11 206.572 249.602 209.599 248.485 214.12 C
248.0 214.0 L
248.485 214.12 L
246.933 220.406 247.013 222.471 248.114 222.743 C
248.114 222.743 L
249.209 223.014 251.537 222.013 255.749 219.568 C
256.0 220.0 L
255.749 219.568 L
260.7 216.694 264.084 215.081 265.29 217.159 C
265.29 217.159 L
266.11 218.572 265.602 221.599 264.485 226.12 C
264.0 226.0 L
264.485 226.12 L
262.933 232.406 263.013 234.471 264.114 234.743 C
264.114 234.743 L
265.209 235.014 267.537 234.013 271.749 231.568 C
272.0 232.0 L
271.749 231.568 L
276.7 228.694 280.084 227.081 281.29 229.159 C
281.29 229.159 L
282.11 230.572 281.602 233.599 280.485 238.12 C
280.0 238.0 L
280.485 238.12 L
278.933 244.406 279.013 246.471 280.114 246.743 C
280.114 246.743 L
281.209 247.014 283.537 246.013 287.749 243.568 C
288.0 244.0 L
287.749 243.568 L
292.7 240.694 296.084 239.081 297.29 241.159 C
297.29 241.159 L
298.11 242.572 297.602 245.599 296.485 250.12 C
296.0 250.0 L
296.485 250.12 L
294.933 256.406 295.013 258.471 296.114 258.743 C
296.114 258.743 L
297.209 259.014 299.537 258.013 303.749 255.568 C
303.531 255.694 L
303.749 255.568 L
308.7 252.694 312.084 251.081 313.29 253.159 C
313.29 253.159 L
314.11 254.572 313.602 257.599 312.485 262.12 C
312.0 262.0 L
312.485 262.12 L
310.933 268.406 311.013 270.471 312.114 270.743 C
312.114 270.743 L
313.209 271.014 315.537 270.013 319.749 267.568 C
319.531 267.694 L
319.749 267.568 L
324.7 264.694 328.084 263.081 329.29 265.159 C
329.29 265.159 L
330.11 266.572 329.602 269.599 328.485 274.12 C
328.0 274.0 L
328.485 274.12 L
326.933 280.406 327.013 282.471 328.114 282.743 C
328.114 282.743 L
329.209 283.014 331.537 282.013 335.749 279.568 C
335.531 279.694 L
335.749 279.568 L
340.7 276.694 344.084 275.081 345.29 277.159 C
345.29 277.159 L
346.11 278.572 345.602 281.599 344.485 286.12 C
344.0 286.0 L
344.485 286.12 L
342.933 292.406 343.013 294.471 344.114 294.743 C
344.114 294.743 L
345.209 295.014 347.537 294.013 351.749 291.568 C
352.0 292.0 L
351.749 291.568 L
356.7 288.694 360.084 287.081 361.29 289.159 C
361.29 289.159 L
362.11 290.572 361.602 293.599 360.485 298.12 C
360.0 298.0 L
360.485 298.12 L
358.933 304.406 359.013 306.471 360.114 306.743 C
360.114 306.743 L
361.209 307.014 363.537 306.013 367.749 303.568 C
368.181 303.317 L
368.683 304.181 L
368.251 304.432 L
364.224 306.77 361.46 308.106 359.874 307.714 C
359.874 307.714 L
357.542 307.138 358.142 303.438 359.515 297.88 C
359.515 297.88 L
360.682 293.152 360.992 290.637 360.425 289.661 C
360.425 289.661 L
359.856 288.681 357.851 289.182 352.251 292.432 C
352.251 292.432 L
348.224 294.77 345.46 296.106 343.874 295.714 C
343.874 295.714 L
341.542 295.138 342.142 291.438 343.515 285.88 C
343.515 285.88 L
344.682 281.152 344.992 278.637 344.425 277.661 C
344.425 277.661 L
343.856 276.681 341.851 277.182 336.251 280.432 C
336.0 280.0 L
336.251 280.432 L
332.224 282.77 329.46 284.106 327.874 283.714 C
327.874 283.714 L
325.542 283.138 326.142 279.438 327.515 273.88 C
327.515 273.88 L
327.515 273.88 L
328.682 269.152 328.992 266.637 328.425 265.661 C
328.425 265.661 L
327.856 264.681 325.851 265.182 320.251 268.432 C
320.0 268.0 L
320.251 268.432 L
316.224 270.77 313.46 272.106 311.874 271.714 C
311.874 271.714 L
309.542 271.138 310.142 267.438 311.515 261.88 C
311.515 261.88 L
311.515 261.88 L
312.682 257.152 312.992 254.637 312.425 253.661 C
312.425 253.661 L
311.856 252.681 309.851 253.182 304.251 256.432 C
304.0 256.0 L
304.251 256.432 L
300.224 258.77 297.46 260.106 295.874 259.714 C
295.874 259.714 L
293.542 259.138 294.142 255.438 295.515 249.88 C
295.639 249.378 L
295.515 249.88 L
296.682 245.152 296.992 242.637 296.425 241.661 C
296.425 241.661 L
295.856 240.681 293.851 241.182 288.251 244.432 C
288.251 244.432 L
284.224 246.77 281.46 248.106 279.874 247.714 C
279.874 247.714 L
277.542 247.138 278.142 243.438 279.515 237.88 C
279.515 237.88 L
280.682 233.152 280.992 230.637 280.425 229.661 C
280.425 229.661 L
279.856 228.681 277.851 229.182 272.251 232.432 C
272.251 232.432 L
268.224 234.77 265.46 236.106 263.874 235.714 C
263.874 235.714 L
261.542 235.138 262.142 231.438 263.515 225.88 C
263.515 225.88 L
264.682 221.152 264.992 218.637 264.425 217.661 C
264.425 217.661 L
263.856 216.681 261.851 217.182 256.251 220.432 C
256.251 220.432 L
256.251 220.432 L
252.224 222.77 249.46 224.106 247.874 223.714 C
247.874 223.714 L
245.542 223.138 246.142 219.438 247.515 213.88 C
247.515 213.88 L
248.682 209.152 248.991 206.637 248.425 205.661 C
248.425 205.661 L
247.856 204.681 245.851 205.182 240.251 208.432 C
239.819 208.683 L
239.317 207.819 L
P
G
WC
WF
R N
N
239.515 208.12 M
239.515 208.12 L
238.142 202.562 237.542 198.862 239.874 198.286 C
239.874 198.286 L
241.46 197.894 244.224 199.23 248.251 201.568 C
248.251 201.568 L
248.251 201.568 L
253.851 204.818 255.856 205.319 256.425 204.339 C
256.425 204.339 L
256.991 203.363 256.682 200.848 255.515 196.12 C
255.515 196.12 L
255.515 196.12 L
254.142 190.562 253.542 186.862 255.874 186.286 C
255.874 186.286 L
257.46 185.894 260.224 187.23 264.251 189.568 C
264.0 190.0 L
264.251 189.568 L
269.851 192.818 271.856 193.319 272.425 192.339 C
272.425 192.339 L
272.992 191.363 272.682 188.848 271.515 184.12 C
272.0 184.0 L
271.515 184.12 L
270.142 178.562 269.542 174.862 271.874 174.286 C
271.874 174.286 L
273.46 173.894 276.224 175.23 280.251 177.568 C
280.0 178.0 L
280.251 177.568 L
285.851 180.818 287.856 181.319 288.425 180.339 C
288.425 180.339 L
288.992 179.363 288.682 176.848 287.515 172.12 C
288.0 172.0 L
287.515 172.12 L
286.142 166.562 285.542 162.862 287.874 162.286 C
287.874 162.286 L
289.46 161.894 292.224 163.23 296.251 165.568 C
296.0 166.0 L
296.251 165.568 L
301.851 168.818 303.856 169.319 304.425 168.339 C
304.425 168.339 L
304.992 167.363 304.682 164.848 303.515 160.12 C
304.0 160.0 L
303.515 160.12 L
302.142 154.562 301.542 150.862 303.874 150.286 C
303.874 150.286 L
305.46 149.894 308.224 151.23 312.251 153.568 C
312.0 154.0 L
312.251 153.568 L
317.851 156.818 319.856 157.319 320.425 156.339 C
320.425 156.339 L
320.992 155.363 320.682 152.848 319.515 148.12 C
319.515 148.12 L
319.515 148.12 L
318.142 142.562 317.542 138.862 319.874 138.286 C
319.874 138.286 L
321.46 137.894 324.224 139.23 328.251 141.568 C
328.0 142.0 L
328.251 141.568 L
333.851 144.818 335.856 145.319 336.425 144.339 C
336.425 144.339 L
336.992 143.363 336.682 140.848 335.515 136.12 C
335.501 136.064 L
335.515 136.12 L
334.142 130.562 333.542 126.862 335.874 126.286 C
335.874 126.286 L
337.46 125.894 340.224 127.23 344.251 129.568 C
344.0 130.0 L
344.251 129.568 L
349.851 132.818 351.856 133.319 352.425 132.339 C
352.425 132.339 L
352.992 131.363 352.682 128.848 351.515 124.12 C
352.0 124.0 L
351.515 124.12 L
350.142 118.562 349.542 114.862 351.874 114.286 C
351.874 114.286 L
353.46 113.894 356.224 115.23 360.251 117.568 C
360.0 118.0 L
360.251 117.568 L
365.851 120.818 367.856 121.319 368.425 120.339 C
368.425 120.339 L
368.992 119.363 368.682 116.848 367.515 112.12 C
367.395 111.634 L
368.366 111.395 L
368.485 111.88 L
369.602 116.401 370.11 119.428 369.29 120.841 C
369.29 120.841 L
368.084 122.919 364.7 121.306 359.749 118.432 C
359.255 118.145 L
359.749 118.432 L
355.537 115.987 353.209 114.986 352.114 115.257 C
352.114 115.257 L
351.013 115.529 350.933 117.594 352.485 123.88 C
352.485 123.88 L
353.602 128.401 354.11 131.428 353.29 132.841 C
353.29 132.841 L
352.084 134.919 348.7 133.306 343.749 130.432 C
343.749 130.432 L
339.537 127.987 337.209 126.986 336.114 127.257 C
336.114 127.257 L
335.013 127.529 334.933 129.594 336.485 135.88 C
336.0 136.0 L
336.485 135.88 L
337.602 140.401 338.11 143.428 337.29 144.841 C
337.29 144.841 L
336.084 146.919 332.7 145.306 327.749 142.432 C
327.531 142.306 L
327.749 142.432 L
323.537 139.987 321.209 138.986 320.114 139.257 C
320.114 139.257 L
319.013 139.529 318.933 141.594 320.485 147.88 C
320.0 148.0 L
320.485 147.88 L
321.602 152.401 322.11 155.428 321.29 156.841 C
321.29 156.841 L
320.084 158.919 316.7 157.306 311.749 154.432 C
311.531 154.306 L
311.749 154.432 L
307.537 151.987 305.209 150.986 304.114 151.257 C
304.114 151.257 L
303.013 151.529 302.933 153.594 304.485 159.88 C
304.485 159.88 L
305.602 164.401 306.11 167.428 305.29 168.841 C
305.29 168.841 L
304.084 170.919 300.7 169.306 295.749 166.432 C
295.531 166.306 L
295.749 166.432 L
291.537 163.987 289.209 162.986 288.114 163.257 C
288.114 163.257 L
287.013 163.529 286.933 165.594 288.485 171.88 C
288.485 171.88 L
289.602 176.401 290.11 179.428 289.29 180.841 C
289.29 180.841 L
288.084 182.919 284.7 181.306 279.749 178.432 C
279.749 178.432 L
275.537 175.987 273.209 174.986 272.114 175.257 C
272.114 175.257 L
271.013 175.529 270.933 177.594 272.485 183.88 C
272.485 183.88 L
273.602 188.401 274.11 191.428 273.29 192.841 C
273.29 192.841 L
272.084 194.919 268.7 193.306 263.749 190.432 C
264.196 190.692 L
263.749 190.432 L
259.537 187.987 257.209 186.986 256.114 187.257 C
256.114 187.257 L
255.013 187.529 254.933 189.594 256.485 195.88 C
256.0 196.0 L
256.485 195.88 L
257.602 200.401 258.11 203.428 257.29 204.841 C
257.29 204.841 L
256.084 206.919 252.7 205.306 247.749 202.432 C
248.0 202.0 L
247.749 202.432 L
243.537 199.987 241.209 198.986 240.114 199.257 C
240.114 199.257 L
239.013 199.529 238.933 201.594 240.485 207.88 C
240.605 208.366 L
239.634 208.605 L
P
G
WC
WF
R N
N
368.189 111.537 M
368.189 111.537 L
373.396 113.659 376.738 115.322 375.867 117.459 C
375.867 117.459 L
375.265 118.937 372.513 120.301 368.189 122.063 C
368.0 121.6 L
368.189 122.063 L
362.264 124.477 360.669 125.724 361.059 126.682 C
361.059 126.682 L
361.461 127.669 363.646 128.886 368.189 130.737 C
368.189 130.737 L
368.189 130.737 L
373.396 132.859 376.738 134.522 375.867 136.659 C
375.867 136.659 L
375.265 138.137 372.513 139.501 368.189 141.263 C
368.189 141.263 L
368.189 141.263 L
362.264 143.677 360.669 144.924 361.059 145.882 C
361.059 145.882 L
361.462 146.869 363.646 148.086 368.189 149.937 C
368.189 149.937 L
368.189 149.937 L
373.396 152.059 376.738 153.722 375.867 155.859 C
375.867 155.859 L
375.265 157.337 372.513 158.701 368.189 160.463 C
368.0 160.0 L
368.189 160.463 L
362.264 162.877 360.669 164.124 361.059 165.082 C
361.059 165.082 L
361.462 166.069 363.646 167.286 368.189 169.137 C
368.0 169.6 L
368.189 169.137 L
373.396 171.259 376.738 172.922 375.867 175.059 C
375.867 175.059 L
375.265 176.537 372.513 177.901 368.189 179.663 C
368.189 179.663 L
368.189 179.663 L
362.264 182.077 360.669 183.324 361.059 184.282 C
361.059 184.282 L
361.462 185.269 363.645 186.486 368.189 188.337 C
368.0 188.8 L
368.189 188.337 L
373.396 190.459 376.738 192.122 375.867 194.259 C
375.867 194.259 L
375.265 195.737 372.513 197.101 368.189 198.863 C
368.0 198.4 L
368.189 198.863 L
362.264 201.277 360.669 202.524 361.059 203.482 C
361.059 203.482 L
361.462 204.469 363.645 205.686 368.189 207.537 C
368.0 208.0 L
368.189 207.537 L
373.396 209.659 376.738 211.322 375.867 213.459 C
375.867 213.459 L
375.265 214.937 372.513 216.301 368.189 218.063 C
368.0 217.6 L
368.189 218.063 L
362.264 220.477 360.669 221.724 361.059 222.682 C
361.059 222.682 L
361.462 223.669 363.646 224.886 368.189 226.737 C
368.0 227.2 L
368.189 226.737 L
373.396 228.859 376.738 230.522 375.867 232.659 C
375.867 232.659 L
375.265 234.137 372.513 235.501 368.189 237.263 C
368.0 236.8 L
368.189 237.263 L
362.264 239.677 360.669 240.924 361.059 241.882 C
361.059 241.882 L
361.462 242.869 363.646 244.086 368.189 245.937 C
368.0 246.4 L
368.189 245.937 L
373.396 248.059 376.738 249.722 375.867 251.859 C
375.867 251.859 L
375.265 253.337 372.513 254.701 368.189 256.463 C
368.0 256.0 L
368.189 256.463 L
362.264 258.877 360.669 260.124 361.059 261.082 C
361.059 261.082 L
361.461 262.069 363.646 263.286 368.189 265.137 C
368.0 265.6 L
368.189 265.137 L
373.396 267.259 376.738 268.922 375.867 271.059 C
375.867 271.059 L
375.265 272.537 372.513 273.901 368.189 275.663 C
368.0 275.2 L
368.189 275.663 L
362.264 278.077 360.669 279.324 361.059 280.282 C
361.059 280.282 L
361.461 281.269 363.646 282.486 368.189 284.337 C
368.0 284.8 L
368.189 284.337 L
373.396 286.459 376.738 288.122 375.867 290.259 C
375.867 290.259 L
375.265 291.737 372.513 293.101 368.189 294.863 C
368.189 294.863 L
368.189 294.863 L
362.264 297.277 360.669 298.524 361.059 299.482 C
361.059 299.482 L
361.462 300.469 363.646 301.686 368.189 303.537 C
368.652 303.726 L
368.274 304.652 L
367.811 304.463 L
363.487 302.701 360.735 301.337 360.133 299.859 C
360.133 299.859 L
359.262 297.722 362.604 296.059 367.811 293.937 C
368.0 294.4 L
367.811 293.937 L
372.354 292.086 374.539 290.869 374.941 289.882 C
374.941 289.882 L
375.331 288.925 373.736 287.677 367.811 285.263 C
367.811 285.263 L
363.487 283.501 360.735 282.137 360.133 280.659 C
360.133 280.659 L
359.262 278.522 362.604 276.859 367.811 274.737 C
367.811 274.737 L
372.354 272.886 374.539 271.669 374.941 270.682 C
374.941 270.682 L
375.331 269.725 373.736 268.477 367.811 266.063 C
367.811 266.063 L
363.487 264.301 360.735 262.937 360.133 261.459 C
360.133 261.459 L
359.262 259.322 362.604 257.659 367.811 255.537 C
367.811 255.537 L
367.811 255.537 L
372.354 253.686 374.539 252.469 374.941 251.482 C
374.941 251.482 L
375.331 250.524 373.736 249.277 367.811 246.863 C
367.811 246.863 L
363.487 245.101 360.735 243.737 360.133 242.259 C
360.133 242.259 L
359.262 240.122 362.604 238.459 367.811 236.337 C
367.811 236.337 L
367.811 236.337 L
372.354 234.486 374.539 233.269 374.941 232.282 C
374.941 232.282 L
375.331 231.324 373.736 230.077 367.811 227.663 C
367.811 227.663 L
367.811 227.663 L
363.487 225.901 360.735 224.537 360.133 223.059 C
360.133 223.059 L
359.262 220.922 362.604 219.259 367.811 217.137 C
367.811 217.137 L
372.354 215.286 374.539 214.069 374.941 213.082 C
374.941 213.082 L
375.331 212.124 373.736 210.877 367.811 208.463 C
367.811 208.463 L
363.487 206.701 360.735 205.337 360.133 203.859 C
360.133 203.859 L
359.262 201.722 362.604 200.059 367.811 197.937 C
367.811 197.937 L
367.811 197.937 L
372.354 196.086 374.539 194.869 374.941 193.882 C
374.941 193.882 L
375.331 192.924 373.736 191.677 367.811 189.263 C
367.811 189.263 L
363.487 187.501 360.735 186.137 360.133 184.659 C
360.133 184.659 L
359.262 182.522 362.604 180.859 367.811 178.737 C
368.0 179.2 L
367.811 178.737 L
372.354 176.886 374.539 175.669 374.941 174.682 C
374.941 174.682 L
375.331 173.724 373.736 172.477 367.811 170.063 C
367.811 170.063 L
363.487 168.301 360.735 166.937 360.133 165.459 C
360.133 165.459 L
359.262 163.322 362.604 161.659 367.811 159.537 C
367.811 159.537 L
372.354 157.686 374.539 156.469 374.941 155.482 C
374.941 155.482 L
375.331 154.524 373.736 153.277 367.811 150.863 C
368.0 150.4 L
367.811 150.863 L
363.487 149.101 360.735 147.737 360.133 146.259 C
360.133 146.259 L
359.262 144.122 362.604 142.459 367.811 140.337 C
368.0 140.8 L
367.811 140.337 L
372.354 138.486 374.539 137.269 374.941 136.282 C
374.941 136.282 L
375.331 135.324 373.736 134.077 367.811 131.663 C
368.0 131.2 L
367.811 131.663 L
363.487 129.901 360.735 128.537 360.133 127.059 C
360.133 127.059 L
359.262 124.922 362.604 123.259 367.811 121.137 C
367.811 121.137 L
367.811 121.137 L
372.354 119.286 374.539 118.069 374.941 117.082 C
374.941 117.082 L
375.331 116.124 373.736 114.877 367.811 112.463 C
367.348 112.274 L
367.726 111.348 L
P
G
WC
WF
R N
0.88235295 SG
N
280.0 208.0 M
280.0 225.673 262.091 240.0 240.0 240.0 C
217.909 240.0 200.0 225.673 200.0 208.0 C
200.0 190.327 217.909 176.0 240.0 176.0 C
262.091 176.0 280.0 190.327 280.0 208.0 C
P
G
WC
WF
R N
0.0 SG
N
280.5 208.0 M
280.5 208.0 L
280.5 226.048 262.258 240.5 240.0 240.5 C
240.0 240.0 L
240.0 240.5 L
217.742 240.5 199.5 226.048 199.5 208.0 C
200.0 208.0 L
199.5 208.0 L
199.5 189.952 217.742 175.5 240.0 175.5 C
240.0 176.0 L
240.0 175.5 L
262.258 175.5 280.5 189.952 280.5 208.0 C
280.0 208.0 L
280.5 208.0 L
279.5 208.0 M
279.5 208.0 L
279.5 190.701 261.925 176.5 240.0 176.5 C
240.0 176.5 L
218.075 176.5 200.5 190.701 200.5 208.0 C
200.5 208.0 L
200.5 225.299 218.075 239.5 240.0 239.5 C
240.0 239.5 L
261.925 239.5 279.5 225.299 279.5 208.0 C
P
G
WC
WF
R N
pgSave restore
showpage
%%EOF
