%!PS-Adobe-3.0 EPSF-3.0
%%BoundingBox: 134 364 490 660
%%Creator: hjf with JaxoDraw-2.1-0
%%Title: 
%%CreationDate: 16/9/2013
%%BeginProlog
/imStr 0 def /imageSrc {currentfile /ASCII85Decode filter /RunLengthDecode filter  imStr readstring pop } def
/BD {bind def} bind def
/D {def} BD
/C {curveto} BD
/L {lineto} BD
/M {moveto} BD
/R {grestore} BD
/G {gsave} BD
/N {newpath} BD
/P {closepath} BD
/EC {eoclip} BD
/WC {clip} BD
/EF {eofill} BD
/WF {fill} BD
/SG {setgray} BD
/SC {setrgbcolor} BD
/ISOF {
     dup findfont dup length 1 add dict begin {
             1 index /FID eq {pop pop} {D} ifelse
     } forall /Encoding ISOLatin1Encoding D
     currentdict end definefont
} BD
/NZ {dup 1 lt {pop 1} if} BD
/S {
     moveto 1 index stringwidth pop NZ sub
     1 index length 1 sub NZ div 0
     3 2 roll ashow newpath} BD
/FL [
    /AvantGarde-Book ISOF
    /AvantGarde-BookOblique ISOF
    /AvantGarde-Demi ISOF
    /AvantGarde-DemiOblique ISOF
    /Bookman-Demi ISOF
    /Bookman-DemiItalic ISOF
    /Bookman-Light ISOF
    /Bookman-LightItalic ISOF
    /Courier ISOF
    /Courier-Bold ISOF
    /Courier-BoldOblique ISOF
    /Courier-Oblique ISOF
    /Helvetica ISOF
    /Helvetica-Bold ISOF
    /Helvetica-BoldOblique ISOF
    /Helvetica-Narrow ISOF
    /Helvetica-Narrow-Bold ISOF
    /Helvetica-Narrow-BoldOblique ISOF
    /Helvetica-Narrow-Oblique ISOF
    /Helvetica-Oblique ISOF
    /NewCenturySchlbk-Bold ISOF
    /NewCenturySchlbk-BoldItalic ISOF
    /NewCenturySchlbk-Italic ISOF
    /NewCenturySchlbk-Roman ISOF
    /Palatino-Bold ISOF
    /Palatino-BoldItalic ISOF
    /Palatino-Italic ISOF
    /Palatino-Roman ISOF
    /Symbol findfont
    /Times-Bold ISOF
    /Times-BoldItalic ISOF
    /Times-Italic ISOF
    /Times-Roman ISOF
    /ZapfDingbats findfont
    /ZapfChancery-MediumItalic ISOF
] D
/F {
     FL exch get exch scalefont
     [1 0 0 -1 0 0] makefont setfont} BD
%%EndProlog
%%BeginSetup
<< /PageSize [612.0 792.0] /DeferredMediaSelection true /ImagingBBox null /ManualFeed false /NumCopies 1 >> pop 
%%EndSetup
%%Page: 1 1
/pgSave save def
792.0 0 exch translate 1 -1 scale[72 300 div 0 0 72 300 div 0 0]concat
G
[4.1666665 0.0 0.0 4.1666665 300.0 300.0] concat
N
0.0 0.0 M
468.0 0.0 L
468.0 648.0 L
0.0 648.0 L
0.0 0.0 L
P
WC
N
111.69 305.211 M
111.69 305.211 L
107.227 304.068 103.25 299.587 103.25 290.56 C
104.5 290.56 L
103.25 290.56 L
103.25 282.584 108.871 279.044 113.708 279.044 C
113.708 279.044 L
117.101 279.044 120.75 280.91 120.75 284.8 C
119.5 284.8 L
120.75 284.8 L
120.75 288.386 117.609 290.298 114.41 290.298 C
114.41 290.298 L
109.214 290.298 103.25 285.678 103.25 275.2 C
104.5 275.2 L
103.25 275.2 L
103.25 264.722 109.214 260.102 114.41 260.102 C
114.41 260.102 L
117.609 260.102 120.75 262.014 120.75 265.6 C
119.5 265.6 L
120.75 265.6 L
120.75 269.186 117.609 271.098 114.41 271.098 C
114.41 271.098 L
109.214 271.098 103.25 266.478 103.25 256.0 C
104.5 256.0 L
103.25 256.0 L
103.25 245.522 109.214 240.902 114.41 240.902 C
114.41 240.902 L
117.609 240.902 120.75 242.814 120.75 246.4 C
119.5 246.4 L
120.75 246.4 L
120.75 249.986 117.609 251.898 114.41 251.898 C
114.41 251.898 L
109.214 251.898 103.25 247.278 103.25 236.8 C
104.5 236.8 L
103.25 236.8 L
103.25 226.322 109.214 221.702 114.41 221.702 C
114.41 221.702 L
117.609 221.702 120.75 223.614 120.75 227.2 C
119.5 227.2 L
120.75 227.2 L
120.75 230.786 117.609 232.698 114.41 232.698 C
114.41 232.698 L
109.214 232.698 103.25 228.078 103.25 217.6 C
104.5 217.6 L
103.25 217.6 L
103.25 207.122 109.214 202.502 114.41 202.502 C
114.41 202.502 L
117.609 202.502 120.75 204.414 120.75 208.0 C
119.5 208.0 L
120.75 208.0 L
120.75 211.586 117.609 213.498 114.41 213.498 C
114.41 213.498 L
109.214 213.498 103.25 208.878 103.25 198.4 C
104.5 198.4 L
103.25 198.4 L
103.25 187.922 109.214 183.302 114.41 183.302 C
114.41 183.302 L
117.609 183.302 120.75 185.214 120.75 188.8 C
119.5 188.8 L
120.75 188.8 L
120.75 192.386 117.609 194.298 114.41 194.298 C
114.41 194.298 L
109.214 194.298 103.25 189.678 103.25 179.2 C
104.5 179.2 L
103.25 179.2 L
103.25 168.722 109.214 164.102 114.41 164.102 C
114.41 164.102 L
117.609 164.102 120.75 166.014 120.75 169.6 C
119.5 169.6 L
120.75 169.6 L
120.75 173.186 117.609 175.098 114.41 175.098 C
114.41 175.098 L
109.214 175.098 103.25 170.478 103.25 160.0 C
104.5 160.0 L
103.25 160.0 L
103.25 149.522 109.214 144.902 114.41 144.902 C
114.41 144.902 L
117.609 144.902 120.75 146.814 120.75 150.4 C
119.5 150.4 L
120.75 150.4 L
120.75 153.986 117.609 155.898 114.41 155.898 C
114.41 155.898 L
109.214 155.898 103.25 151.278 103.25 140.8 C
104.5 140.8 L
103.25 140.8 L
103.25 130.322 109.214 125.702 114.41 125.702 C
114.41 125.702 L
117.609 125.702 120.75 127.614 120.75 131.2 C
119.5 131.2 L
120.75 131.2 L
120.75 135.09 117.101 136.956 113.708 136.956 C
113.708 136.956 L
108.871 136.956 103.25 133.416 103.25 125.44 C
104.5 125.44 L
103.25 125.44 L
103.25 116.413 107.227 111.932 111.69 110.789 C
112.901 110.479 L
113.521 112.901 L
112.31 113.211 L
109.273 113.988 105.75 117.187 105.75 125.44 C
105.75 125.44 L
105.75 131.888 110.1 134.456 113.708 134.456 C
113.708 134.456 L
116.519 134.456 118.25 133.027 118.25 131.2 C
118.25 131.2 L
118.25 129.505 116.8 128.202 114.41 128.202 C
114.41 128.202 L
110.906 128.202 105.75 131.37 105.75 140.8 C
105.75 140.8 L
105.75 150.23 110.906 153.398 114.41 153.398 C
114.41 153.398 L
116.8 153.398 118.25 152.095 118.25 150.4 C
118.25 150.4 L
118.25 148.705 116.8 147.402 114.41 147.402 C
114.41 147.402 L
110.906 147.402 105.75 150.57 105.75 160.0 C
105.75 160.0 L
105.75 169.43 110.906 172.598 114.41 172.598 C
114.41 172.598 L
116.8 172.598 118.25 171.295 118.25 169.6 C
118.25 169.6 L
118.25 167.905 116.8 166.602 114.41 166.602 C
114.41 166.602 L
110.906 166.602 105.75 169.77 105.75 179.2 C
105.75 179.2 L
105.75 188.63 110.906 191.798 114.41 191.798 C
114.41 191.798 L
116.8 191.798 118.25 190.495 118.25 188.8 C
118.25 188.8 L
118.25 187.105 116.8 185.802 114.41 185.802 C
114.41 185.802 L
110.906 185.802 105.75 188.97 105.75 198.4 C
105.75 198.4 L
105.75 207.83 110.906 210.998 114.41 210.998 C
114.41 210.998 L
116.8 210.998 118.25 209.695 118.25 208.0 C
118.25 208.0 L
118.25 206.305 116.8 205.002 114.41 205.002 C
114.41 205.002 L
110.906 205.002 105.75 208.17 105.75 217.6 C
105.75 217.6 L
105.75 227.03 110.906 230.198 114.41 230.198 C
114.41 230.198 L
116.8 230.198 118.25 228.895 118.25 227.2 C
118.25 227.2 L
118.25 225.505 116.8 224.202 114.41 224.202 C
114.41 224.202 L
110.906 224.202 105.75 227.37 105.75 236.8 C
105.75 236.8 L
105.75 246.23 110.906 249.398 114.41 249.398 C
114.41 249.398 L
116.8 249.398 118.25 248.095 118.25 246.4 C
118.25 246.4 L
118.25 244.705 116.8 243.402 114.41 243.402 C
114.41 243.402 L
110.906 243.402 105.75 246.57 105.75 256.0 C
105.75 256.0 L
105.75 265.43 110.906 268.598 114.41 268.598 C
114.41 268.598 L
116.8 268.598 118.25 267.295 118.25 265.6 C
118.25 265.6 L
118.25 263.905 116.8 262.602 114.41 262.602 C
114.41 262.602 L
110.906 262.602 105.75 265.77 105.75 275.2 C
105.75 275.2 L
105.75 284.63 110.906 287.798 114.41 287.798 C
114.41 287.798 L
116.8 287.798 118.25 286.495 118.25 284.8 C
118.25 284.8 L
118.25 282.973 116.519 281.544 113.708 281.544 C
113.708 281.544 L
110.1 281.544 105.75 284.112 105.75 290.56 C
105.75 290.56 L
105.75 298.813 109.273 302.012 112.31 302.789 C
113.521 303.099 L
112.901 305.521 L
P
G
WC
WF
R N
N
63.333 62.943 M
63.333 62.943 L
67.148 60.536 72.835 60.461 78.587 66.213 C
77.703 67.097 L
78.587 66.213 L
83.931 71.556 82.366 77.848 79.004 81.21 C
79.004 81.21 L
76.577 83.637 72.607 84.981 69.813 82.187 C
70.697 81.303 L
69.813 82.187 L
67.22 79.595 68.19 75.937 70.488 73.639 C
70.488 73.639 L
74.1 70.027 81.302 68.928 88.187 75.813 C
87.303 76.697 L
88.187 75.813 L
95.072 82.698 93.973 89.9 90.361 93.512 C
90.361 93.512 L
88.063 95.81 84.405 96.78 81.813 94.187 C
82.697 93.303 L
81.813 94.187 L
79.22 91.595 80.19 87.937 82.488 85.639 C
82.488 85.639 L
86.1 82.027 93.302 80.928 100.187 87.813 C
99.303 88.697 L
100.187 87.813 L
107.072 94.698 105.973 101.9 102.361 105.512 C
102.361 105.512 L
100.063 107.81 96.405 108.78 93.813 106.187 C
94.697 105.303 L
93.813 106.187 L
91.019 103.393 92.363 99.423 94.79 96.996 C
94.79 96.996 L
98.152 93.634 104.444 92.069 109.787 97.413 C
111.834 99.46 L
109.787 97.413 L
115.539 103.165 115.464 108.852 113.057 112.667 C
112.39 113.724 L
110.276 112.39 L
110.943 111.333 L
112.639 108.644 113.067 104.228 108.019 99.181 C
108.903 98.297 L
108.019 99.181 L
103.821 94.982 99.121 96.2 96.557 98.764 C
96.557 98.764 L
94.51 100.811 94.268 103.107 95.581 104.419 C
97.226 106.065 L
95.581 104.419 L
96.803 105.642 98.824 105.514 100.593 103.744 C
100.593 103.744 L
103.092 101.245 104.47 95.631 98.419 89.581 C
98.419 89.581 L
98.419 89.581 L
92.369 83.53 86.755 84.908 84.256 87.407 C
84.256 87.407 L
82.486 89.176 82.358 91.197 83.581 92.419 C
83.581 92.419 L
83.581 92.419 L
84.803 93.642 86.824 93.514 88.593 91.744 C
88.593 91.744 L
91.092 89.245 92.47 83.631 86.419 77.581 C
85.906 77.068 L
86.419 77.581 L
80.369 71.53 74.755 72.908 72.256 75.407 C
72.256 75.407 L
70.486 77.176 70.358 79.197 71.581 80.419 C
71.832 80.671 L
71.581 80.419 L
72.893 81.732 75.189 81.49 77.236 79.443 C
77.236 79.443 L
79.8 76.879 81.018 72.179 76.819 67.981 C
76.819 67.981 L
76.819 67.981 L
71.772 62.933 67.356 63.361 64.667 65.057 C
63.61 65.724 L
62.276 63.61 L
P
G
WC
WF
R N
N
240.8 208.96 M
240.8 208.96 L
237.305 211.872 231.559 212.607 224.794 207.533 C
225.544 206.533 L
224.794 207.533 L
218.628 202.909 219.244 196.396 222.115 192.568 C
222.115 192.568 L
224.166 189.834 227.885 187.976 231.028 190.333 C
230.278 191.333 L
231.028 190.333 L
233.937 192.515 233.527 196.237 231.588 198.822 C
231.588 198.822 L
228.504 202.935 221.42 205.002 213.417 199.0 C
214.167 198.0 L
213.417 199.0 L
205.414 192.998 205.415 185.618 208.5 181.505 C
208.5 181.505 L
210.439 178.92 213.896 177.485 216.806 179.667 C
216.663 179.56 L
216.806 179.667 L
219.715 181.849 219.305 185.57 217.366 188.155 C
217.366 188.155 L
214.281 192.268 207.197 194.336 199.194 188.333 C
199.944 187.333 L
199.194 188.333 L
191.191 182.331 191.193 174.951 194.278 170.839 C
194.278 170.839 L
196.216 168.253 199.674 166.818 202.583 169.0 C
201.833 170.0 L
202.583 169.0 L
205.493 171.182 205.083 174.903 203.144 177.488 C
203.144 177.488 L
200.059 181.601 192.975 183.669 184.972 177.667 C
185.722 176.667 L
184.972 177.667 L
176.969 171.664 176.971 164.285 180.055 160.172 C
180.055 160.172 L
181.994 157.587 185.452 156.151 188.361 158.333 C
188.197 158.211 L
188.361 158.333 L
191.27 160.515 190.861 164.237 188.922 166.822 C
188.922 166.822 L
185.837 170.935 178.753 173.002 170.75 167.0 C
171.5 166.0 L
170.75 167.0 L
162.747 160.998 162.748 153.618 165.833 149.505 C
165.833 149.505 L
167.772 146.92 171.23 145.485 174.139 147.667 C
174.013 147.572 L
174.139 147.667 L
177.048 149.849 176.638 153.57 174.699 156.155 C
174.699 156.155 L
171.615 160.268 164.531 162.336 156.528 156.333 C
157.278 155.333 L
156.528 156.333 L
148.525 150.331 148.526 142.951 151.611 138.839 C
151.611 138.839 L
153.55 136.253 157.007 134.818 159.917 137.0 C
159.167 138.0 L
159.917 137.0 L
162.826 139.182 162.416 142.903 160.477 145.488 C
160.477 145.488 L
157.393 149.601 150.309 151.669 142.306 145.667 C
143.056 144.667 L
142.306 145.667 L
134.303 139.664 134.304 132.285 137.389 128.172 C
137.389 128.172 L
139.328 125.587 142.785 124.151 145.694 126.333 C
144.944 127.333 L
145.694 126.333 L
148.604 128.515 148.194 132.237 146.255 134.822 C
146.255 134.822 L
143.17 138.935 136.086 141.002 128.083 135.0 C
128.083 135.0 L
128.083 135.0 L
120.08 128.998 120.082 121.618 123.166 117.505 C
123.166 117.505 L
125.105 114.92 128.563 113.485 131.472 115.667 C
132.552 116.477 L
131.472 115.667 L
134.615 118.024 133.873 122.114 131.823 124.848 C
131.823 124.848 L
128.951 128.677 122.872 131.091 116.706 126.467 C
117.456 125.467 L
116.706 126.467 L
109.941 121.393 109.038 115.671 110.854 111.501 C
111.353 110.355 L
113.645 111.353 L
113.146 112.499 L
111.884 115.396 112.17 119.94 118.206 124.467 C
118.206 124.467 L
118.206 124.467 L
123.103 128.14 127.651 126.244 129.823 123.348 C
129.823 123.348 L
131.541 121.057 131.449 118.774 129.972 117.667 C
130.722 116.667 L
129.972 117.667 L
128.599 116.637 126.643 117.036 125.166 119.005 C
125.166 119.005 L
123.052 121.824 122.485 127.676 129.583 133.0 C
128.833 134.0 L
129.583 133.0 L
136.681 138.324 142.141 136.14 144.255 133.322 C
144.255 133.322 L
145.732 131.353 145.567 129.363 144.194 128.333 C
144.358 128.456 L
144.194 128.333 L
142.822 127.304 140.865 127.703 139.389 129.672 C
139.389 129.672 L
137.275 132.491 136.707 138.343 143.806 143.667 C
143.806 143.667 L
150.904 148.99 156.363 146.807 158.477 143.988 C
158.477 143.988 L
159.954 142.019 159.789 140.03 158.417 139.0 C
158.542 139.094 L
158.417 139.0 L
157.044 137.97 155.088 138.37 153.611 140.339 C
153.611 140.339 L
151.497 143.157 150.93 149.01 158.028 154.333 C
158.028 154.333 L
165.126 159.657 170.585 157.474 172.699 154.655 C
172.699 154.655 L
174.176 152.686 174.012 150.696 172.639 149.667 C
173.389 148.667 L
172.639 149.667 L
171.266 148.637 169.31 149.036 167.833 151.005 C
167.833 151.005 L
165.719 153.824 165.152 159.676 172.25 165.0 C
172.25 165.0 L
179.348 170.324 184.808 168.14 186.922 165.322 C
186.922 165.322 L
188.398 163.353 188.234 161.363 186.861 160.333 C
187.611 159.333 L
186.861 160.333 L
185.488 159.304 183.532 159.703 182.055 161.672 C
182.055 161.672 L
179.941 164.491 179.374 170.343 186.472 175.667 C
186.472 175.667 L
193.57 180.99 199.03 178.807 201.144 175.988 C
201.144 175.988 L
202.621 174.019 202.456 172.03 201.083 171.0 C
201.083 171.0 L
201.083 171.0 L
199.711 169.97 197.754 170.37 196.278 172.339 C
196.278 172.339 L
194.164 175.157 193.596 181.01 200.694 186.333 C
200.694 186.333 L
207.793 191.657 213.252 189.474 215.366 186.655 C
215.366 186.655 L
216.843 184.686 216.678 182.696 215.306 181.667 C
216.056 180.667 L
215.306 181.667 L
213.933 180.637 211.976 181.036 210.5 183.005 C
210.5 183.005 L
208.386 185.824 207.819 191.676 214.917 197.0 C
215.575 197.494 L
214.917 197.0 L
222.015 202.324 227.474 200.141 229.588 197.322 C
229.588 197.322 L
231.065 195.353 230.901 193.363 229.528 192.333 C
229.691 192.456 L
229.528 192.333 L
228.051 191.226 225.834 191.776 224.115 194.068 C
224.115 194.068 L
221.944 196.963 221.397 201.86 226.294 205.533 C
226.294 205.533 L
226.294 205.533 L
232.33 210.06 236.772 209.062 239.2 207.04 C
240.16 206.24 L
241.76 208.16 L
P
G
WC
WF
R N
N
110.854 304.499 M
110.854 304.499 L
109.038 300.329 109.941 294.607 116.706 289.533 C
116.862 289.416 L
116.706 289.533 L
122.872 284.909 128.951 287.323 131.823 291.152 C
131.823 291.152 L
133.873 293.886 134.615 297.976 131.472 300.333 C
131.427 300.367 L
131.472 300.333 L
128.563 302.515 125.105 301.08 123.166 298.495 C
123.166 298.495 L
120.082 294.382 120.08 287.002 128.083 281.0 C
127.425 281.494 L
128.083 281.0 L
136.086 274.998 143.17 277.065 146.255 281.178 C
146.255 281.178 L
148.194 283.764 148.604 287.485 145.694 289.667 C
144.944 288.667 L
145.694 289.667 L
142.785 291.849 139.328 290.413 137.389 287.828 C
137.389 287.828 L
134.304 283.715 134.303 276.336 142.306 270.333 C
142.306 270.333 L
142.306 270.333 L
150.309 264.331 157.393 266.399 160.477 270.512 C
160.477 270.512 L
162.416 273.097 162.826 276.818 159.917 279.0 C
159.917 279.0 L
159.917 279.0 L
157.007 281.182 153.55 279.747 151.611 277.161 C
151.611 277.161 L
148.526 273.049 148.525 265.669 156.528 259.667 C
157.278 260.667 L
156.528 259.667 L
164.531 253.664 171.615 255.732 174.7 259.845 C
174.7 259.845 L
176.638 262.43 177.048 266.151 174.139 268.333 C
173.389 267.333 L
174.139 268.333 L
171.23 270.515 167.772 269.08 165.833 266.495 C
165.833 266.495 L
162.748 262.382 162.747 255.002 170.75 249.0 C
171.5 250.0 L
170.75 249.0 L
178.753 242.998 185.837 245.065 188.922 249.178 C
188.922 249.178 L
190.861 251.763 191.27 255.485 188.361 257.667 C
187.611 256.667 L
188.361 257.667 L
185.452 259.849 181.994 258.413 180.055 255.828 C
180.055 255.828 L
176.971 251.715 176.969 244.336 184.972 238.333 C
185.722 239.333 L
184.972 238.333 L
192.975 232.331 200.059 234.399 203.144 238.512 C
203.144 238.512 L
205.083 241.097 205.493 244.818 202.583 247.0 C
202.458 247.094 L
202.583 247.0 L
199.674 249.182 196.216 247.747 194.278 245.161 C
194.278 245.161 L
191.193 241.048 191.192 233.669 199.194 227.667 C
199.944 228.667 L
199.194 227.667 L
207.197 221.664 214.281 223.732 217.366 227.845 C
217.366 227.845 L
219.305 230.43 219.715 234.151 216.806 236.333 C
216.642 236.456 L
216.806 236.333 L
213.896 238.515 210.439 237.08 208.5 234.495 C
208.5 234.495 L
205.415 230.382 205.414 223.002 213.417 217.0 C
214.167 218.0 L
213.417 217.0 L
221.42 210.998 228.504 213.065 231.588 217.178 C
231.588 217.178 L
233.527 219.763 233.937 223.485 231.028 225.667 C
230.278 224.667 L
231.028 225.667 L
227.885 228.024 224.166 226.166 222.115 223.432 C
222.115 223.432 L
219.244 219.604 218.628 213.091 224.794 208.467 C
228.017 206.05 L
224.794 208.467 L
231.559 203.393 237.305 204.128 240.8 207.04 C
241.76 207.84 L
240.16 209.76 L
239.2 208.96 L
236.772 206.938 232.33 205.94 226.294 210.467 C
225.544 209.467 L
226.294 210.467 L
221.397 214.14 221.944 219.037 224.115 221.932 C
224.115 221.932 L
225.834 224.224 228.051 224.774 229.528 223.667 C
229.528 223.667 L
229.528 223.667 L
230.901 222.637 231.065 220.647 229.588 218.678 C
229.588 218.678 L
227.474 215.86 222.015 213.676 214.917 219.0 C
214.917 219.0 L
207.819 224.324 208.386 230.176 210.5 232.995 C
210.5 232.995 L
211.976 234.964 213.933 235.363 215.306 234.333 C
216.056 235.333 L
215.306 234.333 L
216.678 233.304 216.843 231.314 215.366 229.345 C
215.366 229.345 L
213.252 226.526 207.793 224.343 200.694 229.667 C
200.694 229.667 L
193.596 234.99 194.164 240.843 196.278 243.661 C
196.278 243.661 L
197.754 245.63 199.711 246.03 201.083 245.0 C
201.833 246.0 L
201.083 245.0 L
202.456 243.97 202.621 241.981 201.144 240.012 C
201.144 240.012 L
199.03 237.193 193.57 235.01 186.472 240.333 C
186.472 240.333 L
179.374 245.657 179.941 251.509 182.055 254.328 C
182.055 254.328 L
183.532 256.297 185.488 256.696 186.861 255.667 C
186.861 255.667 L
186.861 255.667 L
188.234 254.637 188.398 252.647 186.922 250.678 C
186.922 250.678 L
184.808 247.86 179.348 245.676 172.25 251.0 C
172.25 251.0 L
165.152 256.324 165.719 262.176 167.833 264.995 C
167.833 264.995 L
169.31 266.964 171.266 267.363 172.639 266.333 C
172.594 266.367 L
172.639 266.333 L
174.012 265.304 174.176 263.314 172.7 261.345 C
172.7 261.345 L
170.585 258.526 165.126 256.343 158.028 261.667 C
158.028 261.667 L
150.93 266.99 151.497 272.843 153.611 275.661 C
153.611 275.661 L
155.088 277.63 157.044 278.03 158.417 277.0 C
159.167 278.0 L
158.417 277.0 L
159.789 275.97 159.954 273.981 158.477 272.012 C
158.477 272.012 L
156.363 269.193 150.904 267.01 143.806 272.333 C
143.056 271.333 L
143.806 272.333 L
136.707 277.657 137.275 283.509 139.389 286.328 C
139.389 286.328 L
140.865 288.297 142.822 288.696 144.194 287.667 C
144.149 287.701 L
144.194 287.667 L
145.567 286.637 145.732 284.647 144.255 282.678 C
144.255 282.678 L
142.141 279.86 136.681 277.676 129.583 283.0 C
128.833 282.0 L
129.583 283.0 L
122.485 288.324 123.052 294.176 125.166 296.995 C
125.166 296.995 L
126.643 298.964 128.599 299.363 129.972 298.333 C
130.722 299.333 L
129.972 298.333 L
131.449 297.226 131.541 294.943 129.823 292.652 C
129.823 292.652 L
127.651 289.756 123.103 287.86 118.206 291.533 C
117.456 290.533 L
118.206 291.533 L
112.17 296.06 111.884 300.604 113.146 303.501 C
113.645 304.647 L
111.353 305.645 L
P
G
WC
WF
R N
N
113.057 303.333 M
113.057 303.333 L
115.464 307.148 115.539 312.835 109.787 318.587 C
110.867 317.507 L
109.787 318.587 L
104.444 323.931 98.152 322.366 94.79 319.004 C
94.79 319.004 L
92.363 316.577 91.019 312.607 93.813 309.813 C
93.648 309.977 L
93.813 309.813 L
96.405 307.22 100.063 308.19 102.361 310.488 C
102.361 310.488 L
105.973 314.1 107.072 321.302 100.187 328.187 C
99.937 328.438 L
100.187 328.187 L
93.302 335.072 86.1 333.973 82.488 330.361 C
82.488 330.361 L
80.19 328.063 79.22 324.405 81.813 321.813 C
81.69 321.935 L
81.813 321.813 L
84.405 319.22 88.063 320.19 90.361 322.488 C
90.361 322.488 L
93.973 326.1 95.072 333.302 88.187 340.187 C
88.514 339.861 L
88.187 340.187 L
81.302 347.072 74.1 345.973 70.488 342.361 C
70.488 342.361 L
68.19 340.063 67.22 336.405 69.813 333.813 C
69.69 333.935 L
69.813 333.813 L
72.607 331.019 76.577 332.363 79.004 334.79 C
79.004 334.79 L
82.366 338.152 83.931 344.444 78.587 349.787 C
77.703 348.903 L
78.587 349.787 L
72.835 355.54 67.148 355.464 63.333 353.057 C
62.276 352.39 L
63.61 350.276 L
64.667 350.943 L
67.356 352.639 71.772 353.067 76.819 348.019 C
74.536 350.303 L
76.819 348.019 L
81.018 343.821 79.8 339.121 77.236 336.557 C
77.236 336.557 L
75.189 334.51 72.893 334.268 71.581 335.581 C
70.697 334.697 L
71.581 335.581 L
70.358 336.803 70.486 338.824 72.256 340.593 C
72.256 340.593 L
74.755 343.092 80.369 344.47 86.419 338.419 C
87.303 339.303 L
86.419 338.419 L
92.47 332.369 91.092 326.755 88.593 324.256 C
88.593 324.256 L
86.824 322.486 84.803 322.358 83.581 323.581 C
82.697 322.697 L
83.581 323.581 L
82.358 324.803 82.486 326.824 84.256 328.593 C
84.256 328.593 L
86.755 331.092 92.369 332.47 98.419 326.419 C
99.303 327.303 L
98.419 326.419 L
104.47 320.369 103.092 314.755 100.593 312.256 C
100.593 312.256 L
98.824 310.486 96.803 310.358 95.581 311.581 C
94.697 310.697 L
95.581 311.581 L
94.268 312.893 94.51 315.189 96.557 317.236 C
96.557 317.236 L
99.121 319.8 103.821 321.018 108.019 316.819 C
108.903 317.703 L
108.019 316.819 L
113.067 311.772 112.639 307.356 110.943 304.667 C
110.276 303.61 L
112.39 302.276 L
P
G
WC
WF
R N
N
366.943 112.667 M
366.943 112.667 L
364.536 108.852 364.46 103.165 370.213 97.413 C
371.097 98.297 L
370.213 97.413 L
375.556 92.069 381.848 93.634 385.21 96.996 C
385.21 96.996 L
387.637 99.423 388.981 103.393 386.187 106.187 C
386.249 106.125 L
386.187 106.187 L
383.595 108.78 379.937 107.81 377.639 105.512 C
377.639 105.512 L
374.027 101.9 372.928 94.698 379.813 87.813 C
378.833 88.792 L
379.813 87.813 L
386.698 80.928 393.9 82.027 397.512 85.639 C
397.512 85.639 L
399.81 87.937 400.78 91.595 398.187 94.187 C
398.249 94.125 L
398.187 94.187 L
395.595 96.78 391.937 95.81 389.639 93.512 C
389.639 93.512 L
386.027 89.9 384.928 82.698 391.813 75.813 C
392.697 76.697 L
391.813 75.813 L
398.698 68.928 405.9 70.027 409.512 73.639 C
409.512 73.639 L
411.81 75.937 412.78 79.595 410.187 82.187 C
410.352 82.023 L
410.187 82.187 L
407.393 84.981 403.423 83.637 400.996 81.21 C
400.996 81.21 L
397.634 77.848 396.069 71.556 401.413 66.213 C
399.738 67.887 L
401.413 66.213 L
407.165 60.461 412.852 60.536 416.667 62.943 C
417.724 63.61 L
416.39 65.724 L
415.333 65.057 L
412.644 63.361 408.228 62.933 403.181 67.981 C
402.297 67.097 L
403.181 67.981 L
398.982 72.179 400.2 76.879 402.764 79.443 C
402.764 79.443 L
404.811 81.49 407.107 81.732 408.419 80.419 C
409.303 81.303 L
408.419 80.419 L
409.642 79.197 409.514 77.176 407.744 75.407 C
407.744 75.407 L
405.245 72.908 399.632 71.53 393.581 77.581 C
393.917 77.244 L
393.581 77.581 L
387.53 83.631 388.908 89.245 391.407 91.744 C
391.407 91.744 L
393.176 93.514 395.197 93.642 396.419 92.419 C
397.303 93.303 L
396.419 92.419 L
397.642 91.197 397.514 89.176 395.744 87.407 C
395.744 87.407 L
393.245 84.908 387.631 83.53 381.581 89.581 C
380.697 88.697 L
381.581 89.581 L
375.53 95.631 376.908 101.245 379.407 103.744 C
379.407 103.744 L
381.176 105.514 383.197 105.642 384.419 104.419 C
385.303 105.303 L
384.419 104.419 L
385.732 103.107 385.49 100.811 383.443 98.764 C
383.443 98.764 L
380.879 96.2 376.179 94.982 371.981 99.181 C
370.781 100.381 L
371.981 99.181 L
366.933 104.228 367.361 108.644 369.057 111.333 C
369.724 112.39 L
367.61 113.724 L
P
G
WC
WF
R N
N
416.667 353.057 M
416.667 353.057 L
412.852 355.464 407.165 355.54 401.413 349.787 C
402.297 348.903 L
401.413 349.787 L
396.069 344.444 397.634 338.152 400.996 334.79 C
400.996 334.79 L
403.423 332.363 407.393 331.019 410.187 333.813 C
410.218 333.844 L
410.187 333.813 L
412.78 336.405 411.81 340.063 409.512 342.361 C
409.512 342.361 L
405.9 345.973 398.698 347.072 391.813 340.187 C
391.813 340.187 L
391.813 340.187 L
384.928 333.302 386.027 326.1 389.639 322.488 C
389.639 322.488 L
391.937 320.19 395.595 319.22 398.187 321.813 C
398.218 321.844 L
398.187 321.813 L
400.78 324.405 399.81 328.063 397.512 330.361 C
397.512 330.361 L
393.9 333.973 386.698 335.072 379.813 328.187 C
380.697 327.303 L
379.813 328.187 L
372.928 321.302 374.027 314.1 377.639 310.488 C
377.639 310.488 L
379.937 308.19 383.595 307.22 386.187 309.813 C
386.218 309.844 L
386.187 309.813 L
388.981 312.607 387.637 316.577 385.21 319.004 C
385.21 319.004 L
381.848 322.366 375.556 323.931 370.213 318.587 C
371.097 317.703 L
370.213 318.587 L
364.46 312.835 364.536 307.148 366.943 303.333 C
367.61 302.276 L
369.724 303.61 L
369.057 304.667 L
367.361 307.356 366.933 311.772 371.981 316.819 C
372.106 316.944 L
371.981 316.819 L
376.179 321.018 380.879 319.8 383.443 317.236 C
383.443 317.236 L
385.49 315.189 385.732 312.893 384.419 311.581 C
385.303 310.697 L
384.419 311.581 L
383.197 310.358 381.176 310.486 379.407 312.256 C
379.407 312.256 L
376.908 314.755 375.53 320.369 381.581 326.419 C
381.581 326.419 L
387.631 332.47 393.245 331.092 395.744 328.593 C
395.744 328.593 L
397.514 326.824 397.642 324.803 396.419 323.581 C
397.303 322.697 L
396.419 323.581 L
395.197 322.358 393.176 322.486 391.407 324.256 C
391.407 324.256 L
388.908 326.755 387.53 332.369 393.581 338.419 C
392.697 339.303 L
393.581 338.419 L
399.632 344.47 405.245 343.092 407.744 340.593 C
407.744 340.593 L
409.514 338.824 409.642 336.803 408.419 335.581 C
409.303 334.697 L
408.419 335.581 L
407.107 334.268 404.811 334.51 402.764 336.557 C
402.764 336.557 L
400.2 339.121 398.982 343.821 403.181 348.019 C
403.261 348.1 L
403.181 348.019 L
408.228 353.067 412.644 352.639 415.333 350.943 C
416.39 350.276 L
417.724 352.39 L
P
G
WC
WF
R N
N
352.75 125.0 M
352.75 125.0 L
344.75 131.0 L
344.198 131.414 343.414 131.302 343.0 130.75 C
342.586 130.198 342.698 129.414 343.25 129.0 C
343.25 129.0 L
351.25 123.0 L
351.802 122.586 352.586 122.698 353.0 123.25 C
353.414 123.802 353.302 124.586 352.75 125.0 C
P
336.75 137.0 M
336.75 137.0 L
328.75 143.0 L
328.198 143.414 327.414 143.302 327.0 142.75 C
326.586 142.198 326.698 141.414 327.25 141.0 C
327.25 141.0 L
335.25 135.0 L
335.802 134.586 336.586 134.698 337.0 135.25 C
337.414 135.802 337.302 136.586 336.75 137.0 C
P
320.75 149.0 M
320.75 149.0 L
312.75 155.0 L
312.198 155.414 311.414 155.302 311.0 154.75 C
310.586 154.198 310.698 153.414 311.25 153.0 C
311.25 153.0 L
319.25 147.0 L
319.802 146.586 320.586 146.698 321.0 147.25 C
321.414 147.802 321.302 148.586 320.75 149.0 C
P
304.75 161.0 M
304.75 161.0 L
296.75 167.0 L
296.198 167.414 295.414 167.302 295.0 166.75 C
294.586 166.198 294.698 165.414 295.25 165.0 C
295.25 165.0 L
303.25 159.0 L
303.802 158.586 304.586 158.698 305.0 159.25 C
305.414 159.802 305.302 160.586 304.75 161.0 C
P
288.75 173.0 M
288.75 173.0 L
280.75 179.0 L
280.198 179.414 279.414 179.302 279.0 178.75 C
278.586 178.198 278.698 177.414 279.25 177.0 C
279.25 177.0 L
287.25 171.0 L
287.802 170.586 288.586 170.698 289.0 171.25 C
289.414 171.802 289.302 172.586 288.75 173.0 C
P
272.75 185.0 M
272.75 185.0 L
264.75 191.0 L
264.198 191.414 263.414 191.302 263.0 190.75 C
262.586 190.198 262.698 189.414 263.25 189.0 C
263.25 189.0 L
271.25 183.0 L
271.802 182.586 272.586 182.698 273.0 183.25 C
273.414 183.802 273.302 184.586 272.75 185.0 C
P
256.75 197.0 M
256.75 197.0 L
248.75 203.0 L
248.198 203.414 247.414 203.302 247.0 202.75 C
246.586 202.198 246.698 201.414 247.25 201.0 C
247.25 201.0 L
255.25 195.0 L
255.802 194.586 256.586 194.698 257.0 195.25 C
257.414 195.802 257.302 196.586 256.75 197.0 C
P
368.75 113.0 M
368.75 113.0 L
360.75 119.0 L
360.198 119.414 359.414 119.302 359.0 118.75 C
358.586 118.198 358.698 117.414 359.25 117.0 C
359.25 117.0 L
367.25 111.0 L
367.802 110.586 368.586 110.698 369.0 111.25 C
369.414 111.802 369.302 112.586 368.75 113.0 C
P
G
WC
WF
R N
N
351.25 293.0 M
351.25 293.0 L
343.25 287.0 L
342.698 286.586 342.586 285.802 343.0 285.25 C
343.414 284.698 344.198 284.586 344.75 285.0 C
344.75 285.0 L
352.75 291.0 L
353.302 291.414 353.414 292.198 353.0 292.75 C
352.586 293.302 351.802 293.414 351.25 293.0 C
P
335.25 281.0 M
335.25 281.0 L
327.25 275.0 L
326.698 274.586 326.586 273.802 327.0 273.25 C
327.414 272.698 328.198 272.586 328.75 273.0 C
328.75 273.0 L
336.75 279.0 L
337.302 279.414 337.414 280.198 337.0 280.75 C
336.586 281.302 335.802 281.414 335.25 281.0 C
P
319.25 269.0 M
319.25 269.0 L
311.25 263.0 L
310.698 262.586 310.586 261.802 311.0 261.25 C
311.414 260.698 312.198 260.586 312.75 261.0 C
312.75 261.0 L
320.75 267.0 L
321.302 267.414 321.414 268.198 321.0 268.75 C
320.586 269.302 319.802 269.414 319.25 269.0 C
P
303.25 257.0 M
303.25 257.0 L
295.25 251.0 L
294.698 250.586 294.586 249.802 295.0 249.25 C
295.414 248.698 296.198 248.586 296.75 249.0 C
296.75 249.0 L
304.75 255.0 L
305.302 255.414 305.414 256.198 305.0 256.75 C
304.586 257.302 303.802 257.414 303.25 257.0 C
P
287.25 245.0 M
287.25 245.0 L
279.25 239.0 L
278.698 238.586 278.586 237.802 279.0 237.25 C
279.414 236.698 280.198 236.586 280.75 237.0 C
280.75 237.0 L
288.75 243.0 L
289.302 243.414 289.414 244.198 289.0 244.75 C
288.586 245.302 287.802 245.414 287.25 245.0 C
P
271.25 233.0 M
271.25 233.0 L
263.25 227.0 L
262.698 226.586 262.586 225.802 263.0 225.25 C
263.414 224.698 264.198 224.586 264.75 225.0 C
264.75 225.0 L
272.75 231.0 L
273.302 231.414 273.414 232.198 273.0 232.75 C
272.586 233.302 271.802 233.414 271.25 233.0 C
P
255.25 221.0 M
255.25 221.0 L
247.25 215.0 L
246.698 214.586 246.586 213.802 247.0 213.25 C
247.414 212.698 248.198 212.586 248.75 213.0 C
248.75 213.0 L
256.75 219.0 L
257.302 219.414 257.414 220.198 257.0 220.75 C
256.586 221.302 255.802 221.414 255.25 221.0 C
P
367.25 305.0 M
367.25 305.0 L
359.25 299.0 L
358.698 298.586 358.586 297.802 359.0 297.25 C
359.414 296.698 360.198 296.586 360.75 297.0 C
360.75 297.0 L
368.75 303.0 L
369.302 303.414 369.414 304.198 369.0 304.75 C
368.586 305.302 367.802 305.414 367.25 305.0 C
P
G
WC
WF
R N
N
366.75 284.0 M
366.75 284.0 L
366.75 274.0 L
366.75 273.31 367.31 272.75 368.0 272.75 C
368.69 272.75 369.25 273.31 369.25 274.0 C
369.25 274.0 L
369.25 284.0 L
369.25 284.69 368.69 285.25 368.0 285.25 C
367.31 285.25 366.75 284.69 366.75 284.0 C
P
366.75 264.0 M
366.75 264.0 L
366.75 254.0 L
366.75 253.31 367.31 252.75 368.0 252.75 C
368.69 252.75 369.25 253.31 369.25 254.0 C
369.25 254.0 L
369.25 264.0 L
369.25 264.69 368.69 265.25 368.0 265.25 C
367.31 265.25 366.75 264.69 366.75 264.0 C
P
366.75 244.0 M
366.75 244.0 L
366.75 234.0 L
366.75 233.31 367.31 232.75 368.0 232.75 C
368.69 232.75 369.25 233.31 369.25 234.0 C
369.25 234.0 L
369.25 244.0 L
369.25 244.69 368.69 245.25 368.0 245.25 C
367.31 245.25 366.75 244.69 366.75 244.0 C
P
366.75 224.0 M
366.75 224.0 L
366.75 214.0 L
366.75 213.31 367.31 212.75 368.0 212.75 C
368.69 212.75 369.25 213.31 369.25 214.0 C
369.25 214.0 L
369.25 224.0 L
369.25 224.69 368.69 225.25 368.0 225.25 C
367.31 225.25 366.75 224.69 366.75 224.0 C
P
366.75 204.0 M
366.75 204.0 L
366.75 194.0 L
366.75 193.31 367.31 192.75 368.0 192.75 C
368.69 192.75 369.25 193.31 369.25 194.0 C
369.25 194.0 L
369.25 204.0 L
369.25 204.69 368.69 205.25 368.0 205.25 C
367.31 205.25 366.75 204.69 366.75 204.0 C
P
366.75 184.0 M
366.75 184.0 L
366.75 174.0 L
366.75 173.31 367.31 172.75 368.0 172.75 C
368.69 172.75 369.25 173.31 369.25 174.0 C
369.25 174.0 L
369.25 184.0 L
369.25 184.69 368.69 185.25 368.0 185.25 C
367.31 185.25 366.75 184.69 366.75 184.0 C
P
366.75 164.0 M
366.75 164.0 L
366.75 154.0 L
366.75 153.31 367.31 152.75 368.0 152.75 C
368.69 152.75 369.25 153.31 369.25 154.0 C
369.25 154.0 L
369.25 164.0 L
369.25 164.69 368.69 165.25 368.0 165.25 C
367.31 165.25 366.75 164.69 366.75 164.0 C
P
366.75 144.0 M
366.75 144.0 L
366.75 134.0 L
366.75 133.31 367.31 132.75 368.0 132.75 C
368.69 132.75 369.25 133.31 369.25 134.0 C
369.25 134.0 L
369.25 144.0 L
369.25 144.69 368.69 145.25 368.0 145.25 C
367.31 145.25 366.75 144.69 366.75 144.0 C
P
366.75 124.0 M
366.75 124.0 L
366.75 114.0 L
366.75 113.31 367.31 112.75 368.0 112.75 C
368.69 112.75 369.25 113.31 369.25 114.0 C
369.25 114.0 L
369.25 124.0 L
369.25 124.69 368.69 125.25 368.0 125.25 C
367.31 125.25 366.75 124.69 366.75 124.0 C
P
366.75 304.0 M
366.75 304.0 L
366.75 294.0 L
366.75 293.31 367.31 292.75 368.0 292.75 C
368.69 292.75 369.25 293.31 369.25 294.0 C
369.25 294.0 L
369.25 304.0 L
369.25 304.69 368.69 305.25 368.0 305.25 C
367.31 305.25 366.75 304.69 366.75 304.0 C
P
G
WC
WF
R N
0.88235295 SG
N
280.0 208.0 M
280.0 225.673 262.091 240.0 240.0 240.0 C
217.909 240.0 200.0 225.673 200.0 208.0 C
200.0 190.327 217.909 176.0 240.0 176.0 C
262.091 176.0 280.0 190.327 280.0 208.0 C
P
G
WC
WF
R N
0.0 SG
N
280.05 208.0 M
280.05 208.0 L
280.05 225.711 262.108 240.05 240.0 240.05 C
240.0 240.0 L
240.0 240.05 L
217.892 240.05 199.95 225.711 199.95 208.0 C
200.0 208.0 L
199.95 208.0 L
199.95 190.289 217.892 175.95 240.0 175.95 C
240.0 176.0 L
240.0 175.95 L
262.108 175.95 280.05 190.289 280.05 208.0 C
280.0 208.0 L
280.05 208.0 L
279.95 208.0 M
279.95 208.0 L
279.95 190.364 262.075 176.05 240.0 176.05 C
240.0 176.05 L
217.925 176.05 200.05 190.364 200.05 208.0 C
200.05 208.0 L
200.05 225.636 217.925 239.95 240.0 239.95 C
240.0 239.95 L
262.075 239.95 279.95 225.636 279.95 208.0 C
P
G
WC
WF
R N
pgSave restore
showpage
%%EOF
