%!PS-Adobe-3.0 EPSF-3.0
%%BoundingBox: 133 365 491 660
%%Creator: hjf with JaxoDraw-2.1-0
%%Title: 
%%CreationDate: 13/9/2013
%%BeginProlog
/imStr 0 def /imageSrc {currentfile /ASCII85Decode filter /RunLengthDecode filter  imStr readstring pop } def
/BD {bind def} bind def
/D {def} BD
/C {curveto} BD
/L {lineto} BD
/M {moveto} BD
/R {grestore} BD
/G {gsave} BD
/N {newpath} BD
/P {closepath} BD
/EC {eoclip} BD
/WC {clip} BD
/EF {eofill} BD
/WF {fill} BD
/SG {setgray} BD
/SC {setrgbcolor} BD
/ISOF {
     dup findfont dup length 1 add dict begin {
             1 index /FID eq {pop pop} {D} ifelse
     } forall /Encoding ISOLatin1Encoding D
     currentdict end definefont
} BD
/NZ {dup 1 lt {pop 1} if} BD
/S {
     moveto 1 index stringwidth pop NZ sub
     1 index length 1 sub NZ div 0
     3 2 roll ashow newpath} BD
/FL [
    /AvantGarde-Book ISOF
    /AvantGarde-BookOblique ISOF
    /AvantGarde-Demi ISOF
    /AvantGarde-DemiOblique ISOF
    /Bookman-Demi ISOF
    /Bookman-DemiItalic ISOF
    /Bookman-Light ISOF
    /Bookman-LightItalic ISOF
    /Courier ISOF
    /Courier-Bold ISOF
    /Courier-BoldOblique ISOF
    /Courier-Oblique ISOF
    /Helvetica ISOF
    /Helvetica-Bold ISOF
    /Helvetica-BoldOblique ISOF
    /Helvetica-Narrow ISOF
    /Helvetica-Narrow-Bold ISOF
    /Helvetica-Narrow-BoldOblique ISOF
    /Helvetica-Narrow-Oblique ISOF
    /Helvetica-Oblique ISOF
    /NewCenturySchlbk-Bold ISOF
    /NewCenturySchlbk-BoldItalic ISOF
    /NewCenturySchlbk-Italic ISOF
    /NewCenturySchlbk-Roman ISOF
    /Palatino-Bold ISOF
    /Palatino-BoldItalic ISOF
    /Palatino-Italic ISOF
    /Palatino-Roman ISOF
    /Symbol findfont
    /Times-Bold ISOF
    /Times-BoldItalic ISOF
    /Times-Italic ISOF
    /Times-Roman ISOF
    /ZapfDingbats findfont
    /ZapfChancery-MediumItalic ISOF
] D
/F {
     FL exch get exch scalefont
     [1 0 0 -1 0 0] makefont setfont} BD
%%EndProlog
%%BeginSetup
<< /PageSize [612.0 792.0] /DeferredMediaSelection true /ImagingBBox null /ManualFeed false /NumCopies 1 >> pop 
%%EndSetup
%%Page: 1 1
/pgSave save def
792.0 0 exch translate 1 -1 scale[72 300 div 0 0 72 300 div 0 0]concat
G
[4.1666665 0.0 0.0 4.1666665 300.0 300.0] concat
N
0.0 0.0 M
468.0 0.0 L
468.0 648.0 L
0.0 648.0 L
0.0 0.0 L
P
WC
N
63.834 63.528 M
63.834 63.528 L
69.578 61.511 73.282 60.625 74.191 63.212 C
74.191 63.212 L
74.772 64.868 73.994 67.832 72.472 72.166 C
72.472 72.166 L
72.472 72.166 L
70.232 78.544 70.137 80.753 71.544 81.247 C
71.544 81.247 L
72.791 81.685 75.358 81.1 79.834 79.528 C
79.834 79.528 L
79.834 79.528 L
85.578 77.511 89.282 76.626 90.191 79.212 C
90.191 79.212 L
90.772 80.868 89.994 83.832 88.472 88.166 C
88.0 88.0 L
88.472 88.166 L
86.232 94.544 86.137 96.753 87.544 97.247 C
87.544 97.247 L
88.791 97.685 91.358 97.1 95.834 95.528 C
96.0 96.0 L
95.834 95.528 L
101.578 93.511 105.282 92.625 106.191 95.212 C
106.191 95.212 L
106.772 96.868 105.994 99.832 104.472 104.166 C
104.0 104.0 L
104.472 104.166 L
102.232 110.544 102.137 112.753 103.544 113.247 C
103.544 113.247 L
104.791 113.685 107.358 113.1 111.834 111.528 C
112.306 111.363 L
112.637 112.306 L
112.166 112.472 L
107.832 113.994 104.868 114.772 103.212 114.191 C
103.212 114.191 L
100.625 113.282 101.511 109.578 103.528 103.834 C
103.528 103.834 L
105.1 99.358 105.685 96.791 105.247 95.544 C
105.247 95.544 L
104.753 94.137 102.544 94.232 96.166 96.472 C
96.166 96.472 L
91.832 97.994 88.868 98.772 87.212 98.191 C
87.212 98.191 L
84.625 97.282 85.511 93.578 87.528 87.834 C
87.528 87.834 L
89.1 83.358 89.685 80.791 89.247 79.544 C
89.247 79.544 L
88.753 78.137 86.544 78.232 80.166 80.472 C
80.0 80.0 L
80.166 80.472 L
75.832 81.994 72.868 82.772 71.212 82.191 C
71.212 82.191 L
68.625 81.282 69.511 77.578 71.528 71.834 C
72.0 72.0 L
71.528 71.834 L
73.1 67.358 73.685 64.791 73.247 63.544 C
73.247 63.544 L
72.753 62.137 70.544 62.232 64.166 64.472 C
63.694 64.637 L
63.363 63.694 L
P
G
WC
WF
R N
N
112.472 303.834 M
112.472 303.834 L
114.489 309.578 115.375 313.282 112.788 314.191 C
112.788 314.191 L
111.132 314.772 108.169 313.994 103.834 312.472 C
104.0 312.0 L
103.834 312.472 L
97.456 310.232 95.247 310.137 94.753 311.544 C
94.753 311.544 L
94.315 312.791 94.9 315.358 96.472 319.834 C
96.472 319.834 L
96.472 319.834 L
98.489 325.578 99.374 329.282 96.788 330.191 C
96.788 330.191 L
95.132 330.772 92.169 329.994 87.834 328.472 C
88.0 328.0 L
87.834 328.472 L
81.456 326.232 79.247 326.137 78.753 327.544 C
78.753 327.544 L
78.315 328.791 78.9 331.358 80.472 335.834 C
80.0 336.0 L
80.472 335.834 L
82.489 341.578 83.375 345.282 80.788 346.191 C
80.788 346.191 L
79.132 346.772 76.169 345.994 71.834 344.472 C
72.0 344.0 L
71.834 344.472 L
65.456 342.232 63.247 342.136 62.753 343.544 C
62.753 343.544 L
62.315 344.791 62.9 347.358 64.472 351.834 C
64.637 352.306 L
63.694 352.637 L
63.528 352.166 L
62.006 347.832 61.228 344.868 61.809 343.212 C
61.809 343.212 L
62.718 340.625 66.422 341.511 72.166 343.528 C
72.051 343.488 L
72.166 343.528 L
76.642 345.1 79.209 345.686 80.456 345.247 C
80.456 345.247 L
81.863 344.753 81.768 342.544 79.528 336.166 C
79.528 336.166 L
78.006 331.832 77.228 328.868 77.809 327.212 C
77.809 327.212 L
78.718 324.625 82.422 325.511 88.166 327.528 C
88.166 327.528 L
92.642 329.1 95.209 329.685 96.456 329.247 C
96.456 329.247 L
97.863 328.753 97.768 326.544 95.528 320.166 C
96.0 320.0 L
95.528 320.166 L
94.006 315.832 93.228 312.868 93.809 311.212 C
93.809 311.212 L
94.718 308.625 98.422 309.511 104.166 311.528 C
104.166 311.528 L
108.642 313.1 111.209 313.685 112.456 313.247 C
112.456 313.247 L
113.863 312.753 113.768 310.544 111.528 304.166 C
111.363 303.694 L
112.306 303.363 L
P
G
WC
WF
R N
N
367.834 303.528 M
367.834 303.528 L
373.578 301.511 377.282 300.626 378.191 303.212 C
378.191 303.212 L
378.772 304.868 377.994 307.831 376.472 312.166 C
376.0 312.0 L
376.472 312.166 L
374.232 318.544 374.136 320.753 375.544 321.247 C
375.544 321.247 L
376.791 321.685 379.358 321.1 383.834 319.528 C
384.0 320.0 L
383.834 319.528 L
389.578 317.511 393.282 316.626 394.191 319.212 C
394.191 319.212 L
394.772 320.868 393.994 323.831 392.472 328.166 C
392.0 328.0 L
392.472 328.166 L
390.232 334.544 390.136 336.753 391.544 337.247 C
391.544 337.247 L
392.791 337.685 395.358 337.1 399.834 335.528 C
399.708 335.573 L
399.834 335.528 L
405.578 333.511 409.282 332.626 410.191 335.212 C
410.191 335.212 L
410.772 336.868 409.994 339.831 408.472 344.166 C
408.0 344.0 L
408.472 344.166 L
406.232 350.544 406.136 352.753 407.544 353.247 C
407.544 353.247 L
408.791 353.685 411.358 353.1 415.834 351.528 C
416.306 351.363 L
416.637 352.306 L
416.166 352.472 L
411.832 353.994 408.868 354.772 407.212 354.191 C
407.212 354.191 L
404.625 353.282 405.511 349.578 407.528 343.834 C
407.573 343.708 L
407.528 343.834 L
409.1 339.358 409.685 336.791 409.247 335.544 C
409.247 335.544 L
408.753 334.137 406.544 334.232 400.166 336.472 C
400.0 336.0 L
400.166 336.472 L
395.832 337.994 392.868 338.772 391.212 338.191 C
391.212 338.191 L
388.625 337.282 389.511 333.578 391.528 327.834 C
391.528 327.834 L
393.1 323.358 393.685 320.791 393.247 319.544 C
393.247 319.544 L
392.753 318.137 390.544 318.232 384.166 320.472 C
384.166 320.472 L
379.832 321.994 376.868 322.772 375.212 322.191 C
375.212 322.191 L
372.625 321.282 373.511 317.578 375.528 311.834 C
375.528 311.834 L
377.1 307.358 377.685 304.791 377.247 303.544 C
377.247 303.544 L
376.753 302.137 374.544 302.232 368.166 304.472 C
367.694 304.637 L
367.363 303.694 L
P
G
WC
WF
R N
N
367.528 112.166 M
367.528 112.166 L
365.511 106.422 364.626 102.718 367.212 101.809 C
367.212 101.809 L
368.868 101.228 371.832 102.006 376.166 103.528 C
376.0 104.0 L
376.166 103.528 L
382.544 105.768 384.753 105.864 385.247 104.456 C
385.247 104.456 L
385.685 103.209 385.1 100.642 383.528 96.166 C
383.003 94.67 L
383.528 96.166 L
381.511 90.422 380.626 86.718 383.212 85.809 C
383.212 85.809 L
384.868 85.228 387.832 86.006 392.166 87.528 C
392.0 88.0 L
392.166 87.528 L
398.544 89.768 400.753 89.864 401.247 88.456 C
401.247 88.456 L
401.685 87.209 401.1 84.642 399.528 80.166 C
399.573 80.292 L
399.528 80.166 L
397.511 74.422 396.626 70.718 399.212 69.809 C
399.212 69.809 L
400.868 69.228 403.832 70.006 408.166 71.528 C
408.0 72.0 L
408.166 71.528 L
414.544 73.768 416.753 73.864 417.247 72.456 C
417.247 72.456 L
417.685 71.209 417.1 68.642 415.528 64.166 C
415.363 63.694 L
416.306 63.363 L
416.472 63.834 L
417.994 68.168 418.772 71.132 418.191 72.788 C
418.191 72.788 L
417.282 75.375 413.578 74.489 407.834 72.472 C
407.834 72.472 L
403.358 70.9 400.791 70.315 399.544 70.753 C
399.544 70.753 L
398.137 71.247 398.232 73.456 400.472 79.834 C
400.0 80.0 L
400.472 79.834 L
401.994 84.168 402.772 87.132 402.191 88.788 C
402.191 88.788 L
401.282 91.375 397.578 90.489 391.834 88.472 C
391.834 88.472 L
387.358 86.9 384.791 86.315 383.544 86.753 C
383.544 86.753 L
382.137 87.247 382.232 89.456 384.472 95.834 C
384.0 96.0 L
384.472 95.834 L
385.994 100.168 386.772 103.132 386.191 104.788 C
386.191 104.788 L
385.282 107.375 381.578 106.489 375.834 104.472 C
375.834 104.472 L
371.358 102.9 368.791 102.315 367.544 102.753 C
367.544 102.753 L
366.137 103.247 366.232 105.456 368.472 111.834 C
368.637 112.306 L
367.694 112.637 L
P
G
WC
WF
R N
N
112.189 111.537 M
112.189 111.537 L
117.396 113.659 120.738 115.322 119.867 117.459 C
119.867 117.459 L
119.265 118.937 116.513 120.301 112.189 122.063 C
112.0 121.6 L
112.189 122.063 L
106.264 124.477 104.669 125.724 105.059 126.682 C
105.059 126.682 L
105.461 127.669 107.646 128.886 112.189 130.737 C
112.189 130.737 L
112.189 130.737 L
117.396 132.859 120.738 134.522 119.867 136.659 C
119.867 136.659 L
119.265 138.137 116.513 139.501 112.189 141.263 C
112.189 141.263 L
112.189 141.263 L
106.264 143.677 104.669 144.924 105.059 145.882 C
105.059 145.882 L
105.461 146.869 107.646 148.086 112.189 149.937 C
112.189 149.937 L
112.189 149.937 L
117.396 152.059 120.738 153.722 119.867 155.859 C
119.867 155.859 L
119.265 157.337 116.513 158.701 112.189 160.463 C
112.0 160.0 L
112.189 160.463 L
106.264 162.877 104.669 164.124 105.059 165.082 C
105.059 165.082 L
105.461 166.069 107.646 167.286 112.189 169.137 C
112.0 169.6 L
112.189 169.137 L
117.396 171.259 120.738 172.922 119.867 175.059 C
119.867 175.059 L
119.265 176.537 116.513 177.901 112.189 179.663 C
112.189 179.663 L
112.189 179.663 L
106.264 182.077 104.669 183.324 105.059 184.282 C
105.059 184.282 L
105.461 185.269 107.646 186.486 112.189 188.337 C
112.0 188.8 L
112.189 188.337 L
117.396 190.459 120.738 192.122 119.867 194.259 C
119.867 194.259 L
119.265 195.737 116.513 197.101 112.189 198.863 C
112.0 198.4 L
112.189 198.863 L
106.264 201.277 104.669 202.524 105.059 203.482 C
105.059 203.482 L
105.461 204.469 107.646 205.686 112.189 207.537 C
112.0 208.0 L
112.189 207.537 L
117.396 209.659 120.738 211.322 119.867 213.459 C
119.867 213.459 L
119.265 214.937 116.513 216.301 112.189 218.063 C
112.0 217.6 L
112.189 218.063 L
106.264 220.477 104.669 221.724 105.059 222.682 C
105.059 222.682 L
105.461 223.669 107.646 224.886 112.189 226.737 C
112.0 227.2 L
112.189 226.737 L
117.396 228.859 120.738 230.522 119.867 232.659 C
119.867 232.659 L
119.265 234.137 116.513 235.501 112.189 237.263 C
112.0 236.8 L
112.189 237.263 L
106.264 239.677 104.669 240.924 105.059 241.882 C
105.059 241.882 L
105.461 242.869 107.646 244.086 112.189 245.937 C
112.0 246.4 L
112.189 245.937 L
117.396 248.059 120.738 249.722 119.867 251.859 C
119.867 251.859 L
119.265 253.337 116.513 254.701 112.189 256.463 C
112.0 256.0 L
112.189 256.463 L
106.264 258.877 104.669 260.124 105.059 261.082 C
105.059 261.082 L
105.461 262.069 107.646 263.286 112.189 265.137 C
112.0 265.6 L
112.189 265.137 L
117.396 267.259 120.738 268.922 119.867 271.059 C
119.867 271.059 L
119.265 272.537 116.513 273.901 112.189 275.663 C
112.0 275.2 L
112.189 275.663 L
106.264 278.077 104.669 279.324 105.059 280.282 C
105.059 280.282 L
105.461 281.269 107.646 282.486 112.189 284.337 C
112.0 284.8 L
112.189 284.337 L
117.396 286.459 120.738 288.122 119.867 290.259 C
119.867 290.259 L
119.265 291.737 116.513 293.101 112.189 294.863 C
112.189 294.863 L
112.189 294.863 L
106.264 297.277 104.669 298.524 105.059 299.482 C
105.059 299.482 L
105.461 300.469 107.646 301.686 112.189 303.537 C
112.652 303.726 L
112.274 304.652 L
111.811 304.463 L
107.487 302.701 104.735 301.337 104.133 299.859 C
104.133 299.859 L
103.262 297.722 106.604 296.059 111.811 293.937 C
112.0 294.4 L
111.811 293.937 L
116.354 292.086 118.539 290.869 118.941 289.882 C
118.941 289.882 L
119.331 288.924 117.736 287.677 111.811 285.263 C
111.811 285.263 L
107.487 283.501 104.735 282.137 104.133 280.659 C
104.133 280.659 L
103.262 278.522 106.604 276.859 111.811 274.737 C
111.811 274.737 L
116.354 272.886 118.539 271.669 118.941 270.682 C
118.941 270.682 L
119.331 269.725 117.736 268.477 111.811 266.063 C
111.811 266.063 L
107.487 264.301 104.735 262.937 104.133 261.459 C
104.133 261.459 L
103.262 259.322 106.604 257.659 111.811 255.537 C
111.811 255.537 L
111.811 255.537 L
116.354 253.686 118.539 252.469 118.941 251.482 C
118.941 251.482 L
119.331 250.524 117.736 249.277 111.811 246.863 C
111.811 246.863 L
107.487 245.101 104.735 243.737 104.133 242.259 C
104.133 242.259 L
103.262 240.122 106.604 238.459 111.811 236.337 C
111.811 236.337 L
111.811 236.337 L
116.354 234.486 118.539 233.269 118.941 232.282 C
118.941 232.282 L
119.331 231.324 117.736 230.077 111.811 227.663 C
111.811 227.663 L
111.811 227.663 L
107.487 225.901 104.735 224.537 104.133 223.059 C
104.133 223.059 L
103.262 220.922 106.604 219.259 111.811 217.137 C
111.811 217.137 L
116.354 215.286 118.539 214.069 118.941 213.082 C
118.941 213.082 L
119.331 212.124 117.736 210.877 111.811 208.463 C
111.811 208.463 L
107.487 206.701 104.735 205.337 104.133 203.859 C
104.133 203.859 L
103.262 201.722 106.604 200.059 111.811 197.937 C
111.811 197.937 L
111.811 197.937 L
116.354 196.086 118.539 194.869 118.941 193.882 C
118.941 193.882 L
119.331 192.924 117.736 191.677 111.811 189.263 C
111.811 189.263 L
107.487 187.501 104.735 186.137 104.133 184.659 C
104.133 184.659 L
103.262 182.522 106.604 180.859 111.811 178.737 C
112.0 179.2 L
111.811 178.737 L
116.354 176.886 118.539 175.669 118.941 174.682 C
118.941 174.682 L
119.331 173.724 117.736 172.477 111.811 170.063 C
111.811 170.063 L
107.487 168.301 104.735 166.937 104.133 165.459 C
104.133 165.459 L
103.262 163.322 106.604 161.659 111.811 159.537 C
111.811 159.537 L
116.354 157.686 118.539 156.469 118.941 155.482 C
118.941 155.482 L
119.331 154.524 117.736 153.277 111.811 150.863 C
112.0 150.4 L
111.811 150.863 L
107.487 149.101 104.735 147.737 104.133 146.259 C
104.133 146.259 L
103.262 144.122 106.604 142.459 111.811 140.337 C
112.0 140.8 L
111.811 140.337 L
116.354 138.486 118.539 137.269 118.941 136.282 C
118.941 136.282 L
119.331 135.324 117.736 134.077 111.811 131.663 C
112.0 131.2 L
111.811 131.663 L
107.487 129.901 104.735 128.537 104.133 127.059 C
104.133 127.059 L
103.262 124.922 106.604 123.259 111.811 121.137 C
111.811 121.137 L
111.811 121.137 L
116.354 119.286 118.539 118.069 118.941 117.082 C
118.941 117.082 L
119.331 116.124 117.736 114.877 111.811 112.463 C
111.348 112.274 L
111.726 111.348 L
P
G
WC
WF
R N
N
111.515 304.12 M
111.515 304.12 L
110.142 298.562 109.542 294.862 111.874 294.286 C
111.874 294.286 L
113.46 293.894 116.224 295.23 120.251 297.568 C
120.0 298.0 L
120.251 297.568 L
125.851 300.818 127.856 301.319 128.425 300.339 C
128.425 300.339 L
128.992 299.363 128.682 296.848 127.515 292.12 C
128.0 292.0 L
127.515 292.12 L
126.142 286.562 125.542 282.862 127.874 282.286 C
127.874 282.286 L
129.46 281.894 132.224 283.23 136.251 285.568 C
136.0 286.0 L
136.251 285.568 L
141.851 288.818 143.856 289.319 144.425 288.339 C
144.425 288.339 L
144.992 287.363 144.682 284.848 143.515 280.12 C
144.0 280.0 L
143.515 280.12 L
142.142 274.562 141.542 270.862 143.874 270.286 C
143.874 270.286 L
145.46 269.894 148.224 271.23 152.251 273.568 C
152.0 274.0 L
152.251 273.568 L
157.851 276.818 159.856 277.319 160.425 276.339 C
160.425 276.339 L
160.992 275.363 160.682 272.848 159.515 268.12 C
160.0 268.0 L
159.515 268.12 L
158.142 262.562 157.542 258.862 159.874 258.286 C
159.874 258.286 L
161.46 257.894 164.224 259.23 168.251 261.568 C
168.0 262.0 L
168.251 261.568 L
173.851 264.818 175.856 265.319 176.425 264.339 C
176.425 264.339 L
176.992 263.363 176.682 260.848 175.515 256.12 C
176.0 256.0 L
175.515 256.12 L
174.142 250.562 173.542 246.862 175.874 246.286 C
175.874 246.286 L
177.46 245.894 180.224 247.23 184.251 249.568 C
184.0 250.0 L
184.251 249.568 L
189.851 252.818 191.856 253.319 192.425 252.339 C
192.425 252.339 L
192.992 251.363 192.682 248.848 191.515 244.12 C
191.515 244.12 L
191.515 244.12 L
190.142 238.562 189.542 234.862 191.874 234.286 C
191.874 234.286 L
193.46 233.894 196.224 235.23 200.251 237.568 C
200.0 238.0 L
200.251 237.568 L
205.851 240.818 207.856 241.319 208.425 240.339 C
208.425 240.339 L
208.992 239.363 208.682 236.848 207.515 232.12 C
207.515 232.12 L
207.515 232.12 L
206.142 226.562 205.542 222.862 207.874 222.286 C
207.874 222.286 L
209.46 221.894 212.224 223.23 216.251 225.568 C
216.0 226.0 L
216.251 225.568 L
221.851 228.818 223.856 229.319 224.425 228.339 C
224.425 228.339 L
224.992 227.363 224.682 224.848 223.515 220.12 C
224.0 220.0 L
223.515 220.12 L
222.142 214.562 221.542 210.862 223.874 210.286 C
223.874 210.286 L
225.46 209.894 228.224 211.23 232.251 213.568 C
232.0 214.0 L
232.251 213.568 L
237.851 216.818 239.856 217.319 240.425 216.339 C
240.425 216.339 L
240.992 215.363 240.682 212.848 239.515 208.12 C
239.395 207.634 L
240.366 207.395 L
240.485 207.88 L
241.602 212.401 242.11 215.428 241.29 216.841 C
241.29 216.841 L
240.084 218.919 236.7 217.306 231.749 214.432 C
231.749 214.432 L
227.537 211.987 225.209 210.986 224.114 211.257 C
224.114 211.257 L
223.013 211.529 222.933 213.594 224.485 219.88 C
224.485 219.88 L
225.602 224.401 226.11 227.428 225.29 228.841 C
225.29 228.841 L
224.084 230.919 220.7 229.306 215.749 226.432 C
215.749 226.432 L
211.537 223.987 209.209 222.986 208.114 223.257 C
208.114 223.257 L
207.013 223.529 206.933 225.594 208.485 231.88 C
208.0 232.0 L
208.485 231.88 L
209.602 236.401 210.11 239.428 209.29 240.841 C
209.29 240.841 L
208.084 242.919 204.7 241.306 199.749 238.432 C
199.749 238.432 L
199.749 238.432 L
195.537 235.987 193.209 234.986 192.114 235.257 C
192.114 235.257 L
191.013 235.529 190.933 237.594 192.485 243.88 C
192.0 244.0 L
192.485 243.88 L
193.602 248.401 194.11 251.428 193.29 252.841 C
193.29 252.841 L
192.084 254.919 188.7 253.306 183.749 250.432 C
183.749 250.432 L
183.749 250.432 L
179.537 247.987 177.209 246.986 176.114 247.257 C
176.114 247.257 L
175.013 247.529 174.933 249.594 176.485 255.88 C
176.485 255.88 L
177.602 260.401 178.11 263.428 177.29 264.841 C
177.29 264.841 L
176.084 266.919 172.7 265.306 167.749 262.432 C
167.749 262.432 L
163.537 259.987 161.209 258.986 160.114 259.257 C
160.114 259.257 L
159.013 259.529 158.933 261.594 160.485 267.88 C
160.485 267.88 L
161.602 272.401 162.11 275.428 161.29 276.841 C
161.29 276.841 L
160.084 278.919 156.7 277.306 151.749 274.432 C
151.749 274.432 L
147.537 271.987 145.209 270.986 144.114 271.257 C
144.114 271.257 L
143.013 271.529 142.933 273.594 144.485 279.88 C
144.485 279.88 L
145.602 284.401 146.11 287.428 145.29 288.841 C
145.29 288.841 L
144.084 290.919 140.7 289.306 135.749 286.432 C
135.749 286.432 L
131.537 283.987 129.209 282.986 128.114 283.257 C
128.114 283.257 L
127.013 283.529 126.933 285.594 128.485 291.88 C
128.485 291.88 L
129.602 296.401 130.11 299.428 129.29 300.841 C
129.29 300.841 L
128.084 302.919 124.7 301.306 119.749 298.432 C
119.749 298.432 L
115.537 295.987 113.209 294.986 112.114 295.257 C
112.114 295.257 L
111.013 295.529 110.933 297.594 112.485 303.88 C
112.605 304.366 L
111.634 304.605 L
P
G
WC
WF
R N
N
240.251 208.432 M
240.251 208.432 L
235.3 211.306 231.916 212.919 230.71 210.841 C
230.71 210.841 L
229.89 209.428 230.398 206.401 231.515 201.88 C
232.0 202.0 L
231.515 201.88 L
233.067 195.594 232.987 193.529 231.886 193.257 C
231.886 193.257 L
230.791 192.986 228.463 193.987 224.251 196.432 C
224.0 196.0 L
224.251 196.432 L
219.3 199.306 215.916 200.919 214.71 198.841 C
214.71 198.841 L
213.89 197.428 214.398 194.401 215.515 189.88 C
216.0 190.0 L
215.515 189.88 L
217.067 183.594 216.987 181.529 215.886 181.257 C
215.886 181.257 L
214.791 180.986 212.463 181.987 208.251 184.432 C
208.0 184.0 L
208.251 184.432 L
203.3 187.306 199.916 188.919 198.71 186.841 C
198.71 186.841 L
197.89 185.428 198.398 182.401 199.515 177.88 C
200.0 178.0 L
199.515 177.88 L
201.067 171.594 200.987 169.529 199.886 169.257 C
199.886 169.257 L
198.791 168.986 196.463 169.987 192.251 172.432 C
192.0 172.0 L
192.251 172.432 L
187.3 175.306 183.916 176.919 182.71 174.841 C
182.71 174.841 L
181.89 173.428 182.398 170.401 183.515 165.88 C
184.0 166.0 L
183.515 165.88 L
185.067 159.594 184.987 157.529 183.886 157.257 C
183.886 157.257 L
182.791 156.986 180.463 157.987 176.251 160.432 C
176.0 160.0 L
176.251 160.432 L
171.3 163.306 167.916 164.919 166.71 162.841 C
166.71 162.841 L
165.89 161.428 166.398 158.401 167.515 153.88 C
168.0 154.0 L
167.515 153.88 L
169.067 147.594 168.987 145.529 167.886 145.257 C
167.886 145.257 L
166.791 144.986 164.463 145.987 160.251 148.432 C
160.251 148.432 L
160.251 148.432 L
155.3 151.306 151.916 152.919 150.71 150.841 C
150.71 150.841 L
149.89 149.428 150.398 146.401 151.515 141.88 C
152.0 142.0 L
151.515 141.88 L
153.067 135.594 152.987 133.529 151.886 133.257 C
151.886 133.257 L
150.791 132.986 148.463 133.987 144.251 136.432 C
144.251 136.432 L
144.251 136.432 L
139.3 139.306 135.916 140.919 134.71 138.841 C
134.71 138.841 L
133.89 137.428 134.398 134.401 135.515 129.88 C
136.0 130.0 L
135.515 129.88 L
137.067 123.594 136.987 121.529 135.886 121.257 C
135.886 121.257 L
134.791 120.986 132.463 121.987 128.251 124.432 C
127.927 124.62 L
128.251 124.432 L
123.3 127.306 119.916 128.919 118.71 126.841 C
118.71 126.841 L
117.89 125.428 118.398 122.401 119.515 117.88 C
120.0 118.0 L
119.515 117.88 L
121.067 111.594 120.987 109.529 119.886 109.257 C
119.886 109.257 L
118.791 108.986 116.463 109.987 112.251 112.432 C
111.819 112.683 L
111.317 111.819 L
111.749 111.568 L
115.776 109.23 118.54 107.894 120.126 108.286 C
120.126 108.286 L
122.458 108.862 121.858 112.562 120.485 118.12 C
120.485 118.12 L
119.318 122.848 119.008 125.363 119.575 126.339 C
119.575 126.339 L
120.144 127.319 122.149 126.818 127.749 123.568 C
128.0 124.0 L
127.749 123.568 L
131.776 121.23 134.54 119.894 136.126 120.286 C
136.126 120.286 L
138.458 120.862 137.858 124.562 136.485 130.12 C
136.485 130.12 L
135.318 134.848 135.008 137.363 135.575 138.339 C
135.575 138.339 L
136.144 139.319 138.149 138.818 143.749 135.568 C
144.0 136.0 L
143.749 135.568 L
147.776 133.23 150.54 131.894 152.126 132.286 C
152.126 132.286 L
154.458 132.862 153.858 136.562 152.485 142.12 C
152.485 142.12 L
152.485 142.12 L
151.318 146.848 151.009 149.363 151.575 150.339 C
151.575 150.339 L
152.144 151.319 154.149 150.818 159.749 147.568 C
160.0 148.0 L
159.749 147.568 L
163.776 145.23 166.54 143.894 168.126 144.286 C
168.126 144.286 L
170.458 144.862 169.858 148.562 168.485 154.12 C
168.485 154.12 L
168.485 154.12 L
167.318 158.848 167.009 161.363 167.575 162.339 C
167.575 162.339 L
168.144 163.319 170.149 162.818 175.749 159.568 C
175.749 159.568 L
179.776 157.23 182.54 155.894 184.126 156.286 C
184.126 156.286 L
186.458 156.862 185.858 160.562 184.485 166.12 C
184.485 166.12 L
183.318 170.848 183.009 173.363 183.575 174.339 C
183.575 174.339 L
184.144 175.319 186.149 174.818 191.749 171.568 C
191.749 171.568 L
195.776 169.23 198.54 167.894 200.126 168.286 C
200.126 168.286 L
202.458 168.862 201.858 172.562 200.485 178.12 C
200.485 178.12 L
199.318 182.848 199.009 185.363 199.575 186.339 C
199.575 186.339 L
200.144 187.319 202.149 186.818 207.749 183.568 C
207.749 183.568 L
211.776 181.23 214.54 179.894 216.126 180.286 C
216.126 180.286 L
218.458 180.862 217.858 184.562 216.485 190.12 C
216.485 190.12 L
215.318 194.848 215.009 197.363 215.575 198.339 C
215.575 198.339 L
216.144 199.319 218.149 198.818 223.749 195.568 C
223.749 195.568 L
227.776 193.23 230.54 191.894 232.126 192.286 C
232.126 192.286 L
234.458 192.862 233.858 196.562 232.485 202.12 C
232.485 202.12 L
231.318 206.848 231.009 209.363 231.575 210.339 C
231.575 210.339 L
232.144 211.319 234.149 210.818 239.749 207.568 C
240.181 207.317 L
240.683 208.181 L
P
G
WC
WF
R N
N
255.7 195.6 M
255.7 195.6 L
263.7 189.6 L
263.921 189.434 264.234 189.479 264.4 189.7 C
264.566 189.921 264.521 190.234 264.3 190.4 C
264.3 190.4 L
256.3 196.4 L
256.079 196.566 255.766 196.521 255.6 196.3 C
255.434 196.079 255.479 195.766 255.7 195.6 C
P
271.7 183.6 M
271.7 183.6 L
279.7 177.6 L
279.921 177.434 280.234 177.479 280.4 177.7 C
280.566 177.921 280.521 178.234 280.3 178.4 C
280.3 178.4 L
272.3 184.4 L
272.079 184.566 271.766 184.521 271.6 184.3 C
271.434 184.079 271.479 183.766 271.7 183.6 C
P
287.7 171.6 M
287.7 171.6 L
295.7 165.6 L
295.921 165.434 296.234 165.479 296.4 165.7 C
296.566 165.921 296.521 166.234 296.3 166.4 C
296.3 166.4 L
288.3 172.4 L
288.079 172.566 287.766 172.521 287.6 172.3 C
287.434 172.079 287.479 171.766 287.7 171.6 C
P
303.7 159.6 M
303.7 159.6 L
311.7 153.6 L
311.921 153.434 312.234 153.479 312.4 153.7 C
312.566 153.921 312.521 154.234 312.3 154.4 C
312.3 154.4 L
304.3 160.4 L
304.079 160.566 303.766 160.521 303.6 160.3 C
303.434 160.079 303.479 159.766 303.7 159.6 C
P
319.7 147.6 M
319.7 147.6 L
327.7 141.6 L
327.921 141.434 328.234 141.479 328.4 141.7 C
328.566 141.921 328.521 142.234 328.3 142.4 C
328.3 142.4 L
320.3 148.4 L
320.079 148.566 319.766 148.521 319.6 148.3 C
319.434 148.079 319.479 147.766 319.7 147.6 C
P
335.7 135.6 M
335.7 135.6 L
343.7 129.6 L
343.921 129.434 344.234 129.479 344.4 129.7 C
344.566 129.921 344.521 130.234 344.3 130.4 C
344.3 130.4 L
336.3 136.4 L
336.079 136.566 335.766 136.521 335.6 136.3 C
335.434 136.079 335.479 135.766 335.7 135.6 C
P
351.7 123.6 M
351.7 123.6 L
359.7 117.6 L
359.921 117.434 360.234 117.479 360.4 117.7 C
360.566 117.921 360.521 118.234 360.3 118.4 C
360.3 118.4 L
352.3 124.4 L
352.079 124.566 351.766 124.521 351.6 124.3 C
351.434 124.079 351.479 123.766 351.7 123.6 C
P
239.7 207.6 M
239.7 207.6 L
247.7 201.6 L
247.921 201.434 248.234 201.479 248.4 201.7 C
248.566 201.921 248.521 202.234 248.3 202.4 C
248.3 202.4 L
240.3 208.4 L
240.079 208.566 239.766 208.521 239.6 208.3 C
239.434 208.079 239.479 207.766 239.7 207.6 C
P
G
WC
WF
R N
N
368.5 132.0 M
368.5 132.0 L
368.5 142.0 L
368.5 142.276 368.276 142.5 368.0 142.5 C
367.724 142.5 367.5 142.276 367.5 142.0 C
367.5 142.0 L
367.5 132.0 L
367.5 131.724 367.724 131.5 368.0 131.5 C
368.276 131.5 368.5 131.724 368.5 132.0 C
P
368.5 152.0 M
368.5 152.0 L
368.5 162.0 L
368.5 162.276 368.276 162.5 368.0 162.5 C
367.724 162.5 367.5 162.276 367.5 162.0 C
367.5 162.0 L
367.5 152.0 L
367.5 151.724 367.724 151.5 368.0 151.5 C
368.276 151.5 368.5 151.724 368.5 152.0 C
P
368.5 172.0 M
368.5 172.0 L
368.5 182.0 L
368.5 182.276 368.276 182.5 368.0 182.5 C
367.724 182.5 367.5 182.276 367.5 182.0 C
367.5 182.0 L
367.5 172.0 L
367.5 171.724 367.724 171.5 368.0 171.5 C
368.276 171.5 368.5 171.724 368.5 172.0 C
P
368.5 192.0 M
368.5 192.0 L
368.5 202.0 L
368.5 202.276 368.276 202.5 368.0 202.5 C
367.724 202.5 367.5 202.276 367.5 202.0 C
367.5 202.0 L
367.5 192.0 L
367.5 191.724 367.724 191.5 368.0 191.5 C
368.276 191.5 368.5 191.724 368.5 192.0 C
P
368.5 212.0 M
368.5 212.0 L
368.5 222.0 L
368.5 222.276 368.276 222.5 368.0 222.5 C
367.724 222.5 367.5 222.276 367.5 222.0 C
367.5 222.0 L
367.5 212.0 L
367.5 211.724 367.724 211.5 368.0 211.5 C
368.276 211.5 368.5 211.724 368.5 212.0 C
P
368.5 232.0 M
368.5 232.0 L
368.5 242.0 L
368.5 242.276 368.276 242.5 368.0 242.5 C
367.724 242.5 367.5 242.276 367.5 242.0 C
367.5 242.0 L
367.5 232.0 L
367.5 231.724 367.724 231.5 368.0 231.5 C
368.276 231.5 368.5 231.724 368.5 232.0 C
P
368.5 252.0 M
368.5 252.0 L
368.5 262.0 L
368.5 262.276 368.276 262.5 368.0 262.5 C
367.724 262.5 367.5 262.276 367.5 262.0 C
367.5 262.0 L
367.5 252.0 L
367.5 251.724 367.724 251.5 368.0 251.5 C
368.276 251.5 368.5 251.724 368.5 252.0 C
P
368.5 272.0 M
368.5 272.0 L
368.5 282.0 L
368.5 282.276 368.276 282.5 368.0 282.5 C
367.724 282.5 367.5 282.276 367.5 282.0 C
367.5 282.0 L
367.5 272.0 L
367.5 271.724 367.724 271.5 368.0 271.5 C
368.276 271.5 368.5 271.724 368.5 272.0 C
P
368.5 292.0 M
368.5 292.0 L
368.5 302.0 L
368.5 302.276 368.276 302.5 368.0 302.5 C
367.724 302.5 367.5 302.276 367.5 302.0 C
367.5 302.0 L
367.5 292.0 L
367.5 291.724 367.724 291.5 368.0 291.5 C
368.276 291.5 368.5 291.724 368.5 292.0 C
P
368.5 112.0 M
368.5 112.0 L
368.5 122.0 L
368.5 122.276 368.276 122.5 368.0 122.5 C
367.724 122.5 367.5 122.276 367.5 122.0 C
367.5 122.0 L
367.5 112.0 L
367.5 111.724 367.724 111.5 368.0 111.5 C
368.276 111.5 368.5 111.724 368.5 112.0 C
P
G
WC
WF
R N
N
351.7 292.4 M
351.7 292.4 L
343.7 286.4 L
343.479 286.234 343.434 285.921 343.6 285.7 C
343.766 285.479 344.079 285.434 344.3 285.6 C
344.3 285.6 L
352.3 291.6 L
352.521 291.766 352.566 292.079 352.4 292.3 C
352.234 292.521 351.921 292.566 351.7 292.4 C
P
335.7 280.4 M
335.7 280.4 L
327.7 274.4 L
327.479 274.234 327.434 273.921 327.6 273.7 C
327.766 273.479 328.079 273.434 328.3 273.6 C
328.3 273.6 L
336.3 279.6 L
336.521 279.766 336.566 280.079 336.4 280.3 C
336.234 280.521 335.921 280.566 335.7 280.4 C
P
319.7 268.4 M
319.7 268.4 L
311.7 262.4 L
311.479 262.234 311.434 261.921 311.6 261.7 C
311.766 261.479 312.079 261.434 312.3 261.6 C
312.3 261.6 L
320.3 267.6 L
320.521 267.766 320.566 268.079 320.4 268.3 C
320.234 268.521 319.921 268.566 319.7 268.4 C
P
303.7 256.4 M
303.7 256.4 L
295.7 250.4 L
295.479 250.234 295.434 249.921 295.6 249.7 C
295.766 249.479 296.079 249.434 296.3 249.6 C
296.3 249.6 L
304.3 255.6 L
304.521 255.766 304.566 256.079 304.4 256.3 C
304.234 256.521 303.921 256.566 303.7 256.4 C
P
287.7 244.4 M
287.7 244.4 L
279.7 238.4 L
279.479 238.234 279.434 237.921 279.6 237.7 C
279.766 237.479 280.079 237.434 280.3 237.6 C
280.3 237.6 L
288.3 243.6 L
288.521 243.766 288.566 244.079 288.4 244.3 C
288.234 244.521 287.921 244.566 287.7 244.4 C
P
271.7 232.4 M
271.7 232.4 L
263.7 226.4 L
263.479 226.234 263.434 225.921 263.6 225.7 C
263.766 225.479 264.079 225.434 264.3 225.6 C
264.3 225.6 L
272.3 231.6 L
272.521 231.766 272.566 232.079 272.4 232.3 C
272.234 232.521 271.921 232.566 271.7 232.4 C
P
255.7 220.4 M
255.7 220.4 L
247.7 214.4 L
247.479 214.234 247.434 213.921 247.6 213.7 C
247.766 213.479 248.079 213.434 248.3 213.6 C
248.3 213.6 L
256.3 219.6 L
256.521 219.766 256.566 220.079 256.4 220.3 C
256.234 220.521 255.921 220.566 255.7 220.4 C
P
367.7 304.4 M
367.7 304.4 L
359.7 298.4 L
359.479 298.234 359.434 297.921 359.6 297.7 C
359.766 297.479 360.079 297.434 360.3 297.6 C
360.3 297.6 L
368.3 303.6 L
368.521 303.766 368.566 304.079 368.4 304.3 C
368.234 304.521 367.921 304.566 367.7 304.4 C
P
G
WC
WF
R N
0.88235295 SG
N
280.0 208.0 M
280.0 225.673 262.091 240.0 240.0 240.0 C
217.909 240.0 200.0 225.673 200.0 208.0 C
200.0 190.327 217.909 176.0 240.0 176.0 C
262.091 176.0 280.0 190.327 280.0 208.0 C
P
G
WC
WF
R N
0.0 SG
N
280.5 208.0 M
280.5 208.0 L
280.5 226.048 262.258 240.5 240.0 240.5 C
240.0 240.0 L
240.0 240.5 L
217.742 240.5 199.5 226.048 199.5 208.0 C
200.0 208.0 L
199.5 208.0 L
199.5 189.952 217.742 175.5 240.0 175.5 C
240.0 176.0 L
240.0 175.5 L
262.258 175.5 280.5 189.952 280.5 208.0 C
280.0 208.0 L
280.5 208.0 L
279.5 208.0 M
279.5 208.0 L
279.5 190.701 261.925 176.5 240.0 176.5 C
240.0 176.5 L
218.075 176.5 200.5 190.701 200.5 208.0 C
200.5 208.0 L
200.5 225.299 218.075 239.5 240.0 239.5 C
240.0 239.5 L
261.925 239.5 279.5 225.299 279.5 208.0 C
P
G
WC
WF
R N
pgSave restore
showpage
%%EOF
