%!PS-Adobe-3.0 EPSF-3.0
%%BoundingBox: 86 380 538 676
%%Creator: hjf with JaxoDraw-2.1-0
%%Title: 
%%CreationDate: 16/9/2013
%%BeginProlog
/imStr 0 def /imageSrc {currentfile /ASCII85Decode filter /RunLengthDecode filter  imStr readstring pop } def
/BD {bind def} bind def
/D {def} BD
/C {curveto} BD
/L {lineto} BD
/M {moveto} BD
/R {grestore} BD
/G {gsave} BD
/N {newpath} BD
/P {closepath} BD
/EC {eoclip} BD
/WC {clip} BD
/EF {eofill} BD
/WF {fill} BD
/SG {setgray} BD
/SC {setrgbcolor} BD
/ISOF {
     dup findfont dup length 1 add dict begin {
             1 index /FID eq {pop pop} {D} ifelse
     } forall /Encoding ISOLatin1Encoding D
     currentdict end definefont
} BD
/NZ {dup 1 lt {pop 1} if} BD
/S {
     moveto 1 index stringwidth pop NZ sub
     1 index length 1 sub NZ div 0
     3 2 roll ashow newpath} BD
/FL [
    /AvantGarde-Book ISOF
    /AvantGarde-BookOblique ISOF
    /AvantGarde-Demi ISOF
    /AvantGarde-DemiOblique ISOF
    /Bookman-Demi ISOF
    /Bookman-DemiItalic ISOF
    /Bookman-Light ISOF
    /Bookman-LightItalic ISOF
    /Courier ISOF
    /Courier-Bold ISOF
    /Courier-BoldOblique ISOF
    /Courier-Oblique ISOF
    /Helvetica ISOF
    /Helvetica-Bold ISOF
    /Helvetica-BoldOblique ISOF
    /Helvetica-Narrow ISOF
    /Helvetica-Narrow-Bold ISOF
    /Helvetica-Narrow-BoldOblique ISOF
    /Helvetica-Narrow-Oblique ISOF
    /Helvetica-Oblique ISOF
    /NewCenturySchlbk-Bold ISOF
    /NewCenturySchlbk-BoldItalic ISOF
    /NewCenturySchlbk-Italic ISOF
    /NewCenturySchlbk-Roman ISOF
    /Palatino-Bold ISOF
    /Palatino-BoldItalic ISOF
    /Palatino-Italic ISOF
    /Palatino-Roman ISOF
    /Symbol findfont
    /Times-Bold ISOF
    /Times-BoldItalic ISOF
    /Times-Italic ISOF
    /Times-Roman ISOF
    /ZapfDingbats findfont
    /ZapfChancery-MediumItalic ISOF
] D
/F {
     FL exch get exch scalefont
     [1 0 0 -1 0 0] makefont setfont} BD
%%EndProlog
%%BeginSetup
<< /PageSize [612.0 792.0] /DeferredMediaSelection true /ImagingBBox null /ManualFeed false /NumCopies 1 >> pop 
%%EndSetup
%%Page: 1 1
/pgSave save def
792.0 0 exch translate 1 -1 scale[72 300 div 0 0 72 300 div 0 0]concat
G
[4.1666665 0.0 0.0 4.1666665 300.0 300.0] concat
N
0.0 0.0 M
468.0 0.0 L
468.0 648.0 L
0.0 648.0 L
0.0 0.0 L
P
WC
N
15.333 46.943 M
15.333 46.943 L
19.148 44.536 24.835 44.461 30.587 50.213 C
33.287 52.913 L
30.587 50.213 L
35.931 55.556 34.366 61.848 31.004 65.21 C
31.004 65.21 L
28.577 67.637 24.607 68.981 21.813 66.187 C
22.697 65.303 L
21.813 66.187 L
19.22 63.595 20.19 59.937 22.488 57.639 C
22.488 57.639 L
26.1 54.027 33.302 52.928 40.187 59.813 C
39.303 60.697 L
40.187 59.813 L
47.072 66.698 45.973 73.9 42.361 77.512 C
42.361 77.512 L
40.063 79.81 36.405 80.78 33.813 78.187 C
34.697 77.303 L
33.813 78.187 L
31.22 75.595 32.19 71.937 34.488 69.639 C
34.488 69.639 L
38.1 66.027 45.302 64.928 52.187 71.813 C
51.303 72.697 L
52.187 71.813 L
59.072 78.698 57.973 85.9 54.361 89.512 C
54.361 89.512 L
52.063 91.81 48.405 92.78 45.813 90.187 C
46.697 89.303 L
45.813 90.187 L
43.019 87.393 44.363 83.423 46.79 80.996 C
46.79 80.996 L
50.152 77.634 56.444 76.069 61.787 81.413 C
61.973 81.599 L
61.787 81.413 L
67.539 87.165 67.464 92.852 65.057 96.667 C
64.39 97.724 L
62.276 96.39 L
62.943 95.333 L
64.639 92.644 65.067 88.228 60.019 83.181 C
60.903 82.297 L
60.019 83.181 L
55.821 78.982 51.121 80.2 48.557 82.764 C
48.557 82.764 L
46.51 84.811 46.268 87.107 47.581 88.419 C
47.581 88.419 L
47.581 88.419 L
48.803 89.642 50.824 89.514 52.593 87.744 C
52.593 87.744 L
55.092 85.245 56.47 79.631 50.419 73.581 C
49.44 72.601 L
50.419 73.581 L
44.369 67.53 38.755 68.908 36.256 71.407 C
36.256 71.407 L
34.486 73.176 34.358 75.197 35.581 76.419 C
35.692 76.53 L
35.581 76.419 L
36.803 77.642 38.824 77.514 40.593 75.744 C
40.593 75.744 L
43.092 73.245 44.47 67.631 38.419 61.581 C
38.419 61.581 L
38.419 61.581 L
32.369 55.53 26.755 56.908 24.256 59.407 C
24.256 59.407 L
22.486 61.176 22.358 63.197 23.581 64.419 C
18.808 59.646 L
23.581 64.419 L
24.893 65.732 27.189 65.49 29.236 63.443 C
29.236 63.443 L
31.8 60.879 33.018 56.179 28.819 51.981 C
29.703 51.097 L
28.819 51.981 L
23.772 46.933 19.356 47.361 16.667 49.057 C
15.61 49.724 L
14.276 47.61 L
P
G
WC
WF
R N
N
415.69 289.211 M
415.69 289.211 L
411.227 288.068 407.25 283.587 407.25 274.56 C
408.5 274.56 L
407.25 274.56 L
407.25 266.584 412.871 263.044 417.708 263.044 C
417.708 263.044 L
421.101 263.044 424.75 264.91 424.75 268.8 C
423.5 268.8 L
424.75 268.8 L
424.75 272.386 421.609 274.298 418.41 274.298 C
418.41 274.298 L
413.214 274.298 407.25 269.678 407.25 259.2 C
408.5 259.2 L
407.25 259.2 L
407.25 248.722 413.214 244.102 418.41 244.102 C
418.41 244.102 L
421.609 244.102 424.75 246.014 424.75 249.6 C
423.5 249.6 L
424.75 249.6 L
424.75 253.186 421.609 255.098 418.41 255.098 C
418.41 255.098 L
413.214 255.098 407.25 250.478 407.25 240.0 C
408.5 240.0 L
407.25 240.0 L
407.25 229.522 413.214 224.902 418.41 224.902 C
418.41 224.902 L
421.609 224.902 424.75 226.814 424.75 230.4 C
423.5 230.4 L
424.75 230.4 L
424.75 233.986 421.609 235.898 418.41 235.898 C
418.41 235.898 L
413.214 235.898 407.25 231.278 407.25 220.8 C
408.5 220.8 L
407.25 220.8 L
407.25 210.322 413.214 205.702 418.41 205.702 C
418.41 205.702 L
421.609 205.702 424.75 207.614 424.75 211.2 C
423.5 211.2 L
424.75 211.2 L
424.75 214.786 421.609 216.698 418.41 216.698 C
418.41 216.698 L
413.214 216.698 407.25 212.078 407.25 201.6 C
408.5 201.6 L
407.25 201.6 L
407.25 191.122 413.214 186.502 418.41 186.502 C
418.41 186.502 L
421.609 186.502 424.75 188.414 424.75 192.0 C
423.5 192.0 L
424.75 192.0 L
424.75 195.586 421.609 197.498 418.41 197.498 C
418.41 197.498 L
413.214 197.498 407.25 192.878 407.25 182.4 C
408.5 182.4 L
407.25 182.4 L
407.25 171.922 413.214 167.302 418.41 167.302 C
418.41 167.302 L
421.609 167.302 424.75 169.214 424.75 172.8 C
423.5 172.8 L
424.75 172.8 L
424.75 176.386 421.609 178.298 418.41 178.298 C
418.41 178.298 L
413.214 178.298 407.25 173.678 407.25 163.2 C
408.5 163.2 L
407.25 163.2 L
407.25 152.722 413.214 148.102 418.41 148.102 C
418.41 148.102 L
421.609 148.102 424.75 150.014 424.75 153.6 C
423.5 153.6 L
424.75 153.6 L
424.75 157.186 421.609 159.098 418.41 159.098 C
418.41 159.098 L
413.214 159.098 407.25 154.478 407.25 144.0 C
408.5 144.0 L
407.25 144.0 L
407.25 133.522 413.214 128.902 418.41 128.902 C
418.41 128.902 L
421.609 128.902 424.75 130.814 424.75 134.4 C
423.5 134.4 L
424.75 134.4 L
424.75 137.986 421.609 139.898 418.41 139.898 C
418.41 139.898 L
413.214 139.898 407.25 135.278 407.25 124.8 C
408.5 124.8 L
407.25 124.8 L
407.25 114.322 413.214 109.702 418.41 109.702 C
418.41 109.702 L
421.609 109.702 424.75 111.614 424.75 115.2 C
423.5 115.2 L
424.75 115.2 L
424.75 119.09 421.101 120.956 417.708 120.956 C
417.708 120.956 L
412.871 120.956 407.25 117.416 407.25 109.44 C
408.5 109.44 L
407.25 109.44 L
407.25 100.413 411.227 95.932 415.69 94.789 C
416.901 94.479 L
417.521 96.901 L
416.31 97.211 L
413.274 97.988 409.75 101.187 409.75 109.44 C
409.75 109.44 L
409.75 115.888 414.1 118.456 417.708 118.456 C
417.708 118.456 L
420.519 118.456 422.25 117.027 422.25 115.2 C
422.25 115.2 L
422.25 113.505 420.8 112.202 418.41 112.202 C
418.41 112.202 L
414.906 112.202 409.75 115.37 409.75 124.8 C
409.75 124.8 L
409.75 134.23 414.906 137.398 418.41 137.398 C
418.41 137.398 L
420.8 137.398 422.25 136.095 422.25 134.4 C
422.25 134.4 L
422.25 132.705 420.8 131.402 418.41 131.402 C
418.41 131.402 L
414.906 131.402 409.75 134.57 409.75 144.0 C
409.75 144.0 L
409.75 153.43 414.906 156.598 418.41 156.598 C
418.41 156.598 L
420.8 156.598 422.25 155.295 422.25 153.6 C
422.25 153.6 L
422.25 151.905 420.8 150.602 418.41 150.602 C
418.41 150.602 L
414.906 150.602 409.75 153.77 409.75 163.2 C
409.75 163.2 L
409.75 172.63 414.906 175.798 418.41 175.798 C
418.41 175.798 L
420.8 175.798 422.25 174.495 422.25 172.8 C
422.25 172.8 L
422.25 171.105 420.8 169.802 418.41 169.802 C
418.41 169.802 L
414.906 169.802 409.75 172.97 409.75 182.4 C
409.75 182.4 L
409.75 191.83 414.906 194.998 418.41 194.998 C
418.41 194.998 L
420.8 194.998 422.25 193.695 422.25 192.0 C
422.25 192.0 L
422.25 190.305 420.8 189.002 418.41 189.002 C
418.41 189.002 L
414.906 189.002 409.75 192.17 409.75 201.6 C
409.75 201.6 L
409.75 211.03 414.906 214.198 418.41 214.198 C
418.41 214.198 L
420.8 214.198 422.25 212.895 422.25 211.2 C
422.25 211.2 L
422.25 209.505 420.8 208.202 418.41 208.202 C
418.41 208.202 L
414.906 208.202 409.75 211.37 409.75 220.8 C
409.75 220.8 L
409.75 230.23 414.906 233.398 418.41 233.398 C
418.41 233.398 L
420.8 233.398 422.25 232.095 422.25 230.4 C
422.25 230.4 L
422.25 228.705 420.8 227.402 418.41 227.402 C
418.41 227.402 L
414.906 227.402 409.75 230.57 409.75 240.0 C
409.75 240.0 L
409.75 249.43 414.906 252.598 418.41 252.598 C
418.41 252.598 L
420.8 252.598 422.25 251.295 422.25 249.6 C
422.25 249.6 L
422.25 247.905 420.8 246.602 418.41 246.602 C
418.41 246.602 L
414.906 246.602 409.75 249.77 409.75 259.2 C
409.75 259.2 L
409.75 268.63 414.906 271.798 418.41 271.798 C
418.41 271.798 L
420.8 271.798 422.25 270.495 422.25 268.8 C
422.25 268.8 L
422.25 266.973 420.519 265.544 417.708 265.544 C
417.708 265.544 L
414.1 265.544 409.75 268.112 409.75 274.56 C
409.75 274.56 L
409.75 282.813 413.274 286.012 416.31 286.789 C
417.521 287.099 L
416.901 289.521 L
P
G
WC
WF
R N
N
464.667 337.057 M
464.667 337.057 L
460.852 339.464 455.165 339.54 449.413 333.787 C
450.297 332.903 L
449.413 333.787 L
444.069 328.444 445.634 322.152 448.996 318.79 C
448.996 318.79 L
451.423 316.363 455.393 315.019 458.187 317.813 C
458.218 317.844 L
458.187 317.813 L
460.78 320.405 459.81 324.063 457.512 326.361 C
457.512 326.361 L
453.9 329.973 446.698 331.072 439.813 324.187 C
439.813 324.187 L
439.813 324.187 L
432.928 317.302 434.027 310.1 437.639 306.488 C
437.639 306.488 L
439.937 304.19 443.595 303.22 446.187 305.813 C
446.218 305.844 L
446.187 305.813 L
448.78 308.405 447.81 312.063 445.512 314.361 C
445.512 314.361 L
441.9 317.973 434.698 319.072 427.813 312.187 C
428.697 311.303 L
427.813 312.187 L
420.928 305.302 422.027 298.1 425.639 294.488 C
425.639 294.488 L
427.937 292.19 431.595 291.22 434.187 293.813 C
434.218 293.844 L
434.187 293.813 L
436.981 296.607 435.637 300.577 433.21 303.004 C
433.21 303.004 L
429.848 306.366 423.556 307.931 418.213 302.587 C
419.097 301.703 L
418.213 302.587 L
412.46 296.835 412.536 291.148 414.943 287.333 C
415.61 286.276 L
417.724 287.61 L
417.057 288.667 L
415.361 291.356 414.933 295.772 419.981 300.819 C
420.106 300.944 L
419.981 300.819 L
424.179 305.018 428.879 303.8 431.443 301.236 C
431.443 301.236 L
433.49 299.189 433.732 296.893 432.419 295.581 C
433.303 294.697 L
432.419 295.581 L
431.197 294.358 429.176 294.486 427.407 296.256 C
427.407 296.256 L
424.908 298.755 423.53 304.369 429.581 310.419 C
429.581 310.419 L
435.631 316.47 441.245 315.092 443.744 312.593 C
443.744 312.593 L
445.514 310.824 445.642 308.803 444.419 307.581 C
445.303 306.697 L
444.419 307.581 L
443.197 306.358 441.176 306.486 439.407 308.256 C
439.407 308.256 L
436.908 310.755 435.53 316.369 441.581 322.419 C
440.697 323.303 L
441.581 322.419 L
447.631 328.47 453.245 327.092 455.744 324.593 C
455.744 324.593 L
457.514 322.824 457.642 320.803 456.419 319.581 C
457.303 318.697 L
456.419 319.581 L
455.107 318.268 452.811 318.51 450.764 320.557 C
450.764 320.557 L
448.2 323.121 446.982 327.821 451.181 332.019 C
451.261 332.1 L
451.181 332.019 L
456.228 337.067 460.644 336.639 463.333 334.943 C
464.39 334.276 L
465.724 336.39 L
P
G
WC
WF
R N
N
414.943 96.667 M
414.943 96.667 L
412.536 92.852 412.46 87.165 418.213 81.413 C
419.097 82.297 L
418.213 81.413 L
423.556 76.069 429.848 77.634 433.21 80.996 C
433.21 80.996 L
435.637 83.423 436.981 87.393 434.187 90.187 C
434.249 90.125 L
434.187 90.187 L
431.595 92.78 427.937 91.81 425.639 89.512 C
425.639 89.512 L
422.027 85.9 420.928 78.698 427.813 71.813 C
426.833 72.792 L
427.813 71.813 L
434.698 64.928 441.9 66.027 445.512 69.639 C
445.512 69.639 L
447.81 71.937 448.78 75.595 446.187 78.187 C
446.249 78.125 L
446.187 78.187 L
443.595 80.78 439.937 79.81 437.639 77.512 C
437.639 77.512 L
434.027 73.9 432.928 66.698 439.813 59.813 C
440.697 60.697 L
439.813 59.813 L
446.698 52.928 453.9 54.027 457.512 57.639 C
457.512 57.639 L
459.81 59.937 460.78 63.595 458.187 66.187 C
458.258 66.116 L
458.187 66.187 L
455.393 68.981 451.423 67.637 448.996 65.21 C
448.996 65.21 L
445.634 61.848 444.069 55.556 449.413 50.213 C
447.738 51.887 L
449.413 50.213 L
455.165 44.461 460.852 44.536 464.667 46.943 C
465.724 47.61 L
464.39 49.724 L
463.333 49.057 L
460.644 47.361 456.228 46.933 451.181 51.981 C
450.297 51.097 L
451.181 51.981 L
446.982 56.179 448.2 60.879 450.764 63.443 C
450.764 63.443 L
452.811 65.49 455.107 65.732 456.419 64.419 C
457.303 65.303 L
456.419 64.419 L
457.642 63.197 457.514 61.176 455.744 59.407 C
455.744 59.407 L
453.245 56.908 447.632 55.53 441.581 61.581 C
441.784 61.377 L
441.581 61.581 L
435.53 67.631 436.908 73.245 439.407 75.744 C
439.407 75.744 L
441.176 77.514 443.197 77.642 444.419 76.419 C
445.303 77.303 L
444.419 76.419 L
445.642 75.197 445.514 73.176 443.744 71.407 C
443.744 71.407 L
441.245 68.908 435.632 67.53 429.581 73.581 C
428.697 72.697 L
429.581 73.581 L
423.53 79.631 424.908 85.245 427.407 87.744 C
427.407 87.744 L
429.176 89.514 431.197 89.642 432.419 88.419 C
433.303 89.303 L
432.419 88.419 L
433.732 87.107 433.49 84.811 431.443 82.764 C
431.443 82.764 L
428.879 80.2 424.179 78.982 419.981 83.181 C
418.781 84.381 L
419.981 83.181 L
414.933 88.228 415.361 92.644 417.057 95.333 C
417.724 96.39 L
415.61 97.724 L
P
G
WC
WF
R N
N
65.057 287.333 M
65.057 287.333 L
67.464 291.148 67.539 296.835 61.787 302.587 C
61.787 302.587 L
61.787 302.587 L
56.444 307.931 50.152 306.366 46.79 303.004 C
46.79 303.004 L
44.363 300.577 43.019 296.607 45.813 293.813 C
45.742 293.884 L
45.813 293.813 L
48.405 291.22 52.063 292.19 54.361 294.488 C
54.361 294.488 L
57.973 298.1 59.072 305.302 52.187 312.187 C
53.44 310.935 L
52.187 312.187 L
45.302 319.072 38.1 317.973 34.488 314.361 C
34.488 314.361 L
32.19 312.063 31.22 308.405 33.813 305.813 C
33.897 305.729 L
33.813 305.813 L
36.405 303.22 40.063 304.19 42.361 306.488 C
42.361 306.488 L
45.973 310.1 47.072 317.302 40.187 324.187 C
40.45 323.924 L
40.187 324.187 L
33.302 331.072 26.1 329.973 22.488 326.361 C
22.488 326.361 L
20.19 324.063 19.22 320.405 21.813 317.813 C
21.875 317.751 L
21.813 317.813 L
24.607 315.019 28.577 316.363 31.004 318.79 C
31.004 318.79 L
34.366 322.152 35.931 328.444 30.587 333.787 C
29.703 332.903 L
30.587 333.787 L
24.835 339.54 19.148 339.464 15.333 337.057 C
14.276 336.39 L
15.61 334.276 L
16.667 334.943 L
19.356 336.639 23.772 337.067 28.819 332.019 C
28.944 331.894 L
28.819 332.019 L
33.018 327.821 31.8 323.121 29.236 320.557 C
29.236 320.557 L
27.189 318.51 24.893 318.268 23.581 319.581 C
22.697 318.697 L
23.581 319.581 L
22.358 320.803 22.486 322.824 24.256 324.593 C
24.256 324.593 L
26.755 327.092 32.369 328.47 38.419 322.419 C
39.303 323.303 L
38.419 322.419 L
44.47 316.369 43.092 310.755 40.593 308.256 C
40.593 308.256 L
38.824 306.486 36.803 306.358 35.581 307.581 C
34.697 306.697 L
35.581 307.581 L
34.358 308.803 34.486 310.824 36.256 312.593 C
36.256 312.593 L
38.755 315.092 44.369 316.47 50.419 310.419 C
51.303 311.303 L
50.419 310.419 L
56.47 304.369 55.092 298.755 52.593 296.256 C
52.593 296.256 L
50.824 294.486 48.803 294.358 47.581 295.581 C
46.697 294.697 L
47.581 295.581 L
46.268 296.893 46.51 299.189 48.557 301.236 C
48.557 301.236 L
51.121 303.8 55.821 305.018 60.019 300.819 C
60.903 301.703 L
60.019 300.819 L
65.067 295.772 64.639 291.356 62.943 288.667 C
62.276 287.61 L
64.39 286.276 L
P
G
WC
WF
R N
N
238.75 268.0 M
238.75 268.0 L
238.75 258.0 L
238.75 257.31 239.31 256.75 240.0 256.75 C
240.69 256.75 241.25 257.31 241.25 258.0 C
241.25 258.0 L
241.25 268.0 L
241.25 268.69 240.69 269.25 240.0 269.25 C
239.31 269.25 238.75 268.69 238.75 268.0 C
P
238.75 248.0 M
238.75 248.0 L
238.75 238.0 L
238.75 237.31 239.31 236.75 240.0 236.75 C
240.69 236.75 241.25 237.31 241.25 238.0 C
241.25 238.0 L
241.25 248.0 L
241.25 248.69 240.69 249.25 240.0 249.25 C
239.31 249.25 238.75 248.69 238.75 248.0 C
P
238.75 228.0 M
238.75 228.0 L
238.75 218.0 L
238.75 217.31 239.31 216.75 240.0 216.75 C
240.69 216.75 241.25 217.31 241.25 218.0 C
241.25 218.0 L
241.25 228.0 L
241.25 228.69 240.69 229.25 240.0 229.25 C
239.31 229.25 238.75 228.69 238.75 228.0 C
P
238.75 208.0 M
238.75 208.0 L
238.75 198.0 L
238.75 197.31 239.31 196.75 240.0 196.75 C
240.69 196.75 241.25 197.31 241.25 198.0 C
241.25 198.0 L
241.25 208.0 L
241.25 208.69 240.69 209.25 240.0 209.25 C
239.31 209.25 238.75 208.69 238.75 208.0 C
P
238.75 188.0 M
238.75 188.0 L
238.75 178.0 L
238.75 177.31 239.31 176.75 240.0 176.75 C
240.69 176.75 241.25 177.31 241.25 178.0 C
241.25 178.0 L
241.25 188.0 L
241.25 188.69 240.69 189.25 240.0 189.25 C
239.31 189.25 238.75 188.69 238.75 188.0 C
P
238.75 168.0 M
238.75 168.0 L
238.75 158.0 L
238.75 157.31 239.31 156.75 240.0 156.75 C
240.69 156.75 241.25 157.31 241.25 158.0 C
241.25 158.0 L
241.25 168.0 L
241.25 168.69 240.69 169.25 240.0 169.25 C
239.31 169.25 238.75 168.69 238.75 168.0 C
P
238.75 148.0 M
238.75 148.0 L
238.75 138.0 L
238.75 137.31 239.31 136.75 240.0 136.75 C
240.69 136.75 241.25 137.31 241.25 138.0 C
241.25 138.0 L
241.25 148.0 L
241.25 148.69 240.69 149.25 240.0 149.25 C
239.31 149.25 238.75 148.69 238.75 148.0 C
P
238.75 128.0 M
238.75 128.0 L
238.75 118.0 L
238.75 117.31 239.31 116.75 240.0 116.75 C
240.69 116.75 241.25 117.31 241.25 118.0 C
241.25 118.0 L
241.25 128.0 L
241.25 128.69 240.69 129.25 240.0 129.25 C
239.31 129.25 238.75 128.69 238.75 128.0 C
P
238.75 108.0 M
238.75 108.0 L
238.75 98.0 L
238.75 97.31 239.31 96.75 240.0 96.75 C
240.69 96.75 241.25 97.31 241.25 98.0 C
241.25 98.0 L
241.25 108.0 L
241.25 108.69 240.69 109.25 240.0 109.25 C
239.31 109.25 238.75 108.69 238.75 108.0 C
P
238.75 288.0 M
238.75 288.0 L
238.75 278.0 L
238.75 277.31 239.31 276.75 240.0 276.75 C
240.69 276.75 241.25 277.31 241.25 278.0 C
241.25 278.0 L
241.25 288.0 L
241.25 288.69 240.69 289.25 240.0 289.25 C
239.31 289.25 238.75 288.69 238.75 288.0 C
P
G
WC
WF
R N
N
62.75 268.0 M
62.75 268.0 L
62.75 258.0 L
62.75 257.31 63.31 256.75 64.0 256.75 C
64.69 256.75 65.25 257.31 65.25 258.0 C
65.25 258.0 L
65.25 268.0 L
65.25 268.69 64.69 269.25 64.0 269.25 C
63.31 269.25 62.75 268.69 62.75 268.0 C
P
62.75 248.0 M
62.75 248.0 L
62.75 238.0 L
62.75 237.31 63.31 236.75 64.0 236.75 C
64.69 236.75 65.25 237.31 65.25 238.0 C
65.25 238.0 L
65.25 248.0 L
65.25 248.69 64.69 249.25 64.0 249.25 C
63.31 249.25 62.75 248.69 62.75 248.0 C
P
62.75 228.0 M
62.75 228.0 L
62.75 218.0 L
62.75 217.31 63.31 216.75 64.0 216.75 C
64.69 216.75 65.25 217.31 65.25 218.0 C
65.25 218.0 L
65.25 228.0 L
65.25 228.69 64.69 229.25 64.0 229.25 C
63.31 229.25 62.75 228.69 62.75 228.0 C
P
62.75 208.0 M
62.75 208.0 L
62.75 198.0 L
62.75 197.31 63.31 196.75 64.0 196.75 C
64.69 196.75 65.25 197.31 65.25 198.0 C
65.25 198.0 L
65.25 208.0 L
65.25 208.69 64.69 209.25 64.0 209.25 C
63.31 209.25 62.75 208.69 62.75 208.0 C
P
62.75 188.0 M
62.75 188.0 L
62.75 178.0 L
62.75 177.31 63.31 176.75 64.0 176.75 C
64.69 176.75 65.25 177.31 65.25 178.0 C
65.25 178.0 L
65.25 188.0 L
65.25 188.69 64.69 189.25 64.0 189.25 C
63.31 189.25 62.75 188.69 62.75 188.0 C
P
62.75 168.0 M
62.75 168.0 L
62.75 158.0 L
62.75 157.31 63.31 156.75 64.0 156.75 C
64.69 156.75 65.25 157.31 65.25 158.0 C
65.25 158.0 L
65.25 168.0 L
65.25 168.69 64.69 169.25 64.0 169.25 C
63.31 169.25 62.75 168.69 62.75 168.0 C
P
62.75 148.0 M
62.75 148.0 L
62.75 138.0 L
62.75 137.31 63.31 136.75 64.0 136.75 C
64.69 136.75 65.25 137.31 65.25 138.0 C
65.25 138.0 L
65.25 148.0 L
65.25 148.69 64.69 149.25 64.0 149.25 C
63.31 149.25 62.75 148.69 62.75 148.0 C
P
62.75 128.0 M
62.75 128.0 L
62.75 118.0 L
62.75 117.31 63.31 116.75 64.0 116.75 C
64.69 116.75 65.25 117.31 65.25 118.0 C
65.25 118.0 L
65.25 128.0 L
65.25 128.69 64.69 129.25 64.0 129.25 C
63.31 129.25 62.75 128.69 62.75 128.0 C
P
62.75 108.0 M
62.75 108.0 L
62.75 98.0 L
62.75 97.31 63.31 96.75 64.0 96.75 C
64.69 96.75 65.25 97.31 65.25 98.0 C
65.25 98.0 L
65.25 108.0 L
65.25 108.69 64.69 109.25 64.0 109.25 C
63.31 109.25 62.75 108.69 62.75 108.0 C
P
62.75 288.0 M
62.75 288.0 L
62.75 278.0 L
62.75 277.31 63.31 276.75 64.0 276.75 C
64.69 276.75 65.25 277.31 65.25 278.0 C
65.25 278.0 L
65.25 288.0 L
65.25 288.69 64.69 289.25 64.0 289.25 C
63.31 289.25 62.75 288.69 62.75 288.0 C
P
G
WC
WF
R N
N
84.0 286.75 M
84.0 286.75 L
94.0 286.75 L
94.69 286.75 95.25 287.31 95.25 288.0 C
95.25 288.69 94.69 289.25 94.0 289.25 C
94.0 289.25 L
84.0 289.25 L
83.31 289.25 82.75 288.69 82.75 288.0 C
82.75 287.31 83.31 286.75 84.0 286.75 C
P
104.0 286.75 M
104.0 286.75 L
114.0 286.75 L
114.69 286.75 115.25 287.31 115.25 288.0 C
115.25 288.69 114.69 289.25 114.0 289.25 C
114.0 289.25 L
104.0 289.25 L
103.31 289.25 102.75 288.69 102.75 288.0 C
102.75 287.31 103.31 286.75 104.0 286.75 C
P
124.0 286.75 M
124.0 286.75 L
134.0 286.75 L
134.69 286.75 135.25 287.31 135.25 288.0 C
135.25 288.69 134.69 289.25 134.0 289.25 C
134.0 289.25 L
124.0 289.25 L
123.31 289.25 122.75 288.69 122.75 288.0 C
122.75 287.31 123.31 286.75 124.0 286.75 C
P
144.0 286.75 M
144.0 286.75 L
154.0 286.75 L
154.69 286.75 155.25 287.31 155.25 288.0 C
155.25 288.69 154.69 289.25 154.0 289.25 C
154.0 289.25 L
144.0 289.25 L
143.31 289.25 142.75 288.69 142.75 288.0 C
142.75 287.31 143.31 286.75 144.0 286.75 C
P
164.0 286.75 M
164.0 286.75 L
174.0 286.75 L
174.69 286.75 175.25 287.31 175.25 288.0 C
175.25 288.69 174.69 289.25 174.0 289.25 C
174.0 289.25 L
164.0 289.25 L
163.31 289.25 162.75 288.69 162.75 288.0 C
162.75 287.31 163.31 286.75 164.0 286.75 C
P
184.0 286.75 M
184.0 286.75 L
194.0 286.75 L
194.69 286.75 195.25 287.31 195.25 288.0 C
195.25 288.69 194.69 289.25 194.0 289.25 C
194.0 289.25 L
184.0 289.25 L
183.31 289.25 182.75 288.69 182.75 288.0 C
182.75 287.31 183.31 286.75 184.0 286.75 C
P
204.0 286.75 M
204.0 286.75 L
214.0 286.75 L
214.69 286.75 215.25 287.31 215.25 288.0 C
215.25 288.69 214.69 289.25 214.0 289.25 C
214.0 289.25 L
204.0 289.25 L
203.31 289.25 202.75 288.69 202.75 288.0 C
202.75 287.31 203.31 286.75 204.0 286.75 C
P
224.0 286.75 M
224.0 286.75 L
234.0 286.75 L
234.69 286.75 235.25 287.31 235.25 288.0 C
235.25 288.69 234.69 289.25 234.0 289.25 C
234.0 289.25 L
224.0 289.25 L
223.31 289.25 222.75 288.69 222.75 288.0 C
222.75 287.31 223.31 286.75 224.0 286.75 C
P
64.0 286.75 M
64.0 286.75 L
74.0 286.75 L
74.69 286.75 75.25 287.31 75.25 288.0 C
75.25 288.69 74.69 289.25 74.0 289.25 C
74.0 289.25 L
64.0 289.25 L
63.31 289.25 62.75 288.69 62.75 288.0 C
62.75 287.31 63.31 286.75 64.0 286.75 C
P
G
WC
WF
R N
N
417.21 96.315 M
417.21 96.315 L
416.044 100.787 411.482 104.75 402.311 104.75 C
402.311 103.5 L
402.311 104.75 L
394.268 104.75 390.696 99.119 390.696 94.269 C
390.696 94.269 L
390.696 90.882 392.564 87.25 396.444 87.25 C
396.444 88.5 L
396.444 87.25 L
400.018 87.25 401.932 90.371 401.932 93.563 C
401.932 93.563 L
401.932 98.771 397.264 104.75 386.667 104.75 C
386.667 103.5 L
386.667 104.75 L
376.069 104.75 371.401 98.771 371.401 93.563 C
371.401 93.563 L
371.401 90.371 373.315 87.25 376.889 87.25 C
376.889 88.5 L
376.889 87.25 L
380.462 87.25 382.376 90.371 382.376 93.563 C
382.376 93.563 L
382.376 98.771 377.709 104.75 367.111 104.75 C
367.111 103.5 L
367.111 104.75 L
356.514 104.75 351.846 98.771 351.846 93.563 C
351.846 93.563 L
351.846 90.371 353.76 87.25 357.333 87.25 C
357.333 88.5 L
357.333 87.25 L
360.907 87.25 362.821 90.371 362.821 93.563 C
362.821 93.563 L
362.821 98.771 358.153 104.75 347.556 104.75 C
347.556 103.5 L
347.556 104.75 L
336.958 104.75 332.29 98.771 332.29 93.563 C
332.29 93.563 L
332.29 90.371 334.204 87.25 337.778 87.25 C
337.778 88.5 L
337.778 87.25 L
341.351 87.25 343.265 90.371 343.265 93.563 C
343.265 93.563 L
343.265 98.771 338.597 104.75 328.0 104.75 C
328.0 103.5 L
328.0 104.75 L
317.403 104.75 312.735 98.771 312.735 93.563 C
312.735 93.563 L
312.735 90.371 314.649 87.25 318.222 87.25 C
318.222 88.5 L
318.222 87.25 L
321.796 87.25 323.71 90.371 323.71 93.563 C
323.71 93.563 L
323.71 98.771 319.042 104.75 308.444 104.75 C
308.444 103.5 L
308.444 104.75 L
297.847 104.75 293.179 98.771 293.179 93.563 C
293.179 93.563 L
293.179 90.371 295.093 87.25 298.667 87.25 C
298.667 88.5 L
298.667 87.25 L
302.24 87.25 304.154 90.371 304.154 93.563 C
304.154 93.563 L
304.154 98.771 299.486 104.75 288.889 104.75 C
288.889 103.5 L
288.889 104.75 L
278.292 104.75 273.624 98.771 273.624 93.563 C
273.624 93.563 L
273.624 90.371 275.538 87.25 279.111 87.25 C
279.111 88.5 L
279.111 87.25 L
282.685 87.25 284.599 90.371 284.599 93.563 C
284.599 93.563 L
284.599 98.771 279.931 104.75 269.333 104.75 C
269.333 103.5 L
269.333 104.75 L
258.736 104.75 254.068 98.771 254.068 93.563 C
254.068 93.563 L
254.068 90.371 255.982 87.25 259.556 87.25 C
259.556 88.5 L
259.556 87.25 L
263.436 87.25 265.304 90.882 265.304 94.269 C
265.304 94.269 L
265.304 99.119 261.732 104.75 253.689 104.75 C
253.689 103.5 L
253.689 104.75 L
244.518 104.75 239.956 100.787 238.79 96.315 C
238.475 95.106 L
240.894 94.475 L
241.21 95.685 L
241.999 98.713 245.259 102.25 253.689 102.25 C
253.689 102.25 L
260.219 102.25 262.804 97.874 262.804 94.269 C
262.804 94.269 L
262.804 91.471 261.378 89.75 259.556 89.75 C
259.556 89.75 L
257.865 89.75 256.568 91.189 256.568 93.563 C
256.568 93.563 L
256.568 97.062 259.763 102.25 269.333 102.25 C
269.333 102.25 L
278.903 102.25 282.099 97.062 282.099 93.563 C
282.099 93.563 L
282.099 91.189 280.801 89.75 279.111 89.75 C
279.111 89.75 L
277.421 89.75 276.124 91.189 276.124 93.563 C
276.124 93.563 L
276.124 97.062 279.319 102.25 288.889 102.25 C
288.889 102.25 L
298.459 102.25 301.654 97.062 301.654 93.563 C
301.654 93.563 L
301.654 91.189 300.357 89.75 298.667 89.75 C
298.667 89.75 L
296.977 89.75 295.679 91.189 295.679 93.563 C
295.679 93.563 L
295.679 97.062 298.875 102.25 308.444 102.25 C
308.444 102.25 L
318.014 102.25 321.21 97.062 321.21 93.563 C
321.21 93.563 L
321.21 91.189 319.912 89.75 318.222 89.75 C
318.222 89.75 L
316.532 89.75 315.235 91.189 315.235 93.563 C
315.235 93.563 L
315.235 97.062 318.43 102.25 328.0 102.25 C
328.0 102.25 L
337.57 102.25 340.765 97.062 340.765 93.563 C
340.765 93.563 L
340.765 91.189 339.468 89.75 337.778 89.75 C
337.778 89.75 L
336.088 89.75 334.79 91.189 334.79 93.563 C
334.79 93.563 L
334.79 97.062 337.986 102.25 347.556 102.25 C
347.556 102.25 L
357.125 102.25 360.321 97.062 360.321 93.563 C
360.321 93.563 L
360.321 91.189 359.024 89.75 357.333 89.75 C
357.333 89.75 L
355.643 89.75 354.346 91.189 354.346 93.563 C
354.346 93.563 L
354.346 97.062 357.541 102.25 367.111 102.25 C
367.111 102.25 L
376.681 102.25 379.876 97.062 379.876 93.563 C
379.876 93.563 L
379.876 91.189 378.579 89.75 376.889 89.75 C
376.889 89.75 L
375.199 89.75 373.901 91.189 373.901 93.563 C
373.901 93.563 L
373.901 97.062 377.097 102.25 386.667 102.25 C
386.667 102.25 L
396.237 102.25 399.432 97.062 399.432 93.563 C
399.432 93.563 L
399.432 91.189 398.135 89.75 396.444 89.75 C
396.444 89.75 L
394.622 89.75 393.196 91.471 393.196 94.269 C
393.196 94.269 L
393.196 97.874 395.781 102.25 402.311 102.25 C
402.311 102.25 L
410.74 102.25 414.001 98.713 414.79 95.685 C
415.106 94.475 L
417.525 95.106 L
P
G
WC
WF
R N
N
84.0 94.75 M
84.0 94.75 L
94.0 94.75 L
94.69 94.75 95.25 95.31 95.25 96.0 C
95.25 96.69 94.69 97.25 94.0 97.25 C
94.0 97.25 L
84.0 97.25 L
83.31 97.25 82.75 96.69 82.75 96.0 C
82.75 95.31 83.31 94.75 84.0 94.75 C
P
104.0 94.75 M
104.0 94.75 L
114.0 94.75 L
114.69 94.75 115.25 95.31 115.25 96.0 C
115.25 96.69 114.69 97.25 114.0 97.25 C
114.0 97.25 L
104.0 97.25 L
103.31 97.25 102.75 96.69 102.75 96.0 C
102.75 95.31 103.31 94.75 104.0 94.75 C
P
124.0 94.75 M
124.0 94.75 L
134.0 94.75 L
134.69 94.75 135.25 95.31 135.25 96.0 C
135.25 96.69 134.69 97.25 134.0 97.25 C
134.0 97.25 L
124.0 97.25 L
123.31 97.25 122.75 96.69 122.75 96.0 C
122.75 95.31 123.31 94.75 124.0 94.75 C
P
144.0 94.75 M
144.0 94.75 L
154.0 94.75 L
154.69 94.75 155.25 95.31 155.25 96.0 C
155.25 96.69 154.69 97.25 154.0 97.25 C
154.0 97.25 L
144.0 97.25 L
143.31 97.25 142.75 96.69 142.75 96.0 C
142.75 95.31 143.31 94.75 144.0 94.75 C
P
164.0 94.75 M
164.0 94.75 L
174.0 94.75 L
174.69 94.75 175.25 95.31 175.25 96.0 C
175.25 96.69 174.69 97.25 174.0 97.25 C
174.0 97.25 L
164.0 97.25 L
163.31 97.25 162.75 96.69 162.75 96.0 C
162.75 95.31 163.31 94.75 164.0 94.75 C
P
184.0 94.75 M
184.0 94.75 L
194.0 94.75 L
194.69 94.75 195.25 95.31 195.25 96.0 C
195.25 96.69 194.69 97.25 194.0 97.25 C
194.0 97.25 L
184.0 97.25 L
183.31 97.25 182.75 96.69 182.75 96.0 C
182.75 95.31 183.31 94.75 184.0 94.75 C
P
204.0 94.75 M
204.0 94.75 L
214.0 94.75 L
214.69 94.75 215.25 95.31 215.25 96.0 C
215.25 96.69 214.69 97.25 214.0 97.25 C
214.0 97.25 L
204.0 97.25 L
203.31 97.25 202.75 96.69 202.75 96.0 C
202.75 95.31 203.31 94.75 204.0 94.75 C
P
224.0 94.75 M
224.0 94.75 L
234.0 94.75 L
234.69 94.75 235.25 95.31 235.25 96.0 C
235.25 96.69 234.69 97.25 234.0 97.25 C
234.0 97.25 L
224.0 97.25 L
223.31 97.25 222.75 96.69 222.75 96.0 C
222.75 95.31 223.31 94.75 224.0 94.75 C
P
64.0 94.75 M
64.0 94.75 L
74.0 94.75 L
74.69 94.75 75.25 95.31 75.25 96.0 C
75.25 96.69 74.69 97.25 74.0 97.25 C
74.0 97.25 L
64.0 97.25 L
63.31 97.25 62.75 96.69 62.75 96.0 C
62.75 95.31 63.31 94.75 64.0 94.75 C
P
G
WC
WF
R N
N
238.79 287.685 M
238.79 287.685 L
239.956 283.213 244.518 279.25 253.689 279.25 C
253.689 280.5 L
253.689 279.25 L
261.732 279.25 265.304 284.882 265.304 289.731 C
265.304 289.731 L
265.304 293.118 263.436 296.75 259.556 296.75 C
259.556 295.5 L
259.556 296.75 L
255.982 296.75 254.068 293.629 254.068 290.437 C
254.068 290.437 L
254.068 285.229 258.736 279.25 269.333 279.25 C
269.333 280.5 L
269.333 279.25 L
279.931 279.25 284.599 285.229 284.599 290.437 C
284.599 290.437 L
284.599 293.629 282.685 296.75 279.111 296.75 C
279.111 295.5 L
279.111 296.75 L
275.538 296.75 273.624 293.629 273.624 290.437 C
273.624 290.437 L
273.624 285.229 278.291 279.25 288.889 279.25 C
288.889 280.5 L
288.889 279.25 L
299.486 279.25 304.154 285.229 304.154 290.437 C
304.154 290.437 L
304.154 293.629 302.24 296.75 298.667 296.75 C
298.667 295.5 L
298.667 296.75 L
295.093 296.75 293.179 293.629 293.179 290.437 C
293.179 290.437 L
293.179 285.229 297.847 279.25 308.444 279.25 C
308.444 280.5 L
308.444 279.25 L
319.042 279.25 323.71 285.229 323.71 290.437 C
323.71 290.437 L
323.71 293.629 321.796 296.75 318.222 296.75 C
318.222 295.5 L
318.222 296.75 L
314.649 296.75 312.735 293.629 312.735 290.437 C
312.735 290.437 L
312.735 285.229 317.403 279.25 328.0 279.25 C
328.0 280.5 L
328.0 279.25 L
338.597 279.25 343.265 285.229 343.265 290.437 C
343.265 290.437 L
343.265 293.629 341.351 296.75 337.778 296.75 C
337.778 295.5 L
337.778 296.75 L
334.204 296.75 332.29 293.629 332.29 290.437 C
332.29 290.437 L
332.29 285.229 336.958 279.25 347.556 279.25 C
347.556 280.5 L
347.556 279.25 L
358.153 279.25 362.821 285.229 362.821 290.437 C
362.821 290.437 L
362.821 293.629 360.907 296.75 357.333 296.75 C
357.333 295.5 L
357.333 296.75 L
353.76 296.75 351.846 293.629 351.846 290.437 C
351.846 290.437 L
351.846 285.229 356.514 279.25 367.111 279.25 C
367.111 280.5 L
367.111 279.25 L
377.709 279.25 382.376 285.229 382.376 290.437 C
382.376 290.437 L
382.376 293.629 380.462 296.75 376.889 296.75 C
376.889 295.5 L
376.889 296.75 L
373.315 296.75 371.401 293.629 371.401 290.437 C
371.401 290.437 L
371.401 285.229 376.069 279.25 386.667 279.25 C
386.667 280.5 L
386.667 279.25 L
397.264 279.25 401.932 285.229 401.932 290.437 C
401.932 290.437 L
401.932 293.629 400.018 296.75 396.444 296.75 C
396.444 295.5 L
396.444 296.75 L
392.564 296.75 390.696 293.118 390.696 289.731 C
390.696 289.731 L
390.696 284.882 394.268 279.25 402.311 279.25 C
402.311 280.5 L
402.311 279.25 L
411.482 279.25 416.044 283.213 417.21 287.685 C
417.525 288.894 L
415.106 289.525 L
414.79 288.315 L
414.001 285.287 410.74 281.75 402.311 281.75 C
402.311 281.75 L
395.781 281.75 393.196 286.126 393.196 289.731 C
393.196 289.731 L
393.196 292.529 394.622 294.25 396.444 294.25 C
396.444 294.25 L
398.135 294.25 399.432 292.811 399.432 290.437 C
399.432 290.437 L
399.432 286.938 396.237 281.75 386.667 281.75 C
386.667 281.75 L
377.097 281.75 373.901 286.938 373.901 290.437 C
373.901 290.437 L
373.901 292.811 375.199 294.25 376.889 294.25 C
376.889 294.25 L
378.579 294.25 379.876 292.811 379.876 290.437 C
379.876 290.437 L
379.876 286.938 376.681 281.75 367.111 281.75 C
367.111 281.75 L
357.541 281.75 354.346 286.938 354.346 290.437 C
354.346 290.437 L
354.346 292.811 355.643 294.25 357.333 294.25 C
357.333 294.25 L
359.024 294.25 360.321 292.811 360.321 290.437 C
360.321 290.437 L
360.321 286.938 357.125 281.75 347.556 281.75 C
347.556 281.75 L
337.986 281.75 334.79 286.938 334.79 290.437 C
334.79 290.437 L
334.79 292.811 336.088 294.25 337.778 294.25 C
337.778 294.25 L
339.468 294.25 340.765 292.811 340.765 290.437 C
340.765 290.437 L
340.765 286.938 337.57 281.75 328.0 281.75 C
328.0 281.75 L
318.43 281.75 315.235 286.938 315.235 290.437 C
315.235 290.437 L
315.235 292.811 316.532 294.25 318.222 294.25 C
318.222 294.25 L
319.912 294.25 321.21 292.811 321.21 290.437 C
321.21 290.437 L
321.21 286.938 318.014 281.75 308.444 281.75 C
308.444 281.75 L
298.875 281.75 295.679 286.938 295.679 290.437 C
295.679 290.437 L
295.679 292.811 296.977 294.25 298.667 294.25 C
298.667 294.25 L
300.357 294.25 301.654 292.811 301.654 290.437 C
301.654 290.437 L
301.654 286.938 298.459 281.75 288.889 281.75 C
288.889 281.75 L
279.319 281.75 276.124 286.938 276.124 290.437 C
276.124 290.437 L
276.124 292.811 277.421 294.25 279.111 294.25 C
279.111 294.25 L
280.801 294.25 282.099 292.811 282.099 290.437 C
282.099 290.437 L
282.099 286.938 278.903 281.75 269.333 281.75 C
269.333 281.75 L
259.763 281.75 256.568 286.938 256.568 290.437 C
256.568 290.437 L
256.568 292.811 257.865 294.25 259.556 294.25 C
259.556 294.25 L
261.378 294.25 262.804 292.529 262.804 289.731 C
262.804 289.731 L
262.804 286.126 260.219 281.75 253.689 281.75 C
253.689 281.75 L
245.26 281.75 241.999 285.287 241.21 288.315 C
240.894 289.525 L
238.475 288.894 L
P
G
WC
WF
R N
pgSave restore
showpage
%%EOF
