%!PS-Adobe-3.0 EPSF-3.0
%%BoundingBox: 86 364 538 660
%%Creator: hjf with JaxoDraw-2.1-0
%%Title: 
%%CreationDate: 16/9/2013
%%BeginProlog
/imStr 0 def /imageSrc {currentfile /ASCII85Decode filter /RunLengthDecode filter  imStr readstring pop } def
/BD {bind def} bind def
/D {def} BD
/C {curveto} BD
/L {lineto} BD
/M {moveto} BD
/R {grestore} BD
/G {gsave} BD
/N {newpath} BD
/P {closepath} BD
/EC {eoclip} BD
/WC {clip} BD
/EF {eofill} BD
/WF {fill} BD
/SG {setgray} BD
/SC {setrgbcolor} BD
/ISOF {
     dup findfont dup length 1 add dict begin {
             1 index /FID eq {pop pop} {D} ifelse
     } forall /Encoding ISOLatin1Encoding D
     currentdict end definefont
} BD
/NZ {dup 1 lt {pop 1} if} BD
/S {
     moveto 1 index stringwidth pop NZ sub
     1 index length 1 sub NZ div 0
     3 2 roll ashow newpath} BD
/FL [
    /AvantGarde-Book ISOF
    /AvantGarde-BookOblique ISOF
    /AvantGarde-Demi ISOF
    /AvantGarde-DemiOblique ISOF
    /Bookman-Demi ISOF
    /Bookman-DemiItalic ISOF
    /Bookman-Light ISOF
    /Bookman-LightItalic ISOF
    /Courier ISOF
    /Courier-Bold ISOF
    /Courier-BoldOblique ISOF
    /Courier-Oblique ISOF
    /Helvetica ISOF
    /Helvetica-Bold ISOF
    /Helvetica-BoldOblique ISOF
    /Helvetica-Narrow ISOF
    /Helvetica-Narrow-Bold ISOF
    /Helvetica-Narrow-BoldOblique ISOF
    /Helvetica-Narrow-Oblique ISOF
    /Helvetica-Oblique ISOF
    /NewCenturySchlbk-Bold ISOF
    /NewCenturySchlbk-BoldItalic ISOF
    /NewCenturySchlbk-Italic ISOF
    /NewCenturySchlbk-Roman ISOF
    /Palatino-Bold ISOF
    /Palatino-BoldItalic ISOF
    /Palatino-Italic ISOF
    /Palatino-Roman ISOF
    /Symbol findfont
    /Times-Bold ISOF
    /Times-BoldItalic ISOF
    /Times-Italic ISOF
    /Times-Roman ISOF
    /ZapfDingbats findfont
    /ZapfChancery-MediumItalic ISOF
] D
/F {
     FL exch get exch scalefont
     [1 0 0 -1 0 0] makefont setfont} BD
%%EndProlog
%%BeginSetup
<< /PageSize [612.0 792.0] /DeferredMediaSelection true /ImagingBBox null /ManualFeed false /NumCopies 1 >> pop 
%%EndSetup
%%Page: 1 1
/pgSave save def
792.0 0 exch translate 1 -1 scale[72 300 div 0 0 72 300 div 0 0]concat
G
[4.1666665 0.0 0.0 4.1666665 300.0 300.0] concat
N
0.0 0.0 M
468.0 0.0 L
468.0 648.0 L
0.0 648.0 L
0.0 0.0 L
P
WC
N
15.333 62.943 M
15.333 62.943 L
19.148 60.536 24.835 60.461 30.587 66.213 C
29.703 67.097 L
30.587 66.213 L
35.931 71.556 34.366 77.848 31.004 81.21 C
31.004 81.21 L
28.577 83.637 24.607 84.981 21.813 82.187 C
22.697 81.303 L
21.813 82.187 L
19.22 79.595 20.19 75.937 22.488 73.639 C
22.488 73.639 L
26.1 70.027 33.302 68.928 40.187 75.813 C
39.303 76.697 L
40.187 75.813 L
47.072 82.698 45.973 89.9 42.361 93.512 C
42.361 93.512 L
40.063 95.81 36.405 96.78 33.813 94.187 C
34.697 93.303 L
33.813 94.187 L
31.22 91.595 32.19 87.937 34.488 85.639 C
34.488 85.639 L
38.1 82.027 45.302 80.928 52.187 87.813 C
51.303 88.697 L
52.187 87.813 L
59.072 94.698 57.973 101.9 54.361 105.512 C
54.361 105.512 L
52.063 107.81 48.405 108.78 45.813 106.187 C
46.697 105.303 L
45.813 106.187 L
43.019 103.393 44.363 99.423 46.79 96.996 C
46.79 96.996 L
50.152 93.634 56.444 92.069 61.787 97.413 C
61.973 97.599 L
61.787 97.413 L
67.539 103.165 67.464 108.852 65.057 112.667 C
64.39 113.724 L
62.276 112.39 L
62.943 111.333 L
64.639 108.644 65.067 104.228 60.019 99.181 C
60.903 98.297 L
60.019 99.181 L
55.821 94.982 51.121 96.2 48.557 98.764 C
48.557 98.764 L
46.51 100.811 46.268 103.107 47.581 104.419 C
47.581 104.419 L
47.581 104.419 L
48.803 105.642 50.824 105.514 52.593 103.744 C
52.593 103.744 L
55.092 101.245 56.47 95.631 50.419 89.581 C
49.44 88.601 L
50.419 89.581 L
44.369 83.53 38.755 84.908 36.256 87.407 C
36.256 87.407 L
34.486 89.176 34.358 91.197 35.581 92.419 C
35.692 92.53 L
35.581 92.419 L
36.803 93.642 38.824 93.514 40.593 91.744 C
40.593 91.744 L
43.092 89.245 44.47 83.631 38.419 77.581 C
37.44 76.601 L
38.419 77.581 L
32.369 71.53 26.755 72.908 24.256 75.407 C
24.256 75.407 L
22.486 77.176 22.358 79.197 23.581 80.419 C
25.626 82.465 L
23.581 80.419 L
24.893 81.732 27.189 81.49 29.236 79.443 C
29.236 79.443 L
31.8 76.879 33.018 72.179 28.819 67.981 C
28.819 67.981 L
28.819 67.981 L
23.772 62.933 19.356 63.361 16.667 65.057 C
15.61 65.724 L
14.276 63.61 L
P
G
WC
WF
R N
N
464.667 353.057 M
464.667 353.057 L
460.852 355.464 455.165 355.54 449.413 349.787 C
450.297 348.903 L
449.413 349.787 L
444.069 344.444 445.634 338.152 448.996 334.79 C
448.996 334.79 L
451.423 332.363 455.393 331.019 458.187 333.813 C
458.218 333.844 L
458.187 333.813 L
460.78 336.405 459.81 340.063 457.512 342.361 C
457.512 342.361 L
453.9 345.973 446.698 347.072 439.813 340.187 C
439.813 340.187 L
439.813 340.187 L
432.928 333.302 434.027 326.1 437.639 322.488 C
437.639 322.488 L
439.937 320.19 443.595 319.22 446.187 321.813 C
446.218 321.844 L
446.187 321.813 L
448.78 324.405 447.81 328.063 445.512 330.361 C
445.512 330.361 L
441.9 333.973 434.698 335.072 427.813 328.187 C
428.697 327.303 L
427.813 328.187 L
420.928 321.302 422.027 314.1 425.639 310.488 C
425.639 310.488 L
427.937 308.19 431.595 307.22 434.187 309.813 C
434.218 309.844 L
434.187 309.813 L
436.981 312.607 435.637 316.577 433.21 319.004 C
433.21 319.004 L
429.848 322.366 423.556 323.931 418.213 318.587 C
419.097 317.703 L
418.213 318.587 L
412.46 312.835 412.536 307.148 414.943 303.333 C
415.61 302.276 L
417.724 303.61 L
417.057 304.667 L
415.361 307.356 414.933 311.772 419.981 316.819 C
420.106 316.944 L
419.981 316.819 L
424.179 321.018 428.879 319.8 431.443 317.236 C
431.443 317.236 L
433.49 315.189 433.732 312.893 432.419 311.581 C
433.303 310.697 L
432.419 311.581 L
431.197 310.358 429.176 310.486 427.407 312.256 C
427.407 312.256 L
424.908 314.755 423.53 320.369 429.581 326.419 C
429.581 326.419 L
435.631 332.47 441.245 331.092 443.744 328.593 C
443.744 328.593 L
445.514 326.824 445.642 324.803 444.419 323.581 C
445.303 322.697 L
444.419 323.581 L
443.197 322.358 441.176 322.486 439.407 324.256 C
439.407 324.256 L
436.908 326.755 435.53 332.369 441.581 338.419 C
440.697 339.303 L
441.581 338.419 L
447.632 344.47 453.245 343.092 455.744 340.593 C
455.744 340.593 L
457.514 338.824 457.642 336.803 456.419 335.581 C
457.303 334.697 L
456.419 335.581 L
455.107 334.268 452.811 334.51 450.764 336.557 C
450.764 336.557 L
448.2 339.121 446.982 343.821 451.181 348.019 C
451.261 348.1 L
451.181 348.019 L
456.228 353.067 460.644 352.639 463.333 350.943 C
464.39 350.276 L
465.724 352.39 L
P
G
WC
WF
R N
N
414.943 112.667 M
414.943 112.667 L
412.536 108.852 412.46 103.165 418.213 97.413 C
419.097 98.297 L
418.213 97.413 L
423.556 92.069 429.848 93.634 433.21 96.996 C
433.21 96.996 L
435.637 99.423 436.981 103.393 434.187 106.187 C
434.249 106.125 L
434.187 106.187 L
431.595 108.78 427.937 107.81 425.639 105.512 C
425.639 105.512 L
422.027 101.9 420.928 94.698 427.813 87.813 C
426.833 88.792 L
427.813 87.813 L
434.698 80.928 441.9 82.027 445.512 85.639 C
445.512 85.639 L
447.81 87.937 448.78 91.595 446.187 94.187 C
446.249 94.125 L
446.187 94.187 L
443.595 96.78 439.937 95.81 437.639 93.512 C
437.639 93.512 L
434.027 89.9 432.928 82.698 439.813 75.813 C
440.697 76.697 L
439.813 75.813 L
446.698 68.928 453.9 70.027 457.512 73.639 C
457.512 73.639 L
459.81 75.937 460.78 79.595 458.187 82.187 C
458.352 82.023 L
458.187 82.187 L
455.393 84.981 451.423 83.637 448.996 81.21 C
448.996 81.21 L
445.634 77.848 444.069 71.556 449.413 66.213 C
447.738 67.887 L
449.413 66.213 L
455.165 60.461 460.852 60.536 464.667 62.943 C
465.724 63.61 L
464.39 65.724 L
463.333 65.057 L
460.644 63.361 456.228 62.933 451.181 67.981 C
450.297 67.097 L
451.181 67.981 L
446.982 72.179 448.2 76.879 450.764 79.443 C
450.764 79.443 L
452.811 81.49 455.107 81.732 456.419 80.419 C
457.303 81.303 L
456.419 80.419 L
457.642 79.197 457.514 77.176 455.744 75.407 C
455.744 75.407 L
453.245 72.908 447.632 71.53 441.581 77.581 C
441.917 77.244 L
441.581 77.581 L
435.53 83.631 436.908 89.245 439.407 91.744 C
439.407 91.744 L
441.176 93.514 443.197 93.642 444.419 92.419 C
445.303 93.303 L
444.419 92.419 L
445.642 91.197 445.514 89.176 443.744 87.407 C
443.744 87.407 L
441.245 84.908 435.631 83.53 429.581 89.581 C
428.697 88.697 L
429.581 89.581 L
423.53 95.631 424.908 101.245 427.407 103.744 C
427.407 103.744 L
429.176 105.514 431.197 105.642 432.419 104.419 C
433.303 105.303 L
432.419 104.419 L
433.732 103.107 433.49 100.811 431.443 98.764 C
431.443 98.764 L
428.879 96.2 424.179 94.982 419.981 99.181 C
418.781 100.381 L
419.981 99.181 L
414.933 104.228 415.361 108.644 417.057 111.333 C
417.724 112.39 L
415.61 113.724 L
P
G
WC
WF
R N
N
65.057 303.333 M
65.057 303.333 L
67.464 307.148 67.539 312.835 61.787 318.587 C
61.787 318.587 L
61.787 318.587 L
56.444 323.931 50.152 322.366 46.79 319.004 C
46.79 319.004 L
44.363 316.577 43.019 312.607 45.813 309.813 C
45.172 310.454 L
45.813 309.813 L
48.405 307.22 52.063 308.19 54.361 310.488 C
54.361 310.488 L
57.973 314.1 59.072 321.302 52.187 328.187 C
53.44 326.935 L
52.187 328.187 L
45.302 335.072 38.1 333.973 34.488 330.361 C
34.488 330.361 L
32.19 328.063 31.22 324.405 33.813 321.813 C
33.897 321.729 L
33.813 321.813 L
36.405 319.22 40.063 320.19 42.361 322.488 C
42.361 322.488 L
45.973 326.1 47.072 333.302 40.187 340.187 C
40.45 339.924 L
40.187 340.187 L
33.302 347.072 26.1 345.973 22.488 342.361 C
22.488 342.361 L
20.19 340.063 19.22 336.405 21.813 333.813 C
21.503 334.123 L
21.813 333.813 L
24.607 331.019 28.577 332.363 31.004 334.79 C
31.004 334.79 L
34.366 338.152 35.931 344.444 30.587 349.787 C
29.703 348.903 L
30.587 349.787 L
24.835 355.54 19.148 355.464 15.333 353.057 C
14.276 352.39 L
15.61 350.276 L
16.667 350.943 L
19.356 352.639 23.772 353.067 28.819 348.019 C
28.944 347.894 L
28.819 348.019 L
33.018 343.821 31.8 339.121 29.236 336.557 C
29.236 336.557 L
27.189 334.51 24.893 334.268 23.581 335.581 C
22.697 334.697 L
23.581 335.581 L
22.358 336.803 22.486 338.824 24.256 340.593 C
24.256 340.593 L
26.755 343.092 32.369 344.47 38.419 338.419 C
39.303 339.303 L
38.419 338.419 L
44.47 332.369 43.092 326.755 40.593 324.256 C
40.593 324.256 L
38.824 322.486 36.803 322.358 35.581 323.581 C
34.697 322.697 L
35.581 323.581 L
34.358 324.803 34.486 326.824 36.256 328.593 C
36.256 328.593 L
38.755 331.092 44.369 332.47 50.419 326.419 C
51.303 327.303 L
50.419 326.419 L
56.47 320.369 55.092 314.755 52.593 312.256 C
52.593 312.256 L
50.824 310.486 48.803 310.358 47.581 311.581 C
46.697 310.697 L
47.581 311.581 L
46.268 312.893 46.51 315.189 48.557 317.236 C
48.557 317.236 L
51.121 319.8 55.821 321.018 60.019 316.819 C
60.903 317.703 L
60.019 316.819 L
65.067 311.772 64.639 307.356 62.943 304.667 C
62.276 303.61 L
64.39 302.276 L
P
G
WC
WF
R N
N
417.25 132.0 M
417.25 132.0 L
417.25 142.0 L
417.25 142.69 416.69 143.25 416.0 143.25 C
415.31 143.25 414.75 142.69 414.75 142.0 C
414.75 142.0 L
414.75 132.0 L
414.75 131.31 415.31 130.75 416.0 130.75 C
416.69 130.75 417.25 131.31 417.25 132.0 C
P
417.25 152.0 M
417.25 152.0 L
417.25 162.0 L
417.25 162.69 416.69 163.25 416.0 163.25 C
415.31 163.25 414.75 162.69 414.75 162.0 C
414.75 162.0 L
414.75 152.0 L
414.75 151.31 415.31 150.75 416.0 150.75 C
416.69 150.75 417.25 151.31 417.25 152.0 C
P
417.25 172.0 M
417.25 172.0 L
417.25 182.0 L
417.25 182.69 416.69 183.25 416.0 183.25 C
415.31 183.25 414.75 182.69 414.75 182.0 C
414.75 182.0 L
414.75 172.0 L
414.75 171.31 415.31 170.75 416.0 170.75 C
416.69 170.75 417.25 171.31 417.25 172.0 C
P
417.25 192.0 M
417.25 192.0 L
417.25 202.0 L
417.25 202.69 416.69 203.25 416.0 203.25 C
415.31 203.25 414.75 202.69 414.75 202.0 C
414.75 202.0 L
414.75 192.0 L
414.75 191.31 415.31 190.75 416.0 190.75 C
416.69 190.75 417.25 191.31 417.25 192.0 C
P
417.25 212.0 M
417.25 212.0 L
417.25 222.0 L
417.25 222.69 416.69 223.25 416.0 223.25 C
415.31 223.25 414.75 222.69 414.75 222.0 C
414.75 222.0 L
414.75 212.0 L
414.75 211.31 415.31 210.75 416.0 210.75 C
416.69 210.75 417.25 211.31 417.25 212.0 C
P
417.25 232.0 M
417.25 232.0 L
417.25 242.0 L
417.25 242.69 416.69 243.25 416.0 243.25 C
415.31 243.25 414.75 242.69 414.75 242.0 C
414.75 242.0 L
414.75 232.0 L
414.75 231.31 415.31 230.75 416.0 230.75 C
416.69 230.75 417.25 231.31 417.25 232.0 C
P
417.25 252.0 M
417.25 252.0 L
417.25 262.0 L
417.25 262.69 416.69 263.25 416.0 263.25 C
415.31 263.25 414.75 262.69 414.75 262.0 C
414.75 262.0 L
414.75 252.0 L
414.75 251.31 415.31 250.75 416.0 250.75 C
416.69 250.75 417.25 251.31 417.25 252.0 C
P
417.25 272.0 M
417.25 272.0 L
417.25 282.0 L
417.25 282.69 416.69 283.25 416.0 283.25 C
415.31 283.25 414.75 282.69 414.75 282.0 C
414.75 282.0 L
414.75 272.0 L
414.75 271.31 415.31 270.75 416.0 270.75 C
416.69 270.75 417.25 271.31 417.25 272.0 C
P
417.25 292.0 M
417.25 292.0 L
417.25 302.0 L
417.25 302.69 416.69 303.25 416.0 303.25 C
415.31 303.25 414.75 302.69 414.75 302.0 C
414.75 302.0 L
414.75 292.0 L
414.75 291.31 415.31 290.75 416.0 290.75 C
416.69 290.75 417.25 291.31 417.25 292.0 C
P
417.25 112.0 M
417.25 112.0 L
417.25 122.0 L
417.25 122.69 416.69 123.25 416.0 123.25 C
415.31 123.25 414.75 122.69 414.75 122.0 C
414.75 122.0 L
414.75 112.0 L
414.75 111.31 415.31 110.75 416.0 110.75 C
416.69 110.75 417.25 111.31 417.25 112.0 C
P
G
WC
WF
R N
N
239.69 305.211 M
239.69 305.211 L
235.227 304.068 231.25 299.587 231.25 290.56 C
232.5 290.56 L
231.25 290.56 L
231.25 282.584 236.871 279.044 241.708 279.044 C
241.708 279.044 L
245.101 279.044 248.75 280.91 248.75 284.8 C
247.5 284.8 L
248.75 284.8 L
248.75 288.386 245.609 290.298 242.41 290.298 C
242.41 290.298 L
237.214 290.298 231.25 285.678 231.25 275.2 C
232.5 275.2 L
231.25 275.2 L
231.25 264.722 237.214 260.102 242.41 260.102 C
242.41 260.102 L
245.609 260.102 248.75 262.014 248.75 265.6 C
247.5 265.6 L
248.75 265.6 L
248.75 269.186 245.609 271.098 242.41 271.098 C
242.41 271.098 L
237.214 271.098 231.25 266.478 231.25 256.0 C
232.5 256.0 L
231.25 256.0 L
231.25 245.522 237.214 240.902 242.41 240.902 C
242.41 240.902 L
245.609 240.902 248.75 242.814 248.75 246.4 C
247.5 246.4 L
248.75 246.4 L
248.75 249.986 245.609 251.898 242.41 251.898 C
242.41 251.898 L
237.214 251.898 231.25 247.278 231.25 236.8 C
232.5 236.8 L
231.25 236.8 L
231.25 226.322 237.214 221.702 242.41 221.702 C
242.41 221.702 L
245.609 221.702 248.75 223.614 248.75 227.2 C
247.5 227.2 L
248.75 227.2 L
248.75 230.786 245.609 232.698 242.41 232.698 C
242.41 232.698 L
237.214 232.698 231.25 228.078 231.25 217.6 C
232.5 217.6 L
231.25 217.6 L
231.25 207.122 237.214 202.502 242.41 202.502 C
242.41 202.502 L
245.609 202.502 248.75 204.414 248.75 208.0 C
247.5 208.0 L
248.75 208.0 L
248.75 211.586 245.609 213.498 242.41 213.498 C
242.41 213.498 L
237.214 213.498 231.25 208.878 231.25 198.4 C
232.5 198.4 L
231.25 198.4 L
231.25 187.922 237.214 183.302 242.41 183.302 C
242.41 183.302 L
245.609 183.302 248.75 185.214 248.75 188.8 C
247.5 188.8 L
248.75 188.8 L
248.75 192.386 245.609 194.298 242.41 194.298 C
242.41 194.298 L
237.214 194.298 231.25 189.678 231.25 179.2 C
232.5 179.2 L
231.25 179.2 L
231.25 168.722 237.214 164.102 242.41 164.102 C
242.41 164.102 L
245.609 164.102 248.75 166.014 248.75 169.6 C
247.5 169.6 L
248.75 169.6 L
248.75 173.186 245.609 175.098 242.41 175.098 C
242.41 175.098 L
237.214 175.098 231.25 170.478 231.25 160.0 C
232.5 160.0 L
231.25 160.0 L
231.25 149.522 237.214 144.902 242.41 144.902 C
242.41 144.902 L
245.609 144.902 248.75 146.814 248.75 150.4 C
247.5 150.4 L
248.75 150.4 L
248.75 153.986 245.609 155.898 242.41 155.898 C
242.41 155.898 L
237.214 155.898 231.25 151.278 231.25 140.8 C
232.5 140.8 L
231.25 140.8 L
231.25 130.322 237.214 125.702 242.41 125.702 C
242.41 125.702 L
245.609 125.702 248.75 127.614 248.75 131.2 C
247.5 131.2 L
248.75 131.2 L
248.75 135.09 245.101 136.956 241.708 136.956 C
241.708 136.956 L
236.871 136.956 231.25 133.416 231.25 125.44 C
232.5 125.44 L
231.25 125.44 L
231.25 116.413 235.227 111.932 239.69 110.789 C
240.901 110.479 L
241.521 112.901 L
240.31 113.211 L
237.273 113.988 233.75 117.187 233.75 125.44 C
233.75 125.44 L
233.75 131.888 238.1 134.456 241.708 134.456 C
241.708 134.456 L
244.519 134.456 246.25 133.027 246.25 131.2 C
246.25 131.2 L
246.25 129.505 244.8 128.202 242.41 128.202 C
242.41 128.202 L
238.906 128.202 233.75 131.37 233.75 140.8 C
233.75 140.8 L
233.75 150.23 238.906 153.398 242.41 153.398 C
242.41 153.398 L
244.8 153.398 246.25 152.095 246.25 150.4 C
246.25 150.4 L
246.25 148.705 244.8 147.402 242.41 147.402 C
242.41 147.402 L
238.906 147.402 233.75 150.57 233.75 160.0 C
233.75 160.0 L
233.75 169.43 238.906 172.598 242.41 172.598 C
242.41 172.598 L
244.8 172.598 246.25 171.295 246.25 169.6 C
246.25 169.6 L
246.25 167.905 244.8 166.602 242.41 166.602 C
242.41 166.602 L
238.906 166.602 233.75 169.77 233.75 179.2 C
233.75 179.2 L
233.75 188.63 238.906 191.798 242.41 191.798 C
242.41 191.798 L
244.8 191.798 246.25 190.495 246.25 188.8 C
246.25 188.8 L
246.25 187.105 244.8 185.802 242.41 185.802 C
242.41 185.802 L
238.906 185.802 233.75 188.97 233.75 198.4 C
233.75 198.4 L
233.75 207.83 238.906 210.998 242.41 210.998 C
242.41 210.998 L
244.8 210.998 246.25 209.695 246.25 208.0 C
246.25 208.0 L
246.25 206.305 244.8 205.002 242.41 205.002 C
242.41 205.002 L
238.906 205.002 233.75 208.17 233.75 217.6 C
233.75 217.6 L
233.75 227.03 238.906 230.198 242.41 230.198 C
242.41 230.198 L
244.8 230.198 246.25 228.895 246.25 227.2 C
246.25 227.2 L
246.25 225.505 244.8 224.202 242.41 224.202 C
242.41 224.202 L
238.906 224.202 233.75 227.37 233.75 236.8 C
233.75 236.8 L
233.75 246.23 238.906 249.398 242.41 249.398 C
242.41 249.398 L
244.8 249.398 246.25 248.095 246.25 246.4 C
246.25 246.4 L
246.25 244.705 244.8 243.402 242.41 243.402 C
242.41 243.402 L
238.906 243.402 233.75 246.57 233.75 256.0 C
233.75 256.0 L
233.75 265.43 238.906 268.598 242.41 268.598 C
242.41 268.598 L
244.8 268.598 246.25 267.295 246.25 265.6 C
246.25 265.6 L
246.25 263.905 244.8 262.602 242.41 262.602 C
242.41 262.602 L
238.906 262.602 233.75 265.77 233.75 275.2 C
233.75 275.2 L
233.75 284.63 238.906 287.798 242.41 287.798 C
242.41 287.798 L
244.8 287.798 246.25 286.495 246.25 284.8 C
246.25 284.8 L
246.25 282.973 244.519 281.544 241.708 281.544 C
241.708 281.544 L
238.1 281.544 233.75 284.112 233.75 290.56 C
233.75 290.56 L
233.75 298.813 237.273 302.012 240.31 302.789 C
241.521 303.099 L
240.901 305.521 L
P
G
WC
WF
R N
N
62.75 284.0 M
62.75 284.0 L
62.75 274.0 L
62.75 273.31 63.31 272.75 64.0 272.75 C
64.69 272.75 65.25 273.31 65.25 274.0 C
65.25 274.0 L
65.25 284.0 L
65.25 284.69 64.69 285.25 64.0 285.25 C
63.31 285.25 62.75 284.69 62.75 284.0 C
P
62.75 264.0 M
62.75 264.0 L
62.75 254.0 L
62.75 253.31 63.31 252.75 64.0 252.75 C
64.69 252.75 65.25 253.31 65.25 254.0 C
65.25 254.0 L
65.25 264.0 L
65.25 264.69 64.69 265.25 64.0 265.25 C
63.31 265.25 62.75 264.69 62.75 264.0 C
P
62.75 244.0 M
62.75 244.0 L
62.75 234.0 L
62.75 233.31 63.31 232.75 64.0 232.75 C
64.69 232.75 65.25 233.31 65.25 234.0 C
65.25 234.0 L
65.25 244.0 L
65.25 244.69 64.69 245.25 64.0 245.25 C
63.31 245.25 62.75 244.69 62.75 244.0 C
P
62.75 224.0 M
62.75 224.0 L
62.75 214.0 L
62.75 213.31 63.31 212.75 64.0 212.75 C
64.69 212.75 65.25 213.31 65.25 214.0 C
65.25 214.0 L
65.25 224.0 L
65.25 224.69 64.69 225.25 64.0 225.25 C
63.31 225.25 62.75 224.69 62.75 224.0 C
P
62.75 204.0 M
62.75 204.0 L
62.75 194.0 L
62.75 193.31 63.31 192.75 64.0 192.75 C
64.69 192.75 65.25 193.31 65.25 194.0 C
65.25 194.0 L
65.25 204.0 L
65.25 204.69 64.69 205.25 64.0 205.25 C
63.31 205.25 62.75 204.69 62.75 204.0 C
P
62.75 184.0 M
62.75 184.0 L
62.75 174.0 L
62.75 173.31 63.31 172.75 64.0 172.75 C
64.69 172.75 65.25 173.31 65.25 174.0 C
65.25 174.0 L
65.25 184.0 L
65.25 184.69 64.69 185.25 64.0 185.25 C
63.31 185.25 62.75 184.69 62.75 184.0 C
P
62.75 164.0 M
62.75 164.0 L
62.75 154.0 L
62.75 153.31 63.31 152.75 64.0 152.75 C
64.69 152.75 65.25 153.31 65.25 154.0 C
65.25 154.0 L
65.25 164.0 L
65.25 164.69 64.69 165.25 64.0 165.25 C
63.31 165.25 62.75 164.69 62.75 164.0 C
P
62.75 144.0 M
62.75 144.0 L
62.75 134.0 L
62.75 133.31 63.31 132.75 64.0 132.75 C
64.69 132.75 65.25 133.31 65.25 134.0 C
65.25 134.0 L
65.25 144.0 L
65.25 144.69 64.69 145.25 64.0 145.25 C
63.31 145.25 62.75 144.69 62.75 144.0 C
P
62.75 124.0 M
62.75 124.0 L
62.75 114.0 L
62.75 113.31 63.31 112.75 64.0 112.75 C
64.69 112.75 65.25 113.31 65.25 114.0 C
65.25 114.0 L
65.25 124.0 L
65.25 124.69 64.69 125.25 64.0 125.25 C
63.31 125.25 62.75 124.69 62.75 124.0 C
P
62.75 304.0 M
62.75 304.0 L
62.75 294.0 L
62.75 293.31 63.31 292.75 64.0 292.75 C
64.69 292.75 65.25 293.31 65.25 294.0 C
65.25 294.0 L
65.25 304.0 L
65.25 304.69 64.69 305.25 64.0 305.25 C
63.31 305.25 62.75 304.69 62.75 304.0 C
P
G
WC
WF
R N
N
396.0 305.25 M
396.0 305.25 L
386.0 305.25 L
385.31 305.25 384.75 304.69 384.75 304.0 C
384.75 303.31 385.31 302.75 386.0 302.75 C
386.0 302.75 L
396.0 302.75 L
396.69 302.75 397.25 303.31 397.25 304.0 C
397.25 304.69 396.69 305.25 396.0 305.25 C
P
376.0 305.25 M
376.0 305.25 L
366.0 305.25 L
365.31 305.25 364.75 304.69 364.75 304.0 C
364.75 303.31 365.31 302.75 366.0 302.75 C
366.0 302.75 L
376.0 302.75 L
376.69 302.75 377.25 303.31 377.25 304.0 C
377.25 304.69 376.69 305.25 376.0 305.25 C
P
356.0 305.25 M
356.0 305.25 L
346.0 305.25 L
345.31 305.25 344.75 304.69 344.75 304.0 C
344.75 303.31 345.31 302.75 346.0 302.75 C
346.0 302.75 L
356.0 302.75 L
356.69 302.75 357.25 303.31 357.25 304.0 C
357.25 304.69 356.69 305.25 356.0 305.25 C
P
336.0 305.25 M
336.0 305.25 L
326.0 305.25 L
325.31 305.25 324.75 304.69 324.75 304.0 C
324.75 303.31 325.31 302.75 326.0 302.75 C
326.0 302.75 L
336.0 302.75 L
336.69 302.75 337.25 303.31 337.25 304.0 C
337.25 304.69 336.69 305.25 336.0 305.25 C
P
316.0 305.25 M
316.0 305.25 L
306.0 305.25 L
305.31 305.25 304.75 304.69 304.75 304.0 C
304.75 303.31 305.31 302.75 306.0 302.75 C
306.0 302.75 L
316.0 302.75 L
316.69 302.75 317.25 303.31 317.25 304.0 C
317.25 304.69 316.69 305.25 316.0 305.25 C
P
296.0 305.25 M
296.0 305.25 L
286.0 305.25 L
285.31 305.25 284.75 304.69 284.75 304.0 C
284.75 303.31 285.31 302.75 286.0 302.75 C
286.0 302.75 L
296.0 302.75 L
296.69 302.75 297.25 303.31 297.25 304.0 C
297.25 304.69 296.69 305.25 296.0 305.25 C
P
276.0 305.25 M
276.0 305.25 L
266.0 305.25 L
265.31 305.25 264.75 304.69 264.75 304.0 C
264.75 303.31 265.31 302.75 266.0 302.75 C
266.0 302.75 L
276.0 302.75 L
276.69 302.75 277.25 303.31 277.25 304.0 C
277.25 304.69 276.69 305.25 276.0 305.25 C
P
256.0 305.25 M
256.0 305.25 L
246.0 305.25 L
245.31 305.25 244.75 304.69 244.75 304.0 C
244.75 303.31 245.31 302.75 246.0 302.75 C
246.0 302.75 L
256.0 302.75 L
256.69 302.75 257.25 303.31 257.25 304.0 C
257.25 304.69 256.69 305.25 256.0 305.25 C
P
416.0 305.25 M
416.0 305.25 L
406.0 305.25 L
405.31 305.25 404.75 304.69 404.75 304.0 C
404.75 303.31 405.31 302.75 406.0 302.75 C
406.0 302.75 L
416.0 302.75 L
416.69 302.75 417.25 303.31 417.25 304.0 C
417.25 304.69 416.69 305.25 416.0 305.25 C
P
G
WC
WF
R N
N
260.0 110.75 M
260.0 110.75 L
270.0 110.75 L
270.69 110.75 271.25 111.31 271.25 112.0 C
271.25 112.69 270.69 113.25 270.0 113.25 C
270.0 113.25 L
260.0 113.25 L
259.31 113.25 258.75 112.69 258.75 112.0 C
258.75 111.31 259.31 110.75 260.0 110.75 C
P
280.0 110.75 M
280.0 110.75 L
290.0 110.75 L
290.69 110.75 291.25 111.31 291.25 112.0 C
291.25 112.69 290.69 113.25 290.0 113.25 C
290.0 113.25 L
280.0 113.25 L
279.31 113.25 278.75 112.69 278.75 112.0 C
278.75 111.31 279.31 110.75 280.0 110.75 C
P
300.0 110.75 M
300.0 110.75 L
310.0 110.75 L
310.69 110.75 311.25 111.31 311.25 112.0 C
311.25 112.69 310.69 113.25 310.0 113.25 C
310.0 113.25 L
300.0 113.25 L
299.31 113.25 298.75 112.69 298.75 112.0 C
298.75 111.31 299.31 110.75 300.0 110.75 C
P
320.0 110.75 M
320.0 110.75 L
330.0 110.75 L
330.69 110.75 331.25 111.31 331.25 112.0 C
331.25 112.69 330.69 113.25 330.0 113.25 C
330.0 113.25 L
320.0 113.25 L
319.31 113.25 318.75 112.69 318.75 112.0 C
318.75 111.31 319.31 110.75 320.0 110.75 C
P
340.0 110.75 M
340.0 110.75 L
350.0 110.75 L
350.69 110.75 351.25 111.31 351.25 112.0 C
351.25 112.69 350.69 113.25 350.0 113.25 C
350.0 113.25 L
340.0 113.25 L
339.31 113.25 338.75 112.69 338.75 112.0 C
338.75 111.31 339.31 110.75 340.0 110.75 C
P
360.0 110.75 M
360.0 110.75 L
370.0 110.75 L
370.69 110.75 371.25 111.31 371.25 112.0 C
371.25 112.69 370.69 113.25 370.0 113.25 C
370.0 113.25 L
360.0 113.25 L
359.31 113.25 358.75 112.69 358.75 112.0 C
358.75 111.31 359.31 110.75 360.0 110.75 C
P
380.0 110.75 M
380.0 110.75 L
390.0 110.75 L
390.69 110.75 391.25 111.31 391.25 112.0 C
391.25 112.69 390.69 113.25 390.0 113.25 C
390.0 113.25 L
380.0 113.25 L
379.31 113.25 378.75 112.69 378.75 112.0 C
378.75 111.31 379.31 110.75 380.0 110.75 C
P
400.0 110.75 M
400.0 110.75 L
410.0 110.75 L
410.69 110.75 411.25 111.31 411.25 112.0 C
411.25 112.69 410.69 113.25 410.0 113.25 C
410.0 113.25 L
400.0 113.25 L
399.31 113.25 398.75 112.69 398.75 112.0 C
398.75 111.31 399.31 110.75 400.0 110.75 C
P
240.0 110.75 M
240.0 110.75 L
250.0 110.75 L
250.69 110.75 251.25 111.31 251.25 112.0 C
251.25 112.69 250.69 113.25 250.0 113.25 C
250.0 113.25 L
240.0 113.25 L
239.31 113.25 238.75 112.69 238.75 112.0 C
238.75 111.31 239.31 110.75 240.0 110.75 C
P
G
WC
WF
R N
N
220.0 305.25 M
220.0 305.25 L
210.0 305.25 L
209.31 305.25 208.75 304.69 208.75 304.0 C
208.75 303.31 209.31 302.75 210.0 302.75 C
210.0 302.75 L
220.0 302.75 L
220.69 302.75 221.25 303.31 221.25 304.0 C
221.25 304.69 220.69 305.25 220.0 305.25 C
P
200.0 305.25 M
200.0 305.25 L
190.0 305.25 L
189.31 305.25 188.75 304.69 188.75 304.0 C
188.75 303.31 189.31 302.75 190.0 302.75 C
190.0 302.75 L
200.0 302.75 L
200.69 302.75 201.25 303.31 201.25 304.0 C
201.25 304.69 200.69 305.25 200.0 305.25 C
P
180.0 305.25 M
180.0 305.25 L
170.0 305.25 L
169.31 305.25 168.75 304.69 168.75 304.0 C
168.75 303.31 169.31 302.75 170.0 302.75 C
170.0 302.75 L
180.0 302.75 L
180.69 302.75 181.25 303.31 181.25 304.0 C
181.25 304.69 180.69 305.25 180.0 305.25 C
P
160.0 305.25 M
160.0 305.25 L
150.0 305.25 L
149.31 305.25 148.75 304.69 148.75 304.0 C
148.75 303.31 149.31 302.75 150.0 302.75 C
150.0 302.75 L
160.0 302.75 L
160.69 302.75 161.25 303.31 161.25 304.0 C
161.25 304.69 160.69 305.25 160.0 305.25 C
P
140.0 305.25 M
140.0 305.25 L
130.0 305.25 L
129.31 305.25 128.75 304.69 128.75 304.0 C
128.75 303.31 129.31 302.75 130.0 302.75 C
130.0 302.75 L
140.0 302.75 L
140.69 302.75 141.25 303.31 141.25 304.0 C
141.25 304.69 140.69 305.25 140.0 305.25 C
P
120.0 305.25 M
120.0 305.25 L
110.0 305.25 L
109.31 305.25 108.75 304.69 108.75 304.0 C
108.75 303.31 109.31 302.75 110.0 302.75 C
110.0 302.75 L
120.0 302.75 L
120.69 302.75 121.25 303.31 121.25 304.0 C
121.25 304.69 120.69 305.25 120.0 305.25 C
P
100.0 305.25 M
100.0 305.25 L
90.0 305.25 L
89.31 305.25 88.75 304.69 88.75 304.0 C
88.75 303.31 89.31 302.75 90.0 302.75 C
90.0 302.75 L
100.0 302.75 L
100.69 302.75 101.25 303.31 101.25 304.0 C
101.25 304.69 100.69 305.25 100.0 305.25 C
P
80.0 305.25 M
80.0 305.25 L
70.0 305.25 L
69.31 305.25 68.75 304.69 68.75 304.0 C
68.75 303.31 69.31 302.75 70.0 302.75 C
70.0 302.75 L
80.0 302.75 L
80.69 302.75 81.25 303.31 81.25 304.0 C
81.25 304.69 80.69 305.25 80.0 305.25 C
P
240.0 305.25 M
240.0 305.25 L
230.0 305.25 L
229.31 305.25 228.75 304.69 228.75 304.0 C
228.75 303.31 229.31 302.75 230.0 302.75 C
230.0 302.75 L
240.0 302.75 L
240.69 302.75 241.25 303.31 241.25 304.0 C
241.25 304.69 240.69 305.25 240.0 305.25 C
P
G
WC
WF
R N
N
84.0 110.75 M
84.0 110.75 L
94.0 110.75 L
94.69 110.75 95.25 111.31 95.25 112.0 C
95.25 112.69 94.69 113.25 94.0 113.25 C
94.0 113.25 L
84.0 113.25 L
83.31 113.25 82.75 112.69 82.75 112.0 C
82.75 111.31 83.31 110.75 84.0 110.75 C
P
104.0 110.75 M
104.0 110.75 L
114.0 110.75 L
114.69 110.75 115.25 111.31 115.25 112.0 C
115.25 112.69 114.69 113.25 114.0 113.25 C
114.0 113.25 L
104.0 113.25 L
103.31 113.25 102.75 112.69 102.75 112.0 C
102.75 111.31 103.31 110.75 104.0 110.75 C
P
124.0 110.75 M
124.0 110.75 L
134.0 110.75 L
134.69 110.75 135.25 111.31 135.25 112.0 C
135.25 112.69 134.69 113.25 134.0 113.25 C
134.0 113.25 L
124.0 113.25 L
123.31 113.25 122.75 112.69 122.75 112.0 C
122.75 111.31 123.31 110.75 124.0 110.75 C
P
144.0 110.75 M
144.0 110.75 L
154.0 110.75 L
154.69 110.75 155.25 111.31 155.25 112.0 C
155.25 112.69 154.69 113.25 154.0 113.25 C
154.0 113.25 L
144.0 113.25 L
143.31 113.25 142.75 112.69 142.75 112.0 C
142.75 111.31 143.31 110.75 144.0 110.75 C
P
164.0 110.75 M
164.0 110.75 L
174.0 110.75 L
174.69 110.75 175.25 111.31 175.25 112.0 C
175.25 112.69 174.69 113.25 174.0 113.25 C
174.0 113.25 L
164.0 113.25 L
163.31 113.25 162.75 112.69 162.75 112.0 C
162.75 111.31 163.31 110.75 164.0 110.75 C
P
184.0 110.75 M
184.0 110.75 L
194.0 110.75 L
194.69 110.75 195.25 111.31 195.25 112.0 C
195.25 112.69 194.69 113.25 194.0 113.25 C
194.0 113.25 L
184.0 113.25 L
183.31 113.25 182.75 112.69 182.75 112.0 C
182.75 111.31 183.31 110.75 184.0 110.75 C
P
204.0 110.75 M
204.0 110.75 L
214.0 110.75 L
214.69 110.75 215.25 111.31 215.25 112.0 C
215.25 112.69 214.69 113.25 214.0 113.25 C
214.0 113.25 L
204.0 113.25 L
203.31 113.25 202.75 112.69 202.75 112.0 C
202.75 111.31 203.31 110.75 204.0 110.75 C
P
224.0 110.75 M
224.0 110.75 L
234.0 110.75 L
234.69 110.75 235.25 111.31 235.25 112.0 C
235.25 112.69 234.69 113.25 234.0 113.25 C
234.0 113.25 L
224.0 113.25 L
223.31 113.25 222.75 112.69 222.75 112.0 C
222.75 111.31 223.31 110.75 224.0 110.75 C
P
64.0 110.75 M
64.0 110.75 L
74.0 110.75 L
74.69 110.75 75.25 111.31 75.25 112.0 C
75.25 112.69 74.69 113.25 74.0 113.25 C
74.0 113.25 L
64.0 113.25 L
63.31 113.25 62.75 112.69 62.75 112.0 C
62.75 111.31 63.31 110.75 64.0 110.75 C
P
G
WC
WF
R N
pgSave restore
showpage
%%EOF
