%!PS-Adobe-3.0 EPSF-3.0
%%BoundingBox: 166 302 571 581
%%Creator: hjf with JaxoDraw-2.1-0
%%Title: 
%%CreationDate: 13/9/2013
%%BeginProlog
/imStr 0 def /imageSrc {currentfile /ASCII85Decode filter /RunLengthDecode filter  imStr readstring pop } def
/BD {bind def} bind def
/D {def} BD
/C {curveto} BD
/L {lineto} BD
/M {moveto} BD
/R {grestore} BD
/G {gsave} BD
/N {newpath} BD
/P {closepath} BD
/EC {eoclip} BD
/WC {clip} BD
/EF {eofill} BD
/WF {fill} BD
/SG {setgray} BD
/SC {setrgbcolor} BD
/ISOF {
     dup findfont dup length 1 add dict begin {
             1 index /FID eq {pop pop} {D} ifelse
     } forall /Encoding ISOLatin1Encoding D
     currentdict end definefont
} BD
/NZ {dup 1 lt {pop 1} if} BD
/S {
     moveto 1 index stringwidth pop NZ sub
     1 index length 1 sub NZ div 0
     3 2 roll ashow newpath} BD
/FL [
    /AvantGarde-Book ISOF
    /AvantGarde-BookOblique ISOF
    /AvantGarde-Demi ISOF
    /AvantGarde-DemiOblique ISOF
    /Bookman-Demi ISOF
    /Bookman-DemiItalic ISOF
    /Bookman-Light ISOF
    /Bookman-LightItalic ISOF
    /Courier ISOF
    /Courier-Bold ISOF
    /Courier-BoldOblique ISOF
    /Courier-Oblique ISOF
    /Helvetica ISOF
    /Helvetica-Bold ISOF
    /Helvetica-BoldOblique ISOF
    /Helvetica-Narrow ISOF
    /Helvetica-Narrow-Bold ISOF
    /Helvetica-Narrow-BoldOblique ISOF
    /Helvetica-Narrow-Oblique ISOF
    /Helvetica-Oblique ISOF
    /NewCenturySchlbk-Bold ISOF
    /NewCenturySchlbk-BoldItalic ISOF
    /NewCenturySchlbk-Italic ISOF
    /NewCenturySchlbk-Roman ISOF
    /Palatino-Bold ISOF
    /Palatino-BoldItalic ISOF
    /Palatino-Italic ISOF
    /Palatino-Roman ISOF
    /Symbol findfont
    /Times-Bold ISOF
    /Times-BoldItalic ISOF
    /Times-Italic ISOF
    /Times-Roman ISOF
    /ZapfDingbats findfont
    /ZapfChancery-MediumItalic ISOF
] D
/F {
     FL exch get exch scalefont
     [1 0 0 -1 0 0] makefont setfont} BD
%%EndProlog
%%BeginSetup
<< /PageSize [612.0 792.0] /DeferredMediaSelection true /ImagingBBox null /ManualFeed false /NumCopies 1 >> pop 
%%EndSetup
%%Page: 1 1
/pgSave save def
792.0 0 exch translate 1 -1 scale[72 300 div 0 0 72 300 div 0 0]concat
G
[4.1666665 0.0 0.0 4.1666665 300.0 300.0] concat
N
0.0 0.0 M
468.0 0.0 L
468.0 648.0 L
0.0 648.0 L
0.0 0.0 L
P
WC
N
128.0 222.75 M
128.0 222.75 L
256.0 222.75 L
257.25 222.75 L
257.25 225.25 L
256.0 225.25 L
128.0 225.25 L
126.75 225.25 L
126.75 222.75 L
P
G
WC
WF
R N
N
199.5 224.0 M
184.5 230.0 L
188.25 224.0 L
184.5 218.0 L
P
G
WC
WF
R N
N
199.686 224.464 M
199.686 224.464 L
184.686 230.464 L
183.265 231.032 L
184.076 229.735 L
187.826 223.735 L
188.25 224.0 L
187.826 224.265 L
184.076 218.265 L
183.265 216.968 L
184.686 217.536 L
199.686 223.536 L
200.846 224.0 L
199.686 224.464 L
199.314 223.536 M
199.5 224.0 L
199.314 224.464 L
184.314 218.464 L
184.5 218.0 L
184.924 217.735 L
188.674 223.735 L
188.84 224.0 L
188.674 224.265 L
184.924 230.265 L
184.5 230.0 L
184.314 229.536 L
199.314 223.536 L
P
G
WC
WF
R N
N
257.25 224.0 M
257.25 224.0 L
257.25 352.0 L
257.25 353.25 L
254.75 353.25 L
254.75 352.0 L
254.75 224.0 L
254.75 222.75 L
257.25 222.75 L
P
G
WC
WF
R N
N
256.0 295.5 M
250.0 280.5 L
256.0 284.25 L
262.0 280.5 L
P
G
WC
WF
R N
N
255.536 295.686 M
255.536 295.686 L
249.536 280.686 L
248.968 279.265 L
250.265 280.076 L
256.265 283.826 L
256.0 284.25 L
255.735 283.826 L
261.735 280.076 L
263.033 279.265 L
262.464 280.686 L
256.464 295.686 L
256.0 296.846 L
255.536 295.686 L
256.464 295.314 M
256.0 295.5 L
255.536 295.314 L
261.536 280.314 L
262.0 280.5 L
262.265 280.924 L
256.265 284.674 L
256.0 284.84 L
255.735 284.674 L
249.735 280.924 L
250.0 280.5 L
250.464 280.314 L
256.464 295.314 L
P
G
WC
WF
R N
N
256.0 353.25 M
256.0 353.25 L
128.0 353.25 L
126.75 353.25 L
126.75 350.75 L
128.0 350.75 L
256.0 350.75 L
257.25 350.75 L
257.25 353.25 L
P
G
WC
WF
R N
N
184.5 352.0 M
199.5 346.0 L
195.75 352.0 L
199.5 358.0 L
P
G
WC
WF
R N
N
184.314 351.536 M
184.314 351.536 L
199.314 345.536 L
200.735 344.968 L
199.924 346.265 L
196.174 352.265 L
195.75 352.0 L
196.174 351.735 L
199.924 357.735 L
200.735 359.033 L
199.314 358.464 L
184.314 352.464 L
183.154 352.0 L
184.314 351.536 L
184.686 352.464 M
184.5 352.0 L
184.686 351.536 L
199.686 357.536 L
199.5 358.0 L
199.076 358.265 L
195.326 352.265 L
195.16 352.0 L
195.326 351.735 L
199.076 345.735 L
199.5 346.0 L
199.686 346.464 L
184.686 352.464 L
P
G
WC
WF
R N
N
126.75 352.0 M
126.75 352.0 L
126.75 224.0 L
126.75 222.75 L
129.25 222.75 L
129.25 224.0 L
129.25 352.0 L
129.25 353.25 L
126.75 353.25 L
P
G
WC
WF
R N
N
128.0 280.5 M
134.0 295.5 L
128.0 291.75 L
122.0 295.5 L
P
G
WC
WF
R N
N
128.464 280.314 M
128.464 280.314 L
134.464 295.314 L
135.032 296.735 L
133.735 295.924 L
127.735 292.174 L
128.0 291.75 L
128.265 292.174 L
122.265 295.924 L
120.968 296.735 L
121.536 295.314 L
127.536 280.314 L
128.0 279.154 L
128.464 280.314 L
127.536 280.686 M
128.0 280.5 L
128.464 280.686 L
122.464 295.686 L
122.0 295.5 L
121.735 295.076 L
127.735 291.326 L
128.0 291.16 L
128.265 291.326 L
134.265 295.076 L
134.0 295.5 L
133.536 295.686 L
127.536 280.686 L
P
G
WC
WF
R N
N
127.116 224.884 M
127.116 224.884 L
95.116 192.884 L
94.232 192.0 L
96.0 190.232 L
96.884 191.116 L
128.884 223.116 L
129.768 224.0 L
128.0 225.768 L
P
G
WC
WF
R N
N
106.697 202.697 M
121.546 209.061 L
114.652 210.652 L
113.061 217.546 L
P
G
WC
WF
R N
N
106.894 202.237 M
106.894 202.237 L
121.743 208.601 L
123.149 209.204 L
121.658 209.548 L
114.764 211.139 L
114.652 210.652 L
115.139 210.764 L
113.548 217.658 L
113.204 219.149 L
112.601 217.743 L
106.237 202.894 L
105.745 201.745 L
106.894 202.237 L
106.5 203.156 M
106.697 202.697 L
107.156 202.5 L
113.52 217.349 L
113.061 217.546 L
112.573 217.434 L
114.164 210.539 L
114.235 210.235 L
114.539 210.164 L
121.434 208.573 L
121.546 209.061 L
121.349 209.52 L
106.5 203.156 L
P
G
WC
WF
R N
N
128.884 352.884 M
128.884 352.884 L
96.884 384.884 L
96.0 385.768 L
94.232 384.0 L
95.116 383.116 L
127.116 351.116 L
128.0 350.232 L
129.768 352.0 L
P
G
WC
WF
R N
N
106.697 373.303 M
113.061 358.454 L
114.652 365.348 L
121.546 366.939 L
P
G
WC
WF
R N
N
106.237 373.106 M
106.237 373.106 L
112.601 358.257 L
113.204 356.851 L
113.548 358.342 L
115.139 365.236 L
114.652 365.348 L
114.764 364.861 L
121.658 366.452 L
123.149 366.796 L
121.743 367.399 L
106.894 373.763 L
105.745 374.255 L
106.237 373.106 L
107.156 373.5 M
106.697 373.303 L
106.5 372.844 L
121.349 366.48 L
121.546 366.939 L
121.434 367.427 L
114.539 365.836 L
114.235 365.765 L
114.164 365.461 L
112.573 358.567 L
113.061 358.454 L
113.52 358.651 L
107.156 373.5 L
P
G
WC
WF
R N
N
255.657 222.798 M
255.657 222.798 L
367.657 190.798 L
368.859 190.455 L
369.545 192.859 L
368.343 193.202 L
256.343 225.202 L
255.142 225.545 L
254.455 223.142 L
P
G
WC
WF
R N
N
319.211 205.94 M
306.437 215.83 L
308.394 209.03 L
303.14 204.291 L
P
G
WC
WF
R N
N
319.518 206.335 M
319.518 206.335 L
306.743 216.225 L
305.533 217.162 L
305.956 215.691 L
307.914 208.892 L
308.394 209.03 L
308.059 209.401 L
302.805 204.663 L
301.669 203.638 L
303.191 203.794 L
319.262 205.442 L
320.506 205.57 L
319.518 206.335 L
318.905 205.544 M
319.211 205.94 L
319.16 206.437 L
303.089 204.789 L
303.14 204.291 L
303.475 203.92 L
308.729 208.659 L
308.961 208.868 L
308.875 209.169 L
306.917 215.968 L
306.437 215.83 L
306.131 215.434 L
318.905 205.544 L
P
G
WC
WF
R N
N
369.04 191.307 M
369.04 191.307 L
433.04 287.307 L
433.733 288.347 L
431.653 289.733 L
430.96 288.693 L
366.96 192.693 L
366.267 191.653 L
368.347 190.267 L
P
G
WC
WF
R N
N
404.16 246.24 M
390.847 237.088 L
397.92 236.88 L
400.832 230.431 L
P
G
WC
WF
R N
N
403.877 246.652 M
403.877 246.652 L
390.564 237.5 L
389.303 236.633 L
390.833 236.588 L
397.905 236.38 L
397.92 236.88 L
397.464 236.674 L
400.376 230.226 L
401.006 228.831 L
401.321 230.328 L
404.65 246.137 L
404.907 247.361 L
403.877 246.652 L
404.444 245.828 M
404.16 246.24 L
403.671 246.343 L
400.343 230.534 L
400.832 230.431 L
401.288 230.637 L
398.376 237.086 L
398.247 237.37 L
397.935 237.38 L
390.862 237.588 L
390.847 237.088 L
391.131 236.676 L
404.444 245.828 L
P
G
WC
WF
R N
N
433.04 288.693 M
433.04 288.693 L
369.04 384.693 L
368.347 385.733 L
366.267 384.347 L
366.96 383.307 L
430.96 287.307 L
431.653 286.267 L
433.733 287.653 L
P
G
WC
WF
R N
N
395.84 342.24 M
399.168 326.431 L
402.08 332.88 L
409.153 333.088 L
P
G
WC
WF
R N
N
395.35 342.137 M
395.35 342.137 L
398.679 326.328 L
398.994 324.831 L
399.624 326.226 L
402.536 332.674 L
402.08 332.88 L
402.095 332.38 L
409.167 332.588 L
410.697 332.633 L
409.436 333.5 L
396.123 342.652 L
395.093 343.361 L
395.35 342.137 L
396.329 342.343 M
395.84 342.24 L
395.557 341.828 L
408.869 332.676 L
409.153 333.088 L
409.138 333.588 L
402.065 333.38 L
401.753 333.37 L
401.624 333.086 L
398.712 326.637 L
399.168 326.431 L
399.657 326.534 L
396.329 342.343 L
P
G
WC
WF
R N
N
367.657 385.202 M
367.657 385.202 L
255.657 353.202 L
254.455 352.859 L
255.142 350.455 L
256.343 350.798 L
368.343 382.798 L
369.545 383.142 L
368.859 385.545 L
P
G
WC
WF
R N
N
304.789 365.94 M
320.86 364.291 L
315.606 369.03 L
317.563 375.83 L
P
G
WC
WF
R N
N
304.738 365.442 M
304.738 365.442 L
320.809 363.794 L
322.331 363.638 L
321.195 364.663 L
315.941 369.402 L
315.606 369.03 L
316.086 368.892 L
318.044 375.691 L
318.467 377.162 L
317.257 376.225 L
304.482 366.335 L
303.494 365.57 L
304.738 365.442 L
304.84 366.437 M
304.789 365.94 L
305.095 365.544 L
317.869 375.434 L
317.563 375.83 L
317.083 375.968 L
315.125 369.169 L
315.039 368.868 L
315.271 368.659 L
320.525 363.92 L
320.86 364.291 L
320.911 364.789 L
304.84 366.437 L
P
G
WC
WF
R N
N
366.882 191.441 M
366.882 191.441 L
382.882 159.441 L
383.441 158.323 L
385.677 159.441 L
385.118 160.559 L
369.118 192.559 L
368.559 193.677 L
366.323 192.559 L
P
G
WC
WF
R N
N
379.354 169.292 M
378.012 185.391 L
374.323 179.354 L
367.279 180.025 L
P
G
WC
WF
R N
N
379.852 169.333 M
379.852 169.333 L
378.511 185.433 L
378.384 186.958 L
377.586 185.652 L
373.896 179.615 L
374.323 179.354 L
374.37 179.852 L
367.327 180.523 L
365.804 180.668 L
366.947 179.651 L
379.022 168.918 L
379.956 168.088 L
379.852 169.333 L
378.856 169.25 M
379.354 169.292 L
379.686 169.666 L
367.612 180.399 L
367.279 180.025 L
367.232 179.527 L
374.276 178.856 L
374.587 178.827 L
374.75 179.093 L
378.439 185.131 L
378.012 185.391 L
377.514 185.35 L
378.856 169.25 L
P
G
WC
WF
R N
N
432.0 286.75 M
432.0 286.75 L
464.0 286.75 L
465.25 286.75 L
465.25 289.25 L
464.0 289.25 L
432.0 289.25 L
430.75 289.25 L
430.75 286.75 L
P
G
WC
WF
R N
N
455.5 288.0 M
440.5 294.0 L
444.25 288.0 L
440.5 282.0 L
P
G
WC
WF
R N
N
455.686 288.464 M
455.686 288.464 L
440.686 294.464 L
439.265 295.033 L
440.076 293.735 L
443.826 287.735 L
444.25 288.0 L
443.826 288.265 L
440.076 282.265 L
439.265 280.968 L
440.686 281.536 L
455.686 287.536 L
456.846 288.0 L
455.686 288.464 L
455.314 287.536 M
455.5 288.0 L
455.314 288.464 L
440.314 282.464 L
440.5 282.0 L
440.924 281.735 L
444.674 287.735 L
444.84 288.0 L
444.674 288.265 L
440.924 294.265 L
440.5 294.0 L
440.314 293.536 L
455.314 287.536 L
P
G
WC
WF
R N
N
369.118 383.441 M
369.118 383.441 L
385.118 415.441 L
385.677 416.559 L
383.441 417.677 L
382.882 416.559 L
366.882 384.559 L
366.323 383.441 L
368.559 382.323 L
P
G
WC
WF
R N
N
379.354 406.708 M
367.279 395.975 L
374.323 396.646 L
378.012 390.609 L
P
G
WC
WF
R N
N
379.022 407.082 M
379.022 407.082 L
366.947 396.349 L
365.804 395.332 L
367.327 395.477 L
374.37 396.148 L
374.323 396.646 L
373.896 396.385 L
377.586 390.348 L
378.384 389.042 L
378.511 390.567 L
379.852 406.667 L
379.956 407.912 L
379.022 407.082 L
379.686 406.334 M
379.354 406.708 L
378.856 406.75 L
377.514 390.65 L
378.012 390.609 L
378.439 390.869 L
374.75 396.907 L
374.587 397.173 L
374.276 397.144 L
367.232 396.473 L
367.279 395.975 L
367.612 395.601 L
379.686 406.334 L
P
G
WC
WF
R N
pgSave restore
showpage
%%EOF
