%!PS-Adobe-3.0 EPSF-3.0
%%BoundingBox: 102 526 338 690
%%Creator: hjf with JaxoDraw-2.1-0
%%Title: 
%%CreationDate: 13/9/2013
%%BeginProlog
/imStr 0 def /imageSrc {currentfile /ASCII85Decode filter /RunLengthDecode filter  imStr readstring pop } def
/BD {bind def} bind def
/D {def} BD
/C {curveto} BD
/L {lineto} BD
/M {moveto} BD
/R {grestore} BD
/G {gsave} BD
/N {newpath} BD
/P {closepath} BD
/EC {eoclip} BD
/WC {clip} BD
/EF {eofill} BD
/WF {fill} BD
/SG {setgray} BD
/SC {setrgbcolor} BD
/ISOF {
     dup findfont dup length 1 add dict begin {
             1 index /FID eq {pop pop} {D} ifelse
     } forall /Encoding ISOLatin1Encoding D
     currentdict end definefont
} BD
/NZ {dup 1 lt {pop 1} if} BD
/S {
     moveto 1 index stringwidth pop NZ sub
     1 index length 1 sub NZ div 0
     3 2 roll ashow newpath} BD
/FL [
    /AvantGarde-Book ISOF
    /AvantGarde-BookOblique ISOF
    /AvantGarde-Demi ISOF
    /AvantGarde-DemiOblique ISOF
    /Bookman-Demi ISOF
    /Bookman-DemiItalic ISOF
    /Bookman-Light ISOF
    /Bookman-LightItalic ISOF
    /Courier ISOF
    /Courier-Bold ISOF
    /Courier-BoldOblique ISOF
    /Courier-Oblique ISOF
    /Helvetica ISOF
    /Helvetica-Bold ISOF
    /Helvetica-BoldOblique ISOF
    /Helvetica-Narrow ISOF
    /Helvetica-Narrow-Bold ISOF
    /Helvetica-Narrow-BoldOblique ISOF
    /Helvetica-Narrow-Oblique ISOF
    /Helvetica-Oblique ISOF
    /NewCenturySchlbk-Bold ISOF
    /NewCenturySchlbk-BoldItalic ISOF
    /NewCenturySchlbk-Italic ISOF
    /NewCenturySchlbk-Roman ISOF
    /Palatino-Bold ISOF
    /Palatino-BoldItalic ISOF
    /Palatino-Italic ISOF
    /Palatino-Roman ISOF
    /Symbol findfont
    /Times-Bold ISOF
    /Times-BoldItalic ISOF
    /Times-Italic ISOF
    /Times-Roman ISOF
    /ZapfDingbats findfont
    /ZapfChancery-MediumItalic ISOF
] D
/F {
     FL exch get exch scalefont
     [1 0 0 -1 0 0] makefont setfont} BD
%%EndProlog
%%BeginSetup
<< /PageSize [612.0 792.0] /DeferredMediaSelection true /ImagingBBox null /ManualFeed false /NumCopies 1 >> pop 
%%EndSetup
%%Page: 1 1
/pgSave save def
792.0 0 exch translate 1 -1 scale[72 300 div 0 0 72 300 div 0 0]concat
G
[4.1666665 0.0 0.0 4.1666665 300.0 300.0] concat
N
0.0 0.0 M
468.0 0.0 L
468.0 648.0 L
0.0 648.0 L
0.0 0.0 L
P
WC
N
49.25 64.0 M
49.25 64.0 L
49.25 160.0 L
49.25 161.25 L
46.75 161.25 L
46.75 160.0 L
46.75 64.0 L
46.75 62.75 L
49.25 62.75 L
P
G
WC
WF
R N
N
48.75 63.0 M
48.75 63.0 L
176.75 159.0 L
177.75 159.75 L
176.25 161.75 L
175.25 161.0 L
47.25 65.0 L
46.25 64.25 L
47.75 62.25 L
P
G
WC
WF
R N
N
175.187 159.051 M
175.187 159.051 L
231.187 111.051 L
232.136 110.237 L
233.763 112.136 L
232.813 112.949 L
176.813 160.949 L
175.864 161.763 L
174.237 159.864 L
P
G
WC
WF
R N
N
231.187 112.949 M
231.187 112.949 L
175.187 64.949 L
174.237 64.136 L
175.864 62.237 L
176.813 63.051 L
232.813 111.051 L
233.763 111.864 L
232.136 113.763 L
P
G
WC
WF
R N
N
176.75 65.0 M
176.75 65.0 L
48.75 161.0 L
47.75 161.75 L
46.25 159.75 L
47.25 159.0 L
175.25 63.0 L
176.25 62.25 L
177.75 64.25 L
P
G
WC
WF
R N
N
174.75 64.0 M
174.75 64.0 L
174.75 32.0 L
174.75 30.75 L
177.25 30.75 L
177.25 32.0 L
177.25 64.0 L
177.25 65.25 L
174.75 65.25 L
P
G
WC
WF
R N
N
177.25 160.0 M
177.25 160.0 L
177.25 192.0 L
177.25 193.25 L
174.75 193.25 L
174.75 192.0 L
174.75 160.0 L
174.75 158.75 L
177.25 158.75 L
P
G
WC
WF
R N
N
232.0 110.75 M
232.0 110.75 L
264.0 110.75 L
265.25 110.75 L
265.25 113.25 L
264.0 113.25 L
232.0 113.25 L
230.75 113.25 L
230.75 110.75 L
P
G
WC
WF
R N
N
46.882 64.559 M
46.882 64.559 L
30.882 32.559 L
30.323 31.441 L
32.559 30.323 L
33.118 31.441 L
49.118 63.441 L
49.677 64.559 L
47.441 65.677 L
P
G
WC
WF
R N
N
49.118 160.559 M
49.118 160.559 L
33.118 192.559 L
32.559 193.677 L
30.323 192.559 L
30.882 191.441 L
46.882 159.441 L
47.441 158.323 L
49.677 159.441 L
P
G
WC
WF
R N
pgSave restore
showpage
%%EOF
