%!PS-Adobe-3.0 EPSF-3.0
%%BoundingBox: 86 510 346 690
%%Creator: hjf with JaxoDraw-2.1-0
%%Title: 
%%CreationDate: 13/9/2013
%%BeginProlog
/imStr 0 def /imageSrc {currentfile /ASCII85Decode filter /RunLengthDecode filter  imStr readstring pop } def
/BD {bind def} bind def
/D {def} BD
/C {curveto} BD
/L {lineto} BD
/M {moveto} BD
/R {grestore} BD
/G {gsave} BD
/N {newpath} BD
/P {closepath} BD
/EC {eoclip} BD
/WC {clip} BD
/EF {eofill} BD
/WF {fill} BD
/SG {setgray} BD
/SC {setrgbcolor} BD
/ISOF {
     dup findfont dup length 1 add dict begin {
             1 index /FID eq {pop pop} {D} ifelse
     } forall /Encoding ISOLatin1Encoding D
     currentdict end definefont
} BD
/NZ {dup 1 lt {pop 1} if} BD
/S {
     moveto 1 index stringwidth pop NZ sub
     1 index length 1 sub NZ div 0
     3 2 roll ashow newpath} BD
/FL [
    /AvantGarde-Book ISOF
    /AvantGarde-BookOblique ISOF
    /AvantGarde-Demi ISOF
    /AvantGarde-DemiOblique ISOF
    /Bookman-Demi ISOF
    /Bookman-DemiItalic ISOF
    /Bookman-Light ISOF
    /Bookman-LightItalic ISOF
    /Courier ISOF
    /Courier-Bold ISOF
    /Courier-BoldOblique ISOF
    /Courier-Oblique ISOF
    /Helvetica ISOF
    /Helvetica-Bold ISOF
    /Helvetica-BoldOblique ISOF
    /Helvetica-Narrow ISOF
    /Helvetica-Narrow-Bold ISOF
    /Helvetica-Narrow-BoldOblique ISOF
    /Helvetica-Narrow-Oblique ISOF
    /Helvetica-Oblique ISOF
    /NewCenturySchlbk-Bold ISOF
    /NewCenturySchlbk-BoldItalic ISOF
    /NewCenturySchlbk-Italic ISOF
    /NewCenturySchlbk-Roman ISOF
    /Palatino-Bold ISOF
    /Palatino-BoldItalic ISOF
    /Palatino-Italic ISOF
    /Palatino-Roman ISOF
    /Symbol findfont
    /Times-Bold ISOF
    /Times-BoldItalic ISOF
    /Times-Italic ISOF
    /Times-Roman ISOF
    /ZapfDingbats findfont
    /ZapfChancery-MediumItalic ISOF
] D
/F {
     FL exch get exch scalefont
     [1 0 0 -1 0 0] makefont setfont} BD
%%EndProlog
%%BeginSetup
<< /PageSize [612.0 792.0] /DeferredMediaSelection true /ImagingBBox null /ManualFeed false /NumCopies 1 >> pop 
%%EndSetup
%%Page: 1 1
/pgSave save def
792.0 0 exch translate 1 -1 scale[72 300 div 0 0 72 300 div 0 0]concat
G
[4.1666665 0.0 0.0 4.1666665 300.0 300.0] concat
N
0.0 0.0 M
468.0 0.0 L
468.0 648.0 L
0.0 648.0 L
0.0 0.0 L
P
WC
N
49.25 64.0 M
49.25 64.0 L
49.25 160.0 L
49.25 161.25 L
46.75 161.25 L
46.75 160.0 L
46.75 64.0 L
46.75 62.75 L
49.25 62.75 L
P
G
WC
WF
R N
N
48.0 158.75 M
48.0 158.75 L
240.0 158.75 L
241.25 158.75 L
241.25 161.25 L
240.0 161.25 L
48.0 161.25 L
46.75 161.25 L
46.75 158.75 L
P
G
WC
WF
R N
N
238.75 160.0 M
238.75 160.0 L
238.75 64.0 L
238.75 62.75 L
241.25 62.75 L
241.25 64.0 L
241.25 160.0 L
241.25 161.25 L
238.75 161.25 L
P
G
WC
WF
R N
N
240.0 65.25 M
240.0 65.25 L
48.0 65.25 L
46.75 65.25 L
46.75 62.75 L
48.0 62.75 L
240.0 62.75 L
241.25 62.75 L
241.25 65.25 L
P
G
WC
WF
R N
N
145.25 64.0 M
145.25 64.0 L
145.25 160.0 L
145.25 161.25 L
142.75 161.25 L
142.75 160.0 L
142.75 64.0 L
142.75 62.75 L
145.25 62.75 L
P
G
WC
WF
R N
N
240.884 159.116 M
240.884 159.116 L
272.884 191.116 L
273.768 192.0 L
272.0 193.768 L
271.116 192.884 L
239.116 160.884 L
238.232 160.0 L
240.0 158.232 L
P
G
WC
WF
R N
N
239.116 63.116 M
239.116 63.116 L
271.116 31.116 L
272.0 30.232 L
273.768 32.0 L
272.884 32.884 L
240.884 64.884 L
240.0 65.768 L
238.232 64.0 L
P
G
WC
WF
R N
N
47.116 64.884 M
47.116 64.884 L
15.116 32.884 L
14.232 32.0 L
16.0 30.232 L
16.884 31.116 L
48.884 63.116 L
49.768 64.0 L
48.0 65.768 L
P
G
WC
WF
R N
N
48.884 160.884 M
48.884 160.884 L
16.884 192.884 L
16.0 193.768 L
14.232 192.0 L
15.116 191.116 L
47.116 159.116 L
48.0 158.232 L
49.768 160.0 L
P
G
WC
WF
R N
N
145.25 160.0 M
145.25 160.0 L
145.25 208.0 L
145.25 209.25 L
142.75 209.25 L
142.75 208.0 L
142.75 160.0 L
142.75 158.75 L
145.25 158.75 L
P
G
WC
WF
R N
pgSave restore
showpage
%%EOF
