%!PS-Adobe-3.0 EPSF-3.0
%%BoundingBox: 86 510 378 706
%%Creator: hjf with JaxoDraw-2.1-0
%%Title: 
%%CreationDate: 13/9/2013
%%BeginProlog
/imStr 0 def /imageSrc {currentfile /ASCII85Decode filter /RunLengthDecode filter  imStr readstring pop } def
/BD {bind def} bind def
/D {def} BD
/C {curveto} BD
/L {lineto} BD
/M {moveto} BD
/R {grestore} BD
/G {gsave} BD
/N {newpath} BD
/P {closepath} BD
/EC {eoclip} BD
/WC {clip} BD
/EF {eofill} BD
/WF {fill} BD
/SG {setgray} BD
/SC {setrgbcolor} BD
/ISOF {
     dup findfont dup length 1 add dict begin {
             1 index /FID eq {pop pop} {D} ifelse
     } forall /Encoding ISOLatin1Encoding D
     currentdict end definefont
} BD
/NZ {dup 1 lt {pop 1} if} BD
/S {
     moveto 1 index stringwidth pop NZ sub
     1 index length 1 sub NZ div 0
     3 2 roll ashow newpath} BD
/FL [
    /AvantGarde-Book ISOF
    /AvantGarde-BookOblique ISOF
    /AvantGarde-Demi ISOF
    /AvantGarde-DemiOblique ISOF
    /Bookman-Demi ISOF
    /Bookman-DemiItalic ISOF
    /Bookman-Light ISOF
    /Bookman-LightItalic ISOF
    /Courier ISOF
    /Courier-Bold ISOF
    /Courier-BoldOblique ISOF
    /Courier-Oblique ISOF
    /Helvetica ISOF
    /Helvetica-Bold ISOF
    /Helvetica-BoldOblique ISOF
    /Helvetica-Narrow ISOF
    /Helvetica-Narrow-Bold ISOF
    /Helvetica-Narrow-BoldOblique ISOF
    /Helvetica-Narrow-Oblique ISOF
    /Helvetica-Oblique ISOF
    /NewCenturySchlbk-Bold ISOF
    /NewCenturySchlbk-BoldItalic ISOF
    /NewCenturySchlbk-Italic ISOF
    /NewCenturySchlbk-Roman ISOF
    /Palatino-Bold ISOF
    /Palatino-BoldItalic ISOF
    /Palatino-Italic ISOF
    /Palatino-Roman ISOF
    /Symbol findfont
    /Times-Bold ISOF
    /Times-BoldItalic ISOF
    /Times-Italic ISOF
    /Times-Roman ISOF
    /ZapfDingbats findfont
    /ZapfChancery-MediumItalic ISOF
] D
/F {
     FL exch get exch scalefont
     [1 0 0 -1 0 0] makefont setfont} BD
%%EndProlog
%%BeginSetup
<< /PageSize [612.0 792.0] /DeferredMediaSelection true /ImagingBBox null /ManualFeed false /NumCopies 1 >> pop 
%%EndSetup
%%Page: 1 1
/pgSave save def
792.0 0 exch translate 1 -1 scale[72 300 div 0 0 72 300 div 0 0]concat
G
[4.1666665 0.0 0.0 4.1666665 300.0 300.0] concat
N
0.0 0.0 M
468.0 0.0 L
468.0 648.0 L
0.0 648.0 L
0.0 0.0 L
P
WC
N
48.0 62.75 M
48.0 62.75 L
144.0 62.75 L
145.25 62.75 L
145.25 65.25 L
144.0 65.25 L
48.0 65.25 L
46.75 65.25 L
46.75 62.75 L
P
G
WC
WF
R N
N
145.25 64.0 M
145.25 64.0 L
145.25 160.0 L
145.25 161.25 L
142.75 161.25 L
142.75 160.0 L
142.75 64.0 L
142.75 62.75 L
145.25 62.75 L
P
G
WC
WF
R N
N
144.0 161.25 M
144.0 161.25 L
48.0 161.25 L
46.75 161.25 L
46.75 158.75 L
48.0 158.75 L
144.0 158.75 L
145.25 158.75 L
145.25 161.25 L
P
G
WC
WF
R N
N
46.75 160.0 M
46.75 160.0 L
46.75 64.0 L
46.75 62.75 L
49.25 62.75 L
49.25 64.0 L
49.25 160.0 L
49.25 161.25 L
46.75 161.25 L
P
G
WC
WF
R N
N
143.755 62.774 M
143.755 62.774 L
223.755 46.774 L
224.981 46.529 L
225.471 48.981 L
224.245 49.226 L
144.245 65.226 L
143.019 65.471 L
142.529 63.019 L
P
G
WC
WF
R N
N
225.0 47.25 M
225.0 47.25 L
273.0 111.25 L
273.75 112.25 L
271.75 113.75 L
271.0 112.75 L
223.0 48.75 L
222.25 47.75 L
224.25 46.25 L
P
G
WC
WF
R N
N
273.0 112.75 M
273.0 112.75 L
225.0 176.75 L
224.25 177.75 L
222.25 176.25 L
223.0 175.25 L
271.0 111.25 L
271.75 110.25 L
273.75 111.75 L
P
G
WC
WF
R N
N
223.755 177.226 M
223.755 177.226 L
143.755 161.226 L
142.529 160.981 L
143.019 158.529 L
144.245 158.774 L
224.245 174.774 L
225.471 175.019 L
224.981 177.471 L
P
G
WC
WF
R N
N
48.884 160.884 M
48.884 160.884 L
16.884 192.884 L
16.0 193.768 L
14.232 192.0 L
15.116 191.116 L
47.116 159.116 L
48.0 158.232 L
49.768 160.0 L
P
G
WC
WF
R N
N
47.116 64.884 M
47.116 64.884 L
15.116 32.884 L
14.232 32.0 L
16.0 30.232 L
16.884 31.116 L
48.884 63.116 L
49.768 64.0 L
48.0 65.768 L
P
G
WC
WF
R N
N
222.882 47.441 M
222.882 47.441 L
238.882 15.441 L
239.441 14.323 L
241.677 15.441 L
241.118 16.559 L
225.118 48.559 L
224.559 49.677 L
222.323 48.559 L
P
G
WC
WF
R N
N
272.0 110.75 M
272.0 110.75 L
304.0 110.75 L
305.25 110.75 L
305.25 113.25 L
304.0 113.25 L
272.0 113.25 L
270.75 113.25 L
270.75 110.75 L
P
G
WC
WF
R N
N
225.118 175.441 M
225.118 175.441 L
241.118 207.441 L
241.677 208.559 L
239.441 209.677 L
238.882 208.559 L
222.882 176.559 L
222.323 175.441 L
224.559 174.323 L
P
G
WC
WF
R N
pgSave restore
showpage
%%EOF
